14
Coordinates from ORCA-job mol
  C   1.80568079142792     -0.41726488717227      0.36245190828698
  C   2.89249017152384      0.37996489454247      0.02751485911453
  C   2.01272110969026     -1.76108098212260      0.64999119319779
  C   4.17505504775990     -0.16834379613103     -0.01810912422998
  C   4.36888631546358     -1.52221288149719      0.27411070443641
  C   3.28511728008317     -2.32178095884570      0.60916245566993
  H   2.75157662539843      1.43143679693243     -0.20020645422198
  C   6.43255915696970      0.55967170522495     -0.49873941327136
  H   0.80695278521225      0.00431785157578      0.39900258580013
  Cl  0.64201308417037     -2.77226794820127      1.07344358816120
  H   5.36704861240178     -1.94936627826202      0.23880876215288
  H   3.42976669088167     -3.37265134328047      0.83630921378523
  N   5.23806979010525      0.67219481637783     -0.36138705685301
  O   7.59170253891187      0.59322301085909     -0.66804322202876
