 14 
 
 C     1.9209	-0.3653    0.4479 
 C     2.9391	 0.3516   -0.1784 
 C     2.1249	-1.6766    0.8518 
 C     4.1870	-0.2504   -0.3942 
 C     4.3681	-1.5979   -0.0209 
 C     3.3469	-2.3002    0.6131 
 H     2.7687	 1.3765   -0.4874 
 C     6.1609	 0.5682   -0.3106 
 H     0.9591	 0.1109    0.6251 
 H     1.3271	-2.2235    1.3498 
 H     5.3148	-2.1047   -0.2086 
 H     3.5021	-3.3268    0.9201 
 N     5.2083	 0.5024   -1.0011 
 O     7.1057	 0.6064    0.3844 
