17
Coordinates from ORCA-job orca
  C   0.00328902578034      0.14980321171089      0.35269577092504
  C   0.93138664271440      1.10404820884751     -0.03135626663168
  C   0.41565269388265     -1.15227310431246      0.61795315877404
  C   2.27221087642007      0.73437557692975     -0.16087015277824
  C   2.69225228080303     -0.57015867382710      0.11096354064619
  C   1.75526029448573     -1.51217630912320      0.50047568591203
  H   0.63224420412937      2.12515131132721     -0.23596020153074
  C   3.23861379691583      1.71114079919566     -0.55745248562276
  H   -1.04114449586651      0.42171687043617      0.45053900574311
  H   -0.31417922437832     -1.89423676654780      0.92292929786594
  H   3.74142715999937     -0.82574576615006      0.02088646192118
  H   2.06749885950788     -2.52773143664077      0.71364438590699
  N   3.80948884933597      2.40828789954533     -1.33137670640278
  O   4.76981705953291      3.25249231494245     -1.25715011700686
  O   4.28695555478938      2.36356417637801      1.08464498343040
  S   5.53609875098716      2.98251905251044      0.58080685919504
  O   6.57752667096069      2.02622363477792      0.28932477965311
