14
Coordinates from ORCA-job orca E -400.028974844649
  C       1.806997     -0.419592      0.362265
  C       2.922676      0.352003      0.030274
  C       1.949608     -1.779650      0.662171
  C       4.193171     -0.242406     -0.001790
  C       4.343102     -1.607584      0.298593
  C       3.219814     -2.368147      0.628522
  H       2.828883      1.405482     -0.204694
  C       6.472869      0.673489     -0.531235
  H       0.825828      0.042593      0.386512
  H       1.080461     -2.375178      0.919770
  H       5.329927     -2.057214      0.271485
  H       3.338470     -3.421525      0.859683
  N       5.292558      0.545181     -0.335681
  O       7.629234      0.923148     -0.754876
14
Coordinates from ORCA-job orca E -400.031729446966
  C       1.817992     -0.421715      0.361328
  C       2.925754      0.348284      0.030576
  C       1.963280     -1.773282      0.659011
  C       4.187656     -0.241400     -0.001771
  C       4.342569     -1.596057      0.295559
  C       3.227556     -2.355242      0.624711
  H       2.829191      1.401725     -0.203813
  C       6.452713      0.658540     -0.524795
  H       0.836546      0.038185      0.386131
  H       1.096248     -2.370553      0.916663
  H       5.330389     -2.041529      0.266907
  H       3.349044     -3.407643      0.855384
  N       5.285514      0.548182     -0.335711
  O       7.589148      0.883105     -0.739181
14
Coordinates from ORCA-job orca E -400.031905230419
  C       1.817973     -0.423332      0.361751
  C       2.922330      0.349333      0.030729
  C       1.967336     -1.772828      0.658493
  C       4.183595     -0.236487     -0.002518
  C       4.343219     -1.588461      0.293509
  C       3.231703     -2.350365      0.623030
  H       2.821797      1.402647     -0.203029
  C       6.451493      0.651657     -0.522957
  H       0.835034      0.033897      0.387360
  H       1.102082     -2.372857      0.916584
  H       5.332614     -2.030675      0.263615
  H       3.356438     -3.402709      0.853346
  N       5.281452      0.556289     -0.337323
  O       7.586534      0.854489     -0.731589
14
Coordinates from ORCA-job orca E -400.032049548999
  C       1.815989     -0.425167      0.362557
  C       2.916092      0.352729      0.030609
  C       1.971920     -1.773398      0.658217
  C       4.178593     -0.227449     -0.004332
  C       4.345393     -1.577798      0.290362
  C       3.238167     -2.344880      0.620854
  H       2.809269      1.405676     -0.202182
  C       6.449646      0.640656     -0.519954
  H       0.830914      0.027693      0.389581
  H       1.109646     -2.377617      0.917087
  H       5.336961     -2.015191      0.258752
  H       3.367966     -3.396909      0.850541
  N       5.274777      0.571119     -0.340429
  O       7.588267      0.811136     -0.720662
14
Coordinates from ORCA-job orca E -400.032377599642
  C       1.809815     -0.429920      0.364953
  C       2.896993      0.364950      0.029580
  C       1.986582     -1.775360      0.657552
  C       4.165298     -0.197324     -0.011121
  C       4.354193     -1.544452      0.279942
  C       3.260037     -2.328288      0.613881
  H       2.770616      1.416371     -0.200309
  C       6.438767      0.601769     -0.508545
  H       0.818331      0.008883      0.396729
  H       1.134116     -2.392555      0.919117
  H       5.352115     -1.967140      0.243084
  H       3.405882     -3.378899      0.841419
  N       5.253231      0.621021     -0.351509
  O       7.587623      0.671545     -0.683771
14
Coordinates from ORCA-job orca E -400.032554401627
  C       1.806304     -0.432272      0.366354
  C       2.885672      0.373438      0.028841
  C       1.996193     -1.776677      0.657061
  C       4.159232     -0.176890     -0.015889
  C       4.361288     -1.523385      0.273357
  C       3.275140     -2.318027      0.609419
  H       2.747560      1.423679     -0.199439
  C       6.427311      0.573338     -0.499906
  H       0.811001     -0.002561      0.401092
  H       1.150183     -2.401979      0.920113
  H       5.362720     -1.937877      0.233480
  H       3.431157     -3.367478      0.835289
  N       5.238804      0.656827     -0.359944
  O       7.581034      0.580466     -0.658827
14
Coordinates from ORCA-job orca E -400.032641006251
  C       1.805007     -0.432447      0.366648
  C       2.883352      0.375477      0.028924
  C       1.997474     -1.777508      0.656901
  C       4.159847     -0.171561     -0.017027
  C       4.363465     -1.519277      0.272434
  C       3.278626     -2.316447      0.608616
  H       2.743988      1.425557     -0.199211
  C       6.423245      0.564401     -0.497480
  H       0.809037     -0.004732      0.401921
  H       1.152963     -2.404561      0.919867
  H       5.365148     -1.933521      0.232738
  H       3.436902     -3.365493      0.833868
  N       5.234586      0.668804     -0.362668
  O       7.579960      0.561907     -0.654532
14
Coordinates from ORCA-job orca E -400.032666653291
  C       1.805173     -0.431819      0.366377
  C       2.885381      0.373801      0.029100
  C       1.995096     -1.777652      0.657072
  C       4.162319     -0.174659     -0.016453
  C       4.362467     -1.523265      0.273702
  C       3.275954     -2.318577      0.609451
  H       2.749605      1.424268     -0.199530
  C       6.424545      0.566406     -0.498217
  H       0.809987     -0.002457      0.401188
  H       1.149566     -2.403308      0.919703
  H       5.363023     -1.940397      0.235243
  H       3.432635     -3.367716      0.834911
  N       5.235943      0.665804     -0.361640
  O       7.581905      0.580171     -0.659906
14
Coordinates from ORCA-job orca E -400.032672162614
  C       1.805427     -0.431614      0.366233
  C       2.886165      0.373004      0.029195
  C       1.994482     -1.777556      0.657104
  C       4.163090     -0.175839     -0.016165
  C       4.362054     -1.524389      0.274079
  C       3.275023     -2.318987      0.609675
  H       2.752009      1.423658     -0.199707
  C       6.424911      0.566154     -0.498211
  H       0.810470     -0.001697      0.400833
  H       1.148623     -2.402799      0.919659
  H       5.362158     -1.942682      0.235978
  H       3.431269     -3.368186      0.835199
  N       5.236277      0.664570     -0.361063
  O       7.581642      0.586962     -0.661810
14
Coordinates from ORCA-job orca E -400.032673342022
  C       1.805525     -0.431606      0.366188
  C       2.886245      0.372778      0.029253
  C       1.994493     -1.777494      0.657068
  C       4.163102     -0.176046     -0.016054
  C       4.361940     -1.524375      0.274135
  C       3.274837     -2.318863      0.609678
  H       2.752583      1.423499     -0.199731
  C       6.425092      0.565517     -0.498115
  H       0.810559     -0.001651      0.400726
  H       1.148607     -2.402733      0.919617
  H       5.361935     -1.942965      0.236090
  H       3.431124     -3.368085      0.835206
  N       5.236306      0.664375     -0.360833
  O       7.581252      0.588249     -0.662230
14
Coordinates from ORCA-job orca E -400.032673436765
  C       1.805518     -0.431625      0.366176
  C       2.886169      0.372808      0.029281
  C       1.994561     -1.777494      0.657034
  C       4.162998     -0.175990     -0.016002
  C       4.361957     -1.524250      0.274146
  C       3.274862     -2.318793      0.609664
  H       2.752514      1.423535     -0.199694
  C       6.425142      0.565351     -0.498135
  H       0.810518     -0.001733      0.400703
  H       1.148690     -2.402775      0.919563
  H       5.361958     -1.942820      0.236106
  H       3.431223     -3.368015      0.835180
  N       5.236305      0.664458     -0.360764
  O       7.581186      0.587942     -0.662258
