-------------------------------------------------------------
----------------------- !PROPERTIES! ------------------------
-------------------------------------------------------------
# -----------------------------------------------------------
$ PAL_Flags
   description: The PAL Flags
   geom. index: 1
   prop. index: 1
        Diskflag:     2
# -----------------------------------------------------------
$ SCF_Energy
   description: The SCF energy
   geom. index: 1
   prop. index: 1
        SCF Energy:     -399.6494095156
# -----------------------------------------------------------
$ DFT_Energy
   description: The DFT energy
   geom. index: 1
   prop. index: 1
   Number of Alpha Electrons                 31.0000204813 
   Number of Beta  Electrons                 31.0000204813 
   Total number of  Electrons                62.0000409625 
   Exchange energy                          -53.0821733532 
   Correlation energy                        -2.0233252291 
   Correlation energy NL                      0.0000000000 
   Exchange-Correlation energy              -55.1054985822 
   Embedding correction                       0.0000000000 
   Total DFT Energy (No VdW correction)    -399.6494095156 
# -----------------------------------------------------------
$ Mayer_Pop
   description: The Mayer population analysis
   geom. index: 1
   prop. index: 1
     Number of atoms                     : 14
     Threshold for printing              : 0.1000000
     Number of bond orders printed       : 14
  NA   - Mulliken gross atomic population
  ZA   - Total nuclear charge
  QA   - Mulliken gross atomic charge
  VA   - Mayer's total valence
  BVA  - Mayer's bonded valence
  FA   - Mayer's free valence
  ATOM       NA         ZA         QA         VA         BVA        FA
  0   0     6.1219     6.0000    -0.1219     3.7894     3.7894     0.0000
  1   0     6.2641     6.0000    -0.2641     3.8865     3.8865     0.0000
  2   0     6.1576     6.0000    -0.1576     3.8499     3.8499     0.0000
  3   0     5.8278     6.0000     0.1722     3.6924     3.6924    -0.0000
  4   0     6.2704     6.0000    -0.2704     3.8586     3.8586    -0.0000
  5   0     6.1335     6.0000    -0.1335     3.8156     3.8156    -0.0000
  6   0     0.8400     1.0000     0.1600     0.9681     0.9681    -0.0000
  7   0     5.6994     6.0000     0.3006     3.8217     3.8217     0.0000
  8   0     0.8459     1.0000     0.1541     0.9669     0.9669     0.0000
  9   0     0.8470     1.0000     0.1530     0.9669     0.9669    -0.0000
 10   0     0.8449     1.0000     0.1551     0.9687     0.9687    -0.0000
 11   0     0.8462     1.0000     0.1538     0.9672     0.9672    -0.0000
 12   0     6.9562     7.0000     0.0438     2.8295     2.8295    -0.0000
 13   0     8.3452     8.0000    -0.3452     2.0486     2.0486     0.0000
      Bond orders larger than 0.1000000
           Atom A     A.N. of A          Atom B    A.N. of B              Bond order
                0             6               1            6                1.386336
                0             6               2            6                1.417323
                0             6               8            1                0.946257
                1             6               3            6                1.424814
                1             6               6            1                0.939913
                2             6               5            6                1.413464
                2             6               9            1                0.946070
                3             6               4            6                1.372223
                3             6              12            7                0.890919
                4             6               5            6                1.408745
                4             6              10            1                0.948252
                5             6              11            1                0.947384
                7             6              12            7                1.810114
                7             6              13            8                1.953145
# -----------------------------------------------------------
$ VdW_Correction
   description: The Van der Waals Correction
   geom. index: 1
   prop. index: 1
        Van der Waals Correction:       -0.0045807797
# -----------------------------------------------------------
$ PAL_Flags
   description: The PAL Flags
   geom. index: 2
   prop. index: 1
        Diskflag:     2
# -----------------------------------------------------------
$ SCF_Energy
   description: The SCF energy
   geom. index: 2
   prop. index: 1
        SCF Energy:     -399.6514730375
# -----------------------------------------------------------
$ DFT_Energy
   description: The DFT energy
   geom. index: 2
   prop. index: 1
   Number of Alpha Electrons                 31.0000191227 
   Number of Beta  Electrons                 31.0000191227 
   Total number of  Electrons                62.0000382455 
   Exchange energy                          -53.1349377448 
   Correlation energy                        -2.0258442041 
   Correlation energy NL                      0.0000000000 
   Exchange-Correlation energy              -55.1607819489 
   Embedding correction                       0.0000000000 
   Total DFT Energy (No VdW correction)    -399.6514730375 
# -----------------------------------------------------------
$ VdW_Correction
   description: The Van der Waals Correction
   geom. index: 2
   prop. index: 1
        Van der Waals Correction:       -0.0046034330
# -----------------------------------------------------------
$ PAL_Flags
   description: The PAL Flags
   geom. index: 3
   prop. index: 1
        Diskflag:     2
# -----------------------------------------------------------
$ SCF_Energy
   description: The SCF energy
   geom. index: 3
   prop. index: 1
        SCF Energy:     -399.6517675444
# -----------------------------------------------------------
$ DFT_Energy
   description: The DFT energy
   geom. index: 3
   prop. index: 1
   Number of Alpha Electrons                 31.0000162255 
   Number of Beta  Electrons                 31.0000162255 
   Total number of  Electrons                62.0000324509 
   Exchange energy                          -53.1474592019 
   Correlation energy                        -2.0264230537 
   Correlation energy NL                      0.0000000000 
   Exchange-Correlation energy              -55.1738822556 
   Embedding correction                       0.0000000000 
   Total DFT Energy (No VdW correction)    -399.6517675444 
# -----------------------------------------------------------
$ VdW_Correction
   description: The Van der Waals Correction
   geom. index: 3
   prop. index: 1
        Van der Waals Correction:       -0.0046111641
# -----------------------------------------------------------
$ PAL_Flags
   description: The PAL Flags
   geom. index: 4
   prop. index: 1
        Diskflag:     2
# -----------------------------------------------------------
$ SCF_Energy
   description: The SCF energy
   geom. index: 4
   prop. index: 1
        SCF Energy:     -399.6520786769
# -----------------------------------------------------------
$ DFT_Energy
   description: The DFT energy
   geom. index: 4
   prop. index: 1
   Number of Alpha Electrons                 31.0000103040 
   Number of Beta  Electrons                 31.0000103040 
   Total number of  Electrons                62.0000206081 
   Exchange energy                          -53.1531226564 
   Correlation energy                        -2.0266365923 
   Correlation energy NL                      0.0000000000 
   Exchange-Correlation energy              -55.1797592487 
   Embedding correction                       0.0000000000 
   Total DFT Energy (No VdW correction)    -399.6520786769 
# -----------------------------------------------------------
$ VdW_Correction
   description: The Van der Waals Correction
   geom. index: 4
   prop. index: 1
        Van der Waals Correction:       -0.0046202703
# -----------------------------------------------------------
$ PAL_Flags
   description: The PAL Flags
   geom. index: 5
   prop. index: 1
        Diskflag:     2
# -----------------------------------------------------------
$ SCF_Energy
   description: The SCF energy
   geom. index: 5
   prop. index: 1
        SCF Energy:     -399.6525738384
# -----------------------------------------------------------
$ DFT_Energy
   description: The DFT energy
   geom. index: 5
   prop. index: 1
   Number of Alpha Electrons                 30.9999961140 
   Number of Beta  Electrons                 30.9999961140 
   Total number of  Electrons                61.9999922280 
   Exchange energy                          -53.1546661773 
   Correlation energy                        -2.0265587753 
   Correlation energy NL                      0.0000000000 
   Exchange-Correlation energy              -55.1812249527 
   Embedding correction                       0.0000000000 
   Total DFT Energy (No VdW correction)    -399.6525738384 
# -----------------------------------------------------------
$ VdW_Correction
   description: The Van der Waals Correction
   geom. index: 5
   prop. index: 1
        Van der Waals Correction:       -0.0046440769
# -----------------------------------------------------------
$ PAL_Flags
   description: The PAL Flags
   geom. index: 6
   prop. index: 1
        Diskflag:     2
# -----------------------------------------------------------
$ SCF_Energy
   description: The SCF energy
   geom. index: 6
   prop. index: 1
        SCF Energy:     -399.6527248462
# -----------------------------------------------------------
$ DFT_Energy
   description: The DFT energy
   geom. index: 6
   prop. index: 1
   Number of Alpha Electrons                 30.9999940342 
   Number of Beta  Electrons                 30.9999940342 
   Total number of  Electrons                61.9999880684 
   Exchange energy                          -53.1450114649 
   Correlation energy                        -2.0260420675 
   Correlation energy NL                      0.0000000000 
   Exchange-Correlation energy              -55.1710535324 
   Embedding correction                       0.0000000000 
   Total DFT Energy (No VdW correction)    -399.6527248462 
# -----------------------------------------------------------
$ VdW_Correction
   description: The Van der Waals Correction
   geom. index: 6
   prop. index: 1
        Van der Waals Correction:       -0.0046454729
# -----------------------------------------------------------
$ PAL_Flags
   description: The PAL Flags
   geom. index: 7
   prop. index: 1
        Diskflag:     2
# -----------------------------------------------------------
$ SCF_Energy
   description: The SCF energy
   geom. index: 7
   prop. index: 1
        SCF Energy:     -399.6527778647
# -----------------------------------------------------------
$ DFT_Energy
   description: The DFT energy
   geom. index: 7
   prop. index: 1
   Number of Alpha Electrons                 30.9999942018 
   Number of Beta  Electrons                 30.9999942018 
   Total number of  Electrons                61.9999884036 
   Exchange energy                          -53.1350930027 
   Correlation energy                        -2.0255105648 
   Correlation energy NL                      0.0000000000 
   Exchange-Correlation energy              -55.1606035675 
   Embedding correction                       0.0000000000 
   Total DFT Energy (No VdW correction)    -399.6527778647 
# -----------------------------------------------------------
$ VdW_Correction
   description: The Van der Waals Correction
   geom. index: 7
   prop. index: 1
        Van der Waals Correction:       -0.0046415474
# -----------------------------------------------------------
$ PAL_Flags
   description: The PAL Flags
   geom. index: 8
   prop. index: 1
        Diskflag:     2
# -----------------------------------------------------------
$ SCF_Energy
   description: The SCF energy
   geom. index: 8
   prop. index: 1
        SCF Energy:     -399.6527817321
# -----------------------------------------------------------
$ DFT_Energy
   description: The DFT energy
   geom. index: 8
   prop. index: 1
   Number of Alpha Electrons                 30.9999939534 
   Number of Beta  Electrons                 30.9999939534 
   Total number of  Electrons                61.9999879068 
   Exchange energy                          -53.1353849699 
   Correlation energy                        -2.0255156194 
   Correlation energy NL                      0.0000000000 
   Exchange-Correlation energy              -55.1609005893 
   Embedding correction                       0.0000000000 
   Total DFT Energy (No VdW correction)    -399.6527817321 
# -----------------------------------------------------------
$ VdW_Correction
   description: The Van der Waals Correction
   geom. index: 8
   prop. index: 1
        Van der Waals Correction:       -0.0046425370
# -----------------------------------------------------------
$ PAL_Flags
   description: The PAL Flags
   geom. index: 9
   prop. index: 1
        Diskflag:     2
# -----------------------------------------------------------
$ SCF_Energy
   description: The SCF energy
   geom. index: 9
   prop. index: 1
        SCF Energy:     -399.6527852418
# -----------------------------------------------------------
$ DFT_Energy
   description: The DFT energy
   geom. index: 9
   prop. index: 1
   Number of Alpha Electrons                 30.9999940906 
   Number of Beta  Electrons                 30.9999940906 
   Total number of  Electrons                61.9999881811 
   Exchange energy                          -53.1358530212 
   Correlation energy                        -2.0255338705 
   Correlation energy NL                      0.0000000000 
   Exchange-Correlation energy              -55.1613868917 
   Embedding correction                       0.0000000000 
   Total DFT Energy (No VdW correction)    -399.6527852418 
# -----------------------------------------------------------
$ VdW_Correction
   description: The Van der Waals Correction
   geom. index: 9
   prop. index: 1
        Van der Waals Correction:       -0.0046424938
# -----------------------------------------------------------
$ PAL_Flags
   description: The PAL Flags
   geom. index: 10
   prop. index: 1
        Diskflag:     2
# -----------------------------------------------------------
$ SCF_Energy
   description: The SCF energy
   geom. index: 10
   prop. index: 1
        SCF Energy:     -399.6527858412
# -----------------------------------------------------------
$ DFT_Energy
   description: The DFT energy
   geom. index: 10
   prop. index: 1
   Number of Alpha Electrons                 30.9999941727 
   Number of Beta  Electrons                 30.9999941727 
   Total number of  Electrons                61.9999883455 
   Exchange energy                          -53.1359308167 
   Correlation energy                        -2.0255385817 
   Correlation energy NL                      0.0000000000 
   Exchange-Correlation energy              -55.1614693984 
   Embedding correction                       0.0000000000 
   Total DFT Energy (No VdW correction)    -399.6527858412 
# -----------------------------------------------------------
$ Mayer_Pop
   description: The Mayer population analysis
   geom. index: 10
   prop. index: 1
     Number of atoms                     : 14
     Threshold for printing              : 0.1000000
     Number of bond orders printed       : 14
  NA   - Mulliken gross atomic population
  ZA   - Total nuclear charge
  QA   - Mulliken gross atomic charge
  VA   - Mayer's total valence
  BVA  - Mayer's bonded valence
  FA   - Mayer's free valence
  ATOM       NA         ZA         QA         VA         BVA        FA
  0   0     6.1175     6.0000    -0.1175     3.7826     3.7826    -0.0000
  1   0     6.2880     6.0000    -0.2880     3.9093     3.9093     0.0000
  2   0     6.1609     6.0000    -0.1609     3.8573     3.8573     0.0000
  3   0     5.7144     6.0000     0.2856     3.6271     3.6271    -0.0000
  4   0     6.2938     6.0000    -0.2938     3.8702     3.8702     0.0000
  5   0     6.1414     6.0000    -0.1414     3.8319     3.8319     0.0000
  6   0     0.8411     1.0000     0.1589     0.9690     0.9690     0.0000
  7   0     5.6323     6.0000     0.3677     3.8326     3.8326     0.0000
  8   0     0.8473     1.0000     0.1527     0.9675     0.9675    -0.0000
  9   0     0.8481     1.0000     0.1519     0.9674     0.9674    -0.0000
 10   0     0.8506     1.0000     0.1494     0.9703     0.9703    -0.0000
 11   0     0.8481     1.0000     0.1519     0.9679     0.9679     0.0000
 12   0     7.0930     7.0000    -0.0930     2.8308     2.8308     0.0000
 13   0     8.3235     8.0000    -0.3235     2.0574     2.0574    -0.0000
      Bond orders larger than 0.1000000
           Atom A     A.N. of A          Atom B    A.N. of B              Bond order
                0             6               1            6                1.382077
                0             6               2            6                1.421872
                0             6               8            1                0.945278
                1             6               3            6                1.443824
                1             6               6            1                0.931255
                2             6               5            6                1.417226
                2             6               9            1                0.945817
                3             6               4            6                1.347862
                3             6              12            7                0.842202
                4             6               5            6                1.421555
                4             6              10            1                0.952467
                5             6              11            1                0.948795
                7             6              12            7                1.820326
                7             6              13            8                1.959508
# -----------------------------------------------------------
$ VdW_Correction
   description: The Van der Waals Correction
   geom. index: 10
   prop. index: 1
        Van der Waals Correction:       -0.0046423188
# -----------------------------------------------------------
$ SCF_Electric_Properties
   description: The SCF Calculated Electric Properties
   geom. index: 10
   prop. index: 1
       Filename                          : /scratch/obeletsan/orcajob__14287-68rI/product.scfp 
       Do Dipole Moment Calculation      : true 
       Do Quadrupole Moment Calculation  : false 
       Do Polarizability Calculation     : false 
** Dipole moment part of electric properties **
        Magnitude of dipole moment (Debye) :        2.3299540715
        Electronic Contribution:
                  0    
      0       6.506798
      1       3.463403
      2      -1.702197
        Nuclear Contribution:
                  0    
      0      -7.295419
      1      -3.882145
      2       1.909534
        Total Dipole moment:
                  0    
      0      -0.788622
      1      -0.418742
      2       0.207337
# -----------------------------------------------------------
$ Hessian
   description: Details about the Hessian
   geom. index: 10
   prop. index: 1
Normal modes:
Number of Rows: 42 Number of Columns: 42
                  0          1          2          3          4          5    
      0       0.000000   0.000000   0.000000   0.000000   0.000000   0.000000
      1       0.000000   0.000000   0.000000   0.000000   0.000000   0.000000
      2       0.000000   0.000000   0.000000   0.000000   0.000000   0.000000
      3       0.000000   0.000000   0.000000   0.000000   0.000000   0.000000
      4       0.000000   0.000000   0.000000   0.000000   0.000000   0.000000
      5       0.000000   0.000000   0.000000   0.000000   0.000000   0.000000
      6       0.000000   0.000000   0.000000   0.000000   0.000000   0.000000
      7       0.000000   0.000000   0.000000   0.000000   0.000000   0.000000
      8       0.000000   0.000000   0.000000   0.000000   0.000000   0.000000
      9       0.000000   0.000000   0.000000   0.000000   0.000000   0.000000
     10       0.000000   0.000000   0.000000   0.000000   0.000000   0.000000
     11       0.000000   0.000000   0.000000   0.000000   0.000000   0.000000
     12       0.000000   0.000000   0.000000   0.000000   0.000000   0.000000
     13       0.000000   0.000000   0.000000   0.000000   0.000000   0.000000
     14       0.000000   0.000000   0.000000   0.000000   0.000000   0.000000
     15       0.000000   0.000000   0.000000   0.000000   0.000000   0.000000
     16       0.000000   0.000000   0.000000   0.000000   0.000000   0.000000
     17       0.000000   0.000000   0.000000   0.000000   0.000000   0.000000
     18       0.000000   0.000000   0.000000   0.000000   0.000000   0.000000
     19       0.000000   0.000000   0.000000   0.000000   0.000000   0.000000
     20       0.000000   0.000000   0.000000   0.000000   0.000000   0.000000
     21       0.000000   0.000000   0.000000   0.000000   0.000000   0.000000
     22       0.000000   0.000000   0.000000   0.000000   0.000000   0.000000
     23       0.000000   0.000000   0.000000   0.000000   0.000000   0.000000
     24       0.000000   0.000000   0.000000   0.000000   0.000000   0.000000
     25       0.000000   0.000000   0.000000   0.000000   0.000000   0.000000
     26       0.000000   0.000000   0.000000   0.000000   0.000000   0.000000
     27       0.000000   0.000000   0.000000   0.000000   0.000000   0.000000
     28       0.000000   0.000000   0.000000   0.000000   0.000000   0.000000
     29       0.000000   0.000000   0.000000   0.000000   0.000000   0.000000
     30       0.000000   0.000000   0.000000   0.000000   0.000000   0.000000
     31       0.000000   0.000000   0.000000   0.000000   0.000000   0.000000
     32       0.000000   0.000000   0.000000   0.000000   0.000000   0.000000
     33       0.000000   0.000000   0.000000   0.000000   0.000000   0.000000
     34       0.000000   0.000000   0.000000   0.000000   0.000000   0.000000
     35       0.000000   0.000000   0.000000   0.000000   0.000000   0.000000
     36       0.000000   0.000000   0.000000   0.000000   0.000000   0.000000
     37       0.000000   0.000000   0.000000   0.000000   0.000000   0.000000
     38       0.000000   0.000000   0.000000   0.000000   0.000000   0.000000
     39       0.000000   0.000000   0.000000   0.000000   0.000000   0.000000
     40       0.000000   0.000000   0.000000   0.000000   0.000000   0.000000
     41       0.000000   0.000000   0.000000   0.000000   0.000000   0.000000
                  6          7          8          9         10         11    
      0      -0.028447   0.003504   0.003371  -0.143754   0.027719  -0.053362
      1      -0.050712   0.094136   0.005775  -0.148655   0.047866  -0.137102
      2      -0.209044  -0.026600   0.025447   0.054624   0.202910   0.041345
      3      -0.000374   0.107865   0.034751  -0.239811  -0.028547   0.051151
      4       0.002692  -0.043031   0.061002   0.059709  -0.049679  -0.216129
      5       0.008729  -0.003944   0.258021   0.018012  -0.210946   0.044444
      6      -0.025402  -0.158153  -0.035516  -0.048695   0.000828  -0.276810
      7      -0.049479   0.076637  -0.062203  -0.142820   0.001452  -0.149473
      8      -0.205344  -0.000930  -0.263895   0.040697   0.005716   0.070016
      9       0.027749   0.054166   0.020142  -0.133435   0.000026   0.167655
     10       0.052024  -0.185213   0.035877   0.196554  -0.000394   0.015656
     11       0.208407   0.040625   0.150220  -0.027638  -0.000782  -0.030861
     12       0.034268  -0.105833   0.035087  -0.139357   0.027828  -0.100844
     13       0.059254  -0.203472   0.061026   0.209033   0.047596  -0.057800
     14       0.237630   0.067543   0.256853  -0.029985   0.203090   0.027787
     15       0.007395  -0.217498   0.000014   0.016065  -0.028394  -0.227924
     16       0.007827  -0.068044  -0.000745   0.038059  -0.048943  -0.020627
     17       0.028245   0.046321  -0.004078  -0.011648  -0.208363   0.037547
     18      -0.003312   0.238939   0.043523  -0.488281  -0.058654  -0.073148
     19       0.000903  -0.030998   0.076728   0.038724  -0.101929  -0.225346
     20       0.002212  -0.024714   0.325234   0.055793  -0.433407   0.069287
     21      -0.004220   0.109982  -0.013416   0.207883   0.000022   0.140237
     22      -0.005463   0.056271  -0.022842  -0.113163   0.000483   0.363390
     23      -0.018691  -0.028815  -0.096702  -0.002044   0.001500  -0.107582
     24      -0.052969   0.052861  -0.003416  -0.189813   0.060025   0.030783
     25      -0.093505   0.211800  -0.006056  -0.253282   0.103616   0.066166
     26      -0.382419  -0.064417  -0.022693   0.085562   0.439143  -0.012934
     27      -0.047389  -0.236145  -0.081225   0.018271   0.002457  -0.292918
     28      -0.090994   0.174718  -0.141771  -0.229419   0.004138  -0.132263
     29      -0.375253  -0.017105  -0.600912   0.052331   0.017499   0.067833
     30       0.059839  -0.153498   0.044821  -0.098141   0.058936  -0.203190
     31       0.103879  -0.317146   0.078001   0.314850   0.101269  -0.316794
     32       0.419395   0.104459   0.326742  -0.060358   0.431783   0.108465
     33       0.011575  -0.346805  -0.009543   0.216765  -0.060148  -0.150001
     34       0.011829  -0.083103  -0.017786   0.061496  -0.103362  -0.013254
     35       0.044017   0.067789  -0.076682  -0.045414  -0.439691   0.029966
     36       0.050819   0.102620  -0.046016   0.195257   0.000846   0.098425
     37       0.095455  -0.276061  -0.079448  -0.152536   0.001834   0.372151
     38       0.384221   0.057268  -0.336551   0.009944   0.007404  -0.099099
     39      -0.050687   0.092701   0.007319   0.224101  -0.000518   0.182206
     40      -0.091403   0.449104   0.011805   0.063741  -0.000625  -0.135037
     41      -0.355433  -0.124967   0.053207  -0.045768  -0.002289   0.008170
                 12         13         14         15         16         17    
      0       0.017434  -0.006168   0.352030  -0.170978   0.022510  -0.001555
      1       0.030711  -0.009955  -0.038656   0.099461   0.038834  -0.002483
      2       0.127315  -0.045926  -0.038525   0.000285   0.165576  -0.010858
      3       0.000040   0.003128   0.070595  -0.162455  -0.014038  -0.010032
      4       0.001890   0.006372   0.288968   0.084172  -0.024476  -0.017398
      5       0.003535   0.024037  -0.077755   0.001999  -0.103696  -0.073579
      6      -0.024081   0.010050   0.082394   0.147721  -0.015881  -0.014874
      7      -0.043363   0.016181  -0.106737   0.116300  -0.027176  -0.025600
      8      -0.187451   0.064529   0.013652  -0.047909  -0.115456  -0.108533
      9      -0.041923   0.009650  -0.080306  -0.164211   0.016892   0.023632
     10      -0.070994   0.017562   0.107055  -0.117095   0.029136   0.040598
     11      -0.301080   0.077768  -0.014175   0.050027   0.123533   0.172541
     12       0.000913   0.004366  -0.304253   0.088951  -0.012901  -0.011250
     13       0.001263   0.006031   0.007848  -0.092750  -0.022426  -0.019538
     14       0.003413   0.027153   0.039358   0.009076  -0.094960  -0.083439
     15       0.018159  -0.004747  -0.058132   0.100524   0.022518  -0.001951
     16       0.029607  -0.009796  -0.344748  -0.046389   0.039021  -0.003325
     17       0.125270  -0.041015   0.089003  -0.002489   0.165629  -0.014339
     18       0.048491  -0.007823  -0.089259   0.009380  -0.067233   0.015007
     19       0.084211  -0.014508   0.273326   0.101418  -0.115966   0.025708
     20       0.353470  -0.065421  -0.052883  -0.025395  -0.492895   0.109799
     21      -0.004963  -0.112511  -0.019802   0.004049  -0.001344  -0.002533
     22      -0.009855  -0.194569   0.104507   0.649890  -0.002611  -0.004483
     23      -0.031790  -0.816610  -0.022160  -0.154148  -0.010101  -0.018333
     24       0.063850  -0.025304   0.294769  -0.255368  -0.009824   0.066378
     25       0.110331  -0.043166  -0.178926  -0.098397  -0.016803   0.114586
     26       0.471000  -0.183324   0.001996   0.059198  -0.071621   0.486474
     27      -0.028839   0.007752  -0.189489   0.206220  -0.075303   0.078268
     28      -0.052006   0.012201   0.241535   0.040463  -0.129994   0.135115
     29      -0.223478   0.047602  -0.030660  -0.038293  -0.551969   0.574602
     30       0.052244  -0.005942  -0.244033   0.161725  -0.070441   0.022781
     31       0.090157  -0.011453   0.155402   0.100070  -0.121719   0.039133
     32       0.375837  -0.051750  -0.002375  -0.046340  -0.516724   0.166090
     33       0.065213  -0.022883   0.092848  -0.088246  -0.012263   0.070866
     34       0.111201  -0.039470  -0.328798  -0.067096  -0.020873   0.122103
     35       0.472528  -0.166655   0.065714   0.029037  -0.089008   0.519075
     36       0.013580   0.035055  -0.009373   0.023913   0.001220  -0.003354
     37       0.022406   0.062510   0.010536  -0.341831   0.002363  -0.005637
     38       0.102751   0.266693  -0.001054   0.078133   0.008892  -0.024244
     39       0.001272   0.044921  -0.015183   0.094279   0.000422   0.000903
     40       0.004285   0.077519  -0.033147  -0.225912   0.000738   0.001601
     41       0.014374   0.325670   0.010025   0.040372   0.002806   0.006716
                 18         19         20         21         22         23    
      0       0.236093  -0.008675  -0.000492   0.010883  -0.011796   0.021596
      1      -0.125170  -0.014994  -0.000702   0.018767  -0.020266  -0.005111
      2      -0.002654  -0.063796  -0.003115   0.079715  -0.086204  -0.001950
      3       0.193042  -0.010075  -0.013591  -0.010372   0.005292  -0.050247
      4      -0.111540  -0.017238  -0.023664  -0.017873   0.008771   0.381082
      5      -0.000335  -0.073861  -0.099885  -0.076091   0.037923  -0.082807
      6      -0.165803  -0.001329   0.012545   0.002738   0.011472  -0.316453
      7      -0.125794  -0.002385   0.021393   0.004818   0.019742  -0.233213
      8       0.052015  -0.010081   0.090412   0.020724   0.083887   0.098337
      9       0.099864  -0.000393   0.009723   0.000869   0.000949   0.002727
     10       0.067410  -0.000536   0.016794   0.001558   0.001541   0.006779
     11      -0.029635  -0.002316   0.071378   0.006711   0.006261  -0.001940
     12      -0.059729   0.011923  -0.013524   0.009492   0.001729   0.359315
     13       0.236206   0.020562  -0.022966   0.016313   0.003424  -0.157638
     14      -0.047541   0.087556  -0.097766   0.069242   0.014046  -0.012122
     15      -0.040295   0.007701   0.003103  -0.014142  -0.007911   0.006811
     16       0.297682   0.013153   0.005328  -0.024428  -0.013711   0.026256
     17      -0.064199   0.056673   0.022865  -0.103864  -0.058128  -0.007095
     18       0.023555   0.068491   0.077008   0.055471  -0.040540  -0.070104
     19      -0.135084   0.118177   0.132406   0.095578  -0.070279   0.397661
     20       0.029979   0.502267   0.564194   0.406626  -0.298464  -0.083292
     21      -0.106177  -0.000104  -0.000707  -0.000054  -0.000022  -0.009592
     22       0.149345  -0.000235  -0.001277  -0.000130   0.000019  -0.004866
     23      -0.021748  -0.000924  -0.005263  -0.000491  -0.000014   0.002369
     24       0.369703   0.059882   0.002069  -0.060244   0.078428   0.020623
     25       0.181668   0.103063   0.003672  -0.103750   0.135252   0.042032
     26      -0.093106   0.438602   0.015503  -0.441609   0.573935  -0.011548
     27      -0.139367   0.008658  -0.071191  -0.017533  -0.073900  -0.325107
     28      -0.152518   0.015292  -0.123362  -0.030199  -0.127825  -0.251275
     29       0.054797   0.064296  -0.524347  -0.128084  -0.542820   0.101052
     30      -0.118835  -0.077036   0.072400  -0.053454  -0.022395   0.363228
     31       0.117039  -0.132839   0.125275  -0.092237  -0.038181  -0.194811
     32      -0.011510  -0.565210   0.532647  -0.392900  -0.162988  -0.001998
     33       0.322865  -0.051488  -0.019604   0.083151   0.056680   0.059354
     34       0.344483  -0.088917  -0.033668   0.143369   0.097436   0.013416
     35      -0.125890  -0.377401  -0.143004   0.609849   0.414523  -0.011106
     36      -0.012167   0.000179  -0.002170  -0.000036   0.000446   0.005640
     37      -0.298996   0.000377  -0.003650  -0.000057   0.000702  -0.012944
     38       0.072689   0.001339  -0.015796  -0.000267   0.003155   0.002283
     39      -0.135986   0.000022   0.000284   0.000006  -0.000065  -0.018584
     40      -0.051840  -0.000006   0.000444  -0.000023  -0.000027   0.000920
     41       0.031145  -0.000051   0.001825  -0.000120  -0.000094   0.002344
                 24         25         26         27         28         29    
      0       0.146967   0.073532   0.140424   0.017283  -0.022401   0.017052
      1      -0.131595  -0.008151  -0.021141   0.041376  -0.049773   0.102321
      2       0.010861  -0.008091  -0.014226  -0.012103   0.014754  -0.026397
      3      -0.084592  -0.047059  -0.005704  -0.004110   0.048660  -0.028161
      4       0.042277  -0.093362  -0.022554   0.005601   0.009278   0.031610
      5       0.001565   0.028378   0.006140  -0.000733  -0.008806  -0.003594
      6       0.091423  -0.059792  -0.041746   0.036577  -0.002621   0.019511
      7       0.069976   0.068621  -0.032674  -0.050633  -0.002737  -0.028112
      8      -0.028887  -0.007975   0.013402   0.006913   0.001009   0.003997
      9      -0.027547  -0.031016  -0.302284  -0.010492   0.021827   0.132063
     10      -0.016737   0.040737  -0.226048  -0.004332   0.019659  -0.174912
     11       0.007723  -0.005383   0.094431   0.002450  -0.007605   0.023200
     12       0.026723   0.105302  -0.016396  -0.007000   0.028787  -0.017069
     13      -0.091951   0.020369   0.020948   0.002276   0.046838   0.041376
     14       0.017987  -0.019151  -0.002740   0.000420  -0.014945  -0.007416
     15      -0.093931  -0.000715   0.007194  -0.038065  -0.056757  -0.105880
     16       0.167141  -0.077528   0.122526   0.000578  -0.011701   0.008295
     17      -0.026588   0.018335  -0.029801   0.005071   0.010481   0.012491
     18      -0.469006  -0.482851   0.592099  -0.185519   0.440351  -0.514802
     19       0.002223  -0.143450   0.018702  -0.012278   0.049194  -0.012237
     20       0.063467   0.099496  -0.085474   0.028124  -0.071637   0.072927
     21       0.006227   0.000027   0.040080   0.001007  -0.003168   0.003344
     22      -0.002674  -0.001434  -0.017643  -0.000644   0.000845  -0.001846
     23      -0.000157   0.000339  -0.000727   0.000033   0.000181  -0.000029
     24       0.022585   0.181339   0.204002   0.190545  -0.182775  -0.190824
     25      -0.455285   0.231854   0.107391   0.454447  -0.430167  -0.381883
     26       0.104663  -0.079117  -0.052583  -0.132972   0.126086   0.115720
     27       0.095657  -0.332975  -0.087083   0.416366   0.005880   0.078940
     28       0.088668   0.417648   0.033551  -0.536985  -0.014586  -0.105056
     29      -0.034088  -0.053178   0.003765   0.069720   0.002633   0.013739
     30      -0.104844   0.267853   0.144537   0.056115   0.187652   0.156436
     31      -0.406035   0.397248   0.462337   0.158764   0.428717   0.474625
     32       0.109666  -0.129675  -0.128249  -0.045107  -0.126316  -0.133141
     33      -0.470484  -0.217306   0.227272  -0.438604  -0.549449   0.402581
     34       0.134236  -0.109401   0.155515  -0.044692  -0.068989   0.069961
     35       0.033268   0.055289  -0.067478   0.070181   0.091136  -0.071525
     36      -0.008185   0.000339  -0.118765  -0.003929   0.015249  -0.003624
     37       0.013694  -0.013790   0.090354   0.003505  -0.007923   0.015515
     38      -0.002133   0.003210  -0.005258  -0.000298  -0.000203  -0.003192
     39       0.016550   0.006277   0.169739   0.004590  -0.017903  -0.008213
     40       0.000760   0.000123   0.004390   0.000053  -0.000116  -0.000489
     41      -0.002458  -0.000898  -0.024477  -0.000645   0.002497   0.001249
                 30         31         32         33         34         35    
      0      -0.045495   0.017519  -0.125024  -0.055624  -0.033742  -0.183816
      1      -0.103965   0.120735  -0.057063  -0.148162   0.263629  -0.178994
      2       0.030647  -0.030788   0.030459   0.042450  -0.057429   0.067157
      3       0.204282   0.117402   0.091484  -0.079704   0.149340   0.316431
      4       0.025920  -0.041736   0.096611   0.052362  -0.123476   0.084035
      5      -0.033948  -0.006186  -0.035186  -0.001464   0.008710  -0.062849
      6      -0.129521  -0.079959   0.054886   0.109614   0.194728   0.146823
      7       0.168409  -0.003706  -0.103777   0.036156  -0.308284   0.032862
      8      -0.022017   0.011780   0.016921  -0.023451   0.045990  -0.027744
      9      -0.068032   0.003051   0.082332   0.196412  -0.172399  -0.209192
     10       0.071333   0.062421  -0.117912   0.137196   0.246660  -0.069532
     11      -0.007600  -0.015168   0.016512  -0.059112  -0.034562   0.044879
     12      -0.090177   0.056785  -0.108087   0.013130   0.007435   0.188480
     13      -0.194750   0.125468   0.013446  -0.111068  -0.240365   0.187212
     14       0.058105  -0.037244   0.011550   0.024344   0.055543  -0.069731
     15       0.113361   0.047436   0.145490  -0.173382  -0.121116  -0.292707
     16       0.026703  -0.079343   0.078349   0.016351   0.141005  -0.082422
     17      -0.021737   0.012203  -0.038245   0.019775  -0.016676   0.059237
     18      -0.438310  -0.325250  -0.343998   0.332534  -0.177434  -0.424020
     19      -0.038739  -0.093703   0.070110   0.115300  -0.172111   0.011414
     20       0.069216   0.066282   0.030448  -0.072397   0.064570   0.054999
     21      -0.002837  -0.042562  -0.005310  -0.047235  -0.006619   0.000018
     22       0.001803  -0.013404  -0.001639  -0.012709   0.000112   0.001305
     23      -0.000027   0.009407   0.001201   0.009737   0.000866  -0.000317
     24      -0.084849  -0.238799  -0.002085   0.187510  -0.253506   0.006340
     25      -0.198570  -0.476754   0.287285   0.420844  -0.214925   0.300433
     26       0.058542   0.144723  -0.067369  -0.124671   0.085106  -0.071686
     27       0.294157   0.077841  -0.399149   0.056220  -0.330890   0.075111
     28      -0.372634  -0.231995   0.469702   0.139168   0.356737   0.148913
     29       0.047947   0.043894  -0.056025  -0.040346  -0.038740  -0.045117
     30       0.186527  -0.173785  -0.082106   0.222740   0.209107  -0.022479
     31       0.480635  -0.448028   0.129583   0.342429   0.229142  -0.337094
     32      -0.138181   0.129070  -0.019316  -0.110961  -0.082434   0.082571
     33       0.242677  -0.246006  -0.507706   0.433099   0.072928   0.371889
     34       0.042762  -0.129086   0.017651   0.094886   0.181836  -0.010967
     35      -0.042875   0.063839   0.065072  -0.081250  -0.052650  -0.047952
     36      -0.003621  -0.261504  -0.059541  -0.228056   0.017280   0.050544
     37       0.010415  -0.046141   0.009556  -0.053093  -0.010480   0.012082
     38      -0.001927   0.046523   0.005863   0.043631   0.000133  -0.009765
     39       0.004375   0.196243   0.034386   0.149622   0.001879  -0.019201
     40      -0.000253  -0.000547  -0.000747  -0.001212   0.000732   0.001478
     41      -0.000543  -0.026935  -0.004569  -0.020340  -0.000427   0.002284
                 36         37         38         39         40         41    
      0       0.003357   0.018474  -0.056206   0.036579  -0.007397  -0.039052
      1       0.001173  -0.007744   0.023694  -0.016775   0.007063   0.015712
      2      -0.000744  -0.000702   0.002103  -0.001048  -0.000650   0.001635
      3      -0.016849  -0.001522   0.003786  -0.004281   0.006955  -0.007715
      4       0.000063   0.004437  -0.020085   0.017252  -0.046062   0.066080
      5       0.002289  -0.000836   0.004208  -0.003468   0.009876  -0.014481
      6      -0.004559  -0.020932   0.030131   0.020141  -0.046558  -0.026891
      7      -0.000497  -0.016026   0.020750   0.018746  -0.032567  -0.021422
      8       0.000743   0.006628  -0.008993  -0.007161   0.014010   0.008709
      9       0.011251   0.001019   0.000100   0.000969  -0.001944   0.003575
     10      -0.036536   0.002199   0.001637   0.002659   0.001323   0.000100
     11       0.007145  -0.000658  -0.000399  -0.000761  -0.000048  -0.000510
     12      -0.013800   0.053091   0.037987   0.042969   0.016583   0.008013
     13      -0.006470  -0.023873  -0.016389  -0.017012  -0.004826  -0.003099
     14       0.003411  -0.001628  -0.001327  -0.001857  -0.001125  -0.000363
     15       0.008220  -0.008510  -0.002017   0.005080   0.007403   0.003847
     16       0.000028   0.049082   0.001128  -0.051814  -0.041070  -0.018503
     17      -0.001130  -0.010381   0.000010   0.011493   0.008648   0.003824
     18       0.010802   0.008876  -0.033936   0.030214  -0.071510   0.097008
     19       0.005309  -0.057141   0.244857  -0.207758   0.529608  -0.740206
     20      -0.002677   0.012222  -0.052936   0.044719  -0.114722   0.160724
     21      -0.854645  -0.000127   0.000580   0.000283   0.000418  -0.000005
     22      -0.014521  -0.000269  -0.000182  -0.000254   0.000001  -0.000107
     23       0.120545   0.000080  -0.000038   0.000020  -0.000058   0.000027
     24       0.007847  -0.219124   0.653676  -0.419748   0.094403   0.418663
     25      -0.004214   0.094033  -0.280712   0.182050  -0.045648  -0.179284
     26      -0.000058   0.007802  -0.023226   0.014485  -0.002139  -0.014976
     27      -0.004283   0.255894  -0.349022  -0.252674   0.511802   0.300898
     28      -0.004831   0.190204  -0.256427  -0.192209   0.376735   0.224745
     29       0.001741  -0.079629   0.107919   0.079669  -0.158426  -0.093903
     30      -0.016612  -0.623713  -0.434394  -0.474496  -0.170614  -0.084272
     31       0.018537   0.264868   0.183622   0.198577   0.069159   0.034963
     32      -0.002152   0.022747   0.016041   0.017986   0.007000   0.003261
     33      -0.013680   0.088725   0.004685  -0.084090  -0.069646  -0.031594
     34       0.005000  -0.584114  -0.015422   0.584520   0.452937   0.200129
     35       0.000663   0.125243   0.003005  -0.125948  -0.097003  -0.042753
     36       0.373706  -0.000309  -0.000568  -0.000579  -0.000012  -0.000503
     37       0.027944  -0.000070  -0.000112  -0.000245  -0.000002  -0.000142
     38      -0.057428   0.000060   0.000104   0.000138   0.000001   0.000103
     39       0.324310  -0.000028  -0.000259  -0.000161  -0.000131  -0.000025
     40       0.016871   0.000011  -0.000000   0.000012   0.000004   0.000006
     41      -0.048793   0.000002   0.000036   0.000019   0.000018   0.000002
# -----------------------------------------------------------
$ THERMOCHEMISTRY_Energies
   description: The Thermochemistry energies
   geom. index: 10
   prop. index: 1
        Temperature (Kelvin)           :        298.1500000000
        Pressure (atm)                 :          1.0000000000
        Total Mass (AMU)               :        119.0371137851
        Spin Degeneracy                :          1.0000000000
        Electronic Energy (Hartree)    :       -399.6528336257
        Translational Energy (Hartree) :          0.0014162714
        Rotational Energy (Hartree)    :          0.0014162714
        Vibrational Energy (Hartree)   :          0.0043025408
        Number of frequencies          :     42      
        Scaling Factor for frequencies :          1.0000000000
        Vibrational frequencies        :     
                  0    
      0       0.000000
      1       0.000000
      2       0.000000
      3       0.000000
      4       0.000000
      5       0.000000
      6      49.672688
      7      94.737864
      8     234.224841
      9     392.457885
     10     412.757912
     11     472.983632
     12     495.817225
     13     565.946041
     14     633.206852
     15     654.094686
     16     695.814505
     17     760.136573
     18     784.298718
     19     835.021655
     20     908.564141
     21     967.754356
     22     986.184333
     23     1024.462742
     24     1049.558601
     25     1104.305170
     26     1151.965141
     27     1186.862821
     28     1202.360573
     29     1331.220138
     30     1360.804095
     31     1471.768686
     32     1483.193250
     33     1544.478753
     34     1619.282026
     35     1638.082897
     36     2353.452635
     37     3167.359480
     38     3173.928356
     39     3181.941817
     40     3192.258276
     41     3199.173875
        Zero Point Energy (Hartree)    :          0.1033835506
        Inner Energy (Hartree)         :       -399.5423149914
        Enthalpy (Hartree)             :       -399.5413707824
        Electronic entropy             :          0.0000000000
        Rotational entropy             :          0.0136537662
        Vibrational entropy            :          0.0071316410
        Translational entropy          :          0.0136537662
        Entropy                        :          0.0399034560
        Gibbs Energy (Hartree)         :       -399.5812742384
        Is Linear                      :                 false
# -------------------------------------------------------------
----------------------- !GEOMETRIES! ------------------------
# -------------------------------------------------------------
------------------------ !GEOMETRY! -------------------------
    Number of atoms:    14 
    Geometry Index:     1 
    Coordinates:
               0 C      1.806997169610   -0.419591538559    0.362265295650
               1 C      2.922676222062    0.352003236506    0.030274049797
               2 C      1.949607537721   -1.779650144518    0.662170749277
               3 C      4.193171294638   -0.242406052097   -0.001789539377
               4 C      4.343102390871   -1.607583811207    0.298592994518
               5 C      3.219814238926   -2.368147260640    0.628522450976
               6 H      2.828883114510    1.405481814938   -0.204693992363
               7 C      6.472869090323    0.673488638073   -0.531235217573
               8 H      0.825828438535    0.042593415873    0.386511838283
               9 H      1.080460649215   -2.375177987282    0.919769504802
              10 H      5.329927437246   -2.057214373673    0.271485033478
              11 H      3.338469638104   -3.421524762413    0.859683455849
              12 N      5.292558457564    0.545181058330   -0.335680990166
              13 O      7.629234320676    0.923147766670   -0.754875633151
------------------------ !GEOMETRY! -------------------------
    Number of atoms:    14 
    Geometry Index:     2 
    Coordinates:
               0 C      1.816360205099   -0.420750226749    0.361236555467
               1 C      2.923713249324    0.351705303064    0.029967984890
               2 C      1.962406489106   -1.774235710139    0.659353215351
               3 C      4.189785940217   -0.238222386134   -0.002985621324
               4 C      4.345001090410   -1.597116764214    0.295450256804
               5 C      3.228733722136   -2.356568035519    0.624792641314
               6 H      2.825600853515    1.406399236564   -0.204359405219
               7 C      6.454899832714    0.656561900700   -0.524570882358
               8 H      0.833306289289    0.039003381730    0.386506754718
               9 H      1.094623001272   -2.372644450089    0.917530906706
              10 H      5.334158500710   -2.043616206069    0.266937628534
              11 H      3.350597889253   -3.410411892561    0.855806819465
              12 N      5.280115596161    0.549712315239   -0.335487869524
              13 O      7.594297340794    0.880783534177   -0.739178984822
------------------------ !GEOMETRY! -------------------------
    Number of atoms:    14 
    Geometry Index:     3 
    Coordinates:
               0 C      1.816993772228   -0.422655729189    0.361619965683
               1 C      2.919410598249    0.353770029779    0.030086956082
               2 C      1.967804444444   -1.773691725520    0.658574371441
               3 C      4.186854748841   -0.230265463004   -0.004484315480
               4 C      4.346628727924   -1.587576228242    0.292924827907
               5 C      3.234698505743   -2.350056256286    0.622500620559
               6 H      2.815829345451    1.408327797839   -0.203367918657
               7 C      6.451262157335    0.644777233074   -0.521300997197
               8 H      0.831882753448    0.033582929297    0.387948845756
               9 H      1.102340565457   -2.375708649258    0.917206897956
              10 H      5.337718986208   -2.030431717643    0.263054755835
              11 H      3.360755546523   -3.403929458190    0.852982742739
              12 N      5.272655762581    0.561801584159   -0.337629264747
              13 O      7.588764085570    0.842655653185   -0.729117487875
------------------------ !GEOMETRY! -------------------------
    Number of atoms:    14 
    Geometry Index:     4 
    Coordinates:
               0 C      1.815130068140   -0.425570180564    0.362665666251
               1 C      2.910541190990    0.358648494023    0.030096189770
               2 C      1.974844404319   -1.774507929694    0.657956368761
               3 C      4.181899889411   -0.215164578391   -0.007592638521
               4 C      4.350045568630   -1.571339573834    0.288424943448
               5 C      3.244798390599   -2.340991973616    0.619018827529
               6 H      2.797601060584    1.412703850503   -0.201894062569
               7 C      6.446234330886    0.624179712750   -0.515665073700
               8 H      0.826812854375    0.024291329037    0.390980606714
               9 H      1.113926866010   -2.382887369842    0.917498778885
              10 H      5.344362216274   -2.007512007049    0.256253504260
              11 H      3.378735811395   -3.394441317633    0.848395652579
              12 N      5.260975267126    0.586391579065   -0.342467130251
              13 O      7.587692081261    0.776799965244   -0.712671633157
------------------------ !GEOMETRY! -------------------------
    Number of atoms:    14 
    Geometry Index:     5 
    Coordinates:
               0 C      1.809552311032   -0.431685453663    0.365297889051
               1 C      2.888287522592    0.372852282797    0.029186734756
               2 C      1.993204682189   -1.777052822666    0.656768090542
               3 C      4.170050553196   -0.175071937281   -0.016750795117
               4 C      4.361074793145   -1.528998360388    0.275801937183
               5 C      3.272711317981   -2.318809537743    0.609917638472
               6 H      2.752089952129    1.425105670018   -0.199219376325
               7 C      6.426812468454    0.566675850637   -0.498742503120
               8 H      0.813602364468    0.001437517502    0.399198160090
               9 H      1.144786273697   -2.401696118868    0.919163080084
              10 H      5.363359221547   -1.947635197817    0.237612855684
              11 H      3.427620352963   -3.370367072531    0.836238372689
              12 N      5.232756095820    0.653873847708   -0.356900329913
              13 O      7.577692090786    0.601971332295   -0.666571754074
------------------------ !GEOMETRY! -------------------------
    Number of atoms:    14 
    Geometry Index:     6 
    Coordinates:
               0 C      1.806671229061   -0.432226203003    0.365937328118
               1 C      2.883896925350    0.375916604961    0.028959925823
               2 C      1.995144655614   -1.778330936592    0.656956586122
               3 C      4.167656927357   -0.168214939001   -0.018215334582
               4 C      4.363467317516   -1.522176878661    0.273659083587
               5 C      3.277466437201   -2.316621930689    0.608720760192
               6 H      2.744744344317    1.427752454011   -0.199137628262
               7 C      6.423970032564    0.556515996133   -0.495791145212
               8 H      0.809716711657   -0.002125328799    0.400830918310
               9 H      1.149135361048   -2.405715345642    0.919878541058
              10 H      5.366834931746   -1.938222773804    0.234569136307
              11 H      3.436158102191   -3.367506480277    0.834284611604
              12 N      5.229113509897    0.668681076593   -0.360410193637
              13 O      7.579623514480    0.572874684771   -0.659242589427
------------------------ !GEOMETRY! -------------------------
    Number of atoms:    14 
    Geometry Index:     7 
    Coordinates:
               0 C      1.804348440156   -0.431349638770    0.366061957436
               1 C      2.883767115599    0.376194072552    0.028932930437
               2 C      1.993173120897   -1.779101215193    0.657367614747
               3 C      4.166999458028   -0.170048267654   -0.017612465298
               4 C      4.363740483848   -1.524136492804    0.274126988853
               5 C      3.276447466542   -2.319294702478    0.609452703393
               6 H      2.747137643074    1.428078434246   -0.199693054578
               7 C      6.425814388824    0.557613699455   -0.496295206838
               8 H      0.807902825113   -0.001034131077    0.400865276539
               9 H      1.147008577008   -2.405967116845    0.920259968189
              10 H      5.366376182377   -1.941517880050    0.235569034374
              11 H      3.434577408940   -3.369887896847    0.834905217793
              12 N      5.230625286807    0.670283519774   -0.360868978503
              13 O      7.585681602785    0.580767615691   -0.662071986543
------------------------ !GEOMETRY! -------------------------
    Number of atoms:    14 
    Geometry Index:     8 
    Coordinates:
               0 C      1.804228532192   -0.431258739054    0.366062807940
               1 C      2.883372540965    0.376670619937    0.028852234200
               2 C      1.993931370087   -1.778932212335    0.657236844118
               3 C      4.166472579830   -0.169448683582   -0.017724896189
               4 C      4.364375241930   -1.523124116924    0.273769950945
               5 C      3.277328105398   -2.318768821906    0.609197597204
               6 H      2.746831720553    1.428546024883   -0.199780183998
               7 C      6.424573225823    0.555173713518   -0.495542078198
               8 H      0.807549255672   -0.001546813802    0.401069604607
               9 H      1.148064613702   -2.406199117613    0.920215878637
              10 H      5.367004495068   -1.940428554726    0.235210602032
              11 H      3.435815984591   -3.369308033695    0.834591110325
              12 N      5.229640466571    0.672087814603   -0.361192609756
              13 O      7.584411867617    0.577136920697   -0.660966861867
------------------------ !GEOMETRY! -------------------------
    Number of atoms:    14 
    Geometry Index:     9 
    Coordinates:
               0 C      1.804307500800   -0.430996537286    0.365967597358
               1 C      2.883732791603    0.376553129439    0.028853742145
               2 C      1.993978018291   -1.778632349247    0.657127526312
               3 C      4.166358015562   -0.170423222070   -0.017425968074
               4 C      4.364508930187   -1.523764199878    0.273949343470
               5 C      3.276998426204   -2.319024128158    0.609305323179
               6 H      2.748264464944    1.428509206810   -0.199928521337
               7 C      6.424562697752    0.554896142185   -0.495541019924
               8 H      0.807598992320   -0.001359814783    0.400973003009
               9 H      1.147900840105   -2.405695986615    0.920055067179
              10 H      5.366773304079   -1.941851448234    0.235671145115
              11 H      3.434937587447   -3.369630217652    0.834781836350
              12 N      5.229669358938    0.671284878550   -0.360886702387
              13 O      7.584009071767    0.580734546940   -0.661902372394
------------------------ !GEOMETRY! -------------------------
    Number of atoms:    14 
    Geometry Index:     10 
    Coordinates:
               0 C      1.804372581559   -0.430949016147    0.365940752260
               1 C      2.883883384201    0.376435396884    0.028869165027
               2 C      1.993875060607   -1.778577113166    0.657116583890
               3 C      4.166461404826   -0.170760124623   -0.017343609240
               4 C      4.364439479415   -1.524099731099    0.274056837033
               5 C      3.276740323040   -2.319150293360    0.609372694412
               6 H      2.748756837443    1.428424870929   -0.199957685500
               7 C      6.424809126496    0.555112356995   -0.495670549637
               8 H      0.807663701903   -0.001293566323    0.400930800855
               9 H      1.147685307707   -2.405515824203    0.920013935882
              10 H      5.366571137310   -1.942506438485    0.235881562292
              11 H      3.434434734992   -3.369792607847    0.834893361358
              12 N      5.229816929173    0.670830224203   -0.360749299887
              13 O      7.584089991327    0.582441866243   -0.662354548745
