17
  00000 4999.00
     C  -0.1329 -5.0274 -2.5943
     C  -0.4946 -6.3562 -2.5211
     C  -0.8498 -4.1278 -3.3957
     C  -1.5430 -6.8388 -3.3412
     C  -2.2611 -5.9224 -4.1230
     C  -1.9573 -4.5684 -4.1105
     H   0.0350 -6.9790 -1.8211
     C  -2.0238 -8.2191 -3.2782
     H   0.6921 -4.6528 -2.0074
     H  -0.5695 -3.0772 -3.4388
     H  -3.1169 -6.2885 -4.6778
     H  -2.5571 -3.8555 -4.6627
     N  -1.5690 -9.1151 -2.2019
     O  -0.3119 -9.3656 -2.2443
     O  -2.8944 -8.7469 -4.0003
     S   3.9617 20.0412  8.9867
     O   3.9576 18.4033  8.7839
17
  00001 4999.00
     C  -0.6079 -0.1113  0.5155
     C  -0.3943 -1.1316 -0.3933
     C  -1.5295 -0.2769  1.5619
     C  -1.2373 -2.2687 -0.3740
     C  -2.1099 -2.4723  0.7209
     C  -2.2722 -1.4849  1.6848
     H   0.3701 -1.0142 -1.1801
     C  -1.1736 -3.2931 -1.4034
     H  -0.0702  0.8127  0.3601
     H  -1.7035  0.5759  2.2192
     H  -2.6807 -3.4034  0.7480
     H  -3.0341 -1.5881  2.4485
     N  -0.6695 -2.8153 -2.7334
     O   0.5734 -3.0024 -2.9949
     O  -1.5648 -4.4488 -1.3289
     S   3.4344  6.4498  1.3443
     O   2.1569  5.5960  2.0054
17
  00002 4999.00
     C  -2.8296 -2.2564 -0.2230
     C  -1.4215 -2.2626 -0.3071
     C  -3.4799 -1.1650  0.3881
     C  -0.6340 -1.1467  0.1802
     C  -1.2921 -0.0802  0.7786
     C  -2.6916 -0.1373  0.8998
     H  -0.9756 -3.1336 -0.7580
     C   0.7559 -1.0411 -0.2018
     H  -3.4183 -3.1051 -0.5796
     H  -4.5349 -1.0534  0.4481
     H  -0.8335  0.7686  1.2128
     H  -3.2569  0.6662  1.3546
     N   1.4595  0.3533  0.1241
     O   2.7150  0.3846  0.0480
     O   1.4662 -1.8054 -0.8804
     S   1.6710  3.0259 -0.2106
     O   0.7186  1.5010 -0.0974
17
  00003 4999.00
     C  -5.0182 -3.7049  5.3351
     C  -5.8781 -4.5914  5.9629
     C  -4.9816 -3.6253  3.9275
     C  -6.7169 -5.4231  5.2403
     C  -6.6980 -5.3626  3.8396
     C  -5.8351 -4.4624  3.1712
     H  -5.9199 -4.6255  7.0381
     C  -7.6270 -6.3854  5.8380
     H  -4.3583 -3.0384  5.8856
     H  -4.3304 -2.9200  3.4044
     H  -7.3522 -5.9907  3.2474
     H  -5.8324 -4.4320  2.0924
     N  -7.3669 -6.4532  7.3627
     O  -7.8577 -7.5513  7.9180
     O  -8.5172 -7.0693  5.2923
     S  19.0359 16.0436 -15.6161
     O  18.6015 14.6988 -14.8005
17
  00004 4999.00
     C  -4.7690 -2.5136  5.0852
     C  -5.6225 -3.3229  5.8145
     C  -4.7083 -2.6164  3.6907
     C  -6.4327 -4.2604  5.1247
     C  -6.3783 -4.3735  3.7342
     C  -5.5043 -3.5525  3.0281
     H  -5.6944 -3.2480  6.8910
     C  -7.3315 -5.1464  5.8513
     H  -4.1116 -1.8222  5.6063
     H  -4.0184 -2.0064  3.1173
     H  -7.0084 -5.0787  3.1941
     H  -5.4677 -3.6394  1.9417
     N  -7.2052 -4.9783  7.3716
     O  -7.8590 -5.9401  8.0004
     O  -8.1959 -5.8909  5.3630
     S  18.3428 12.3488 -15.6405
     O  17.9244 11.8462 -14.1152
