 $CONTRL SCFTYP=rhf RUNTYP=optimize d5=.t. 
!dfttyp=pbe0
 mplevl=2
 maxit=100 icut=20 inttyp=hondo itol=30 gencon=.f. wide=1                                
 mult=1 icharg=0 exetyp=run fstint=.t. nzvar=0 $END                            
 $SYSTEM TIMLIM=100000 mwords=360 nojac=1  $END                                  
 $system mxbcst=-1 $end                                                         
 $p2p p2p=.t. dlb=.t. $end                                                      
 $smp                                                                           
  mkl64=21 smppar=1 mklnp=18 np=36 httnp=1 dianp=1                              
  pts=0x101                                                                     
 $end                                                                           
 $mpi mxgsum=0x40000 mnpdot=1d9 $end                                            
 $MOORTH nostf=1 nozero=1 syms=1 symden=1 symvec=1 tole=0 tolz=0 $end           
 $BASIS GBASIS=apvtzs extfil=.t. $END                                          
 $GUESS GUESS=huckel                                                            
 $END                                                                           
! $RIMP2 AUXBAS=cc-pvdz/C VERBOSE=.T. $END
 $MP2 method=1 $END
 $MP2GRD dblbf=0 fused=0 asysnc=1 tol1=1d-12 tol2=1d-12 $END
!$FORCE NVIB=2 VIBSIZ=0.005 $END
 $trans mptran=2 dirtrf=.t. mode=112 cuttrf=1d-20 $end
 $DATA
 C7NH5SO3
C1
CARBON          6.0      0.053471005         0.075389213        -0.108727817
CARBON          6.0      1.052830949         1.036599629        -0.247192157
CARBON          6.0      0.346956868        -1.171179075         0.461535716
CARBON          6.0      2.361738036         0.752767596         0.186617621
CARBON          6.0      2.656765259        -0.497089240         0.755988460
CARBON          6.0      1.647946444        -1.453388498         0.892115779
HYDROGEN        1.0      0.837163658         2.002446843        -0.688820091
CARBON          6.0      3.407823312         1.761712955         0.044035378
HYDROGEN        1.0     -0.953535089         0.296332721        -0.445709687
HYDROGEN        1.0     -0.434421509        -1.916401893         0.567899823
HYDROGEN        1.0      3.666883942        -0.707868052         1.084479569
HYDROGEN        1.0      1.878398021        -2.417197872         1.333073098
NITROGEN        7.0      3.217077036         2.933592281        -0.479589203
OXYGEN          8.0      4.370589899         3.743609951        -0.492798743
OXYGEN          8.0      4.677437678         1.419534030         0.517897815
SULFUR         16.0      5.930803796         2.712319646         0.014739466
OXYGEN          8.0      6.656470696         2.225819763        -1.324845027
 $END

