14

C   -0.07984949656532     -0.05069825068005      0.35272657903386
  C   0.79079297818852      1.02512353364213      0.41756739381094
  C   0.42967889668394     -1.34454956052247      0.40736304717632
  C   2.17544045759918      0.81463224217509      0.53692787261487
  C   2.66610029865712     -0.50141529100214      0.59059468251977
  C   1.79638718733284     -1.57817477200428      0.52583709765974
  H   0.40527227869502      2.03824472646965      0.37618821082410
  C   3.06401669259674      1.91300587662790      0.60253502838435
  H   -1.14831362041364      0.11054012079661      0.26035426544925
  Cl  -0.66735133035544     -2.70236986145931      0.32575245462221
  H   3.73349334418571     -0.67141448044389      0.68314439747353
  H   2.17435376989530     -2.59383386167941      0.56675786965461
  N   3.80701046278391      2.80952251630560      0.64863918958454
  O   4.57309808071612      3.73599706177458      0.69638191119191
