!DLPNO-CCSD(T) Extrapolate(3/4,cc) aug-cc-pVQZ/C TightPNO TightSCF
!CPCM(Benzene)
%maxcore 4000 
%pal nprocs 28
end

*xyz 0 1
C       -0.070011000     -0.064477000      0.353451000
C        0.790463000      1.022328000      0.417736000
C        0.430226000     -1.364123000      0.407122000
C        2.174624000      0.809409000      0.537228000
C        2.677066000     -0.502349000      0.591715000
C        1.802309000     -1.577563000      0.526116000
H        0.406907000      2.036617000      0.376609000
C        3.061424000      1.912690000      0.602594000
H       -1.138734000      0.104487000      0.260883000
H       -0.248747000     -2.210021000      0.356343000
H        3.746414000     -0.661821000      0.684516000
H        2.194673000     -2.589276000      0.568175000
N        3.800741000      2.809808000      0.648216000
O        4.568944000      3.742590000      0.695297000
*