17
Coordinates from ORCA-job orca
  C   0.06576727614488      0.08748572974433     -0.08536933782491
  C   1.05438609672781      1.04906532073648     -0.22228260976840
  C   0.36694048611292     -1.16174870267627      0.45662866320509
  C   2.36540594438121      0.76181956872850      0.18158675551520
  C   2.66765291901562     -0.49041184376243      0.72560001534144
  C   1.66690625137795     -1.44580761093247      0.86054701468526
  H   0.82620899825072      2.02401783044304     -0.63984071976835
  C   3.41264233058117      1.77342350541091      0.03785906312615
  H   -0.94852558991533      0.31324348542486     -0.40066826187910
  H   -0.41249416293103     -1.91041213955286      0.56320661398973
  H   3.68280618383267     -0.71335808887603      1.03494208274117
  H   1.90702873953613     -2.41732609278745      1.28183738514272
  N   3.23545472794399      2.88371103711740     -0.58450469912388
  O   4.36622984095229      3.68573399197262     -0.56715227961291
  O   4.62450390103840      1.49518699972006      0.60750965658967
  Se  5.87945786310347      2.74660140158983      0.05288911274914
  O   6.61402819384705      2.11577560769945     -1.23208845510800
