-------------------------------------------------------------
----------------------- !PROPERTIES! ------------------------
-------------------------------------------------------------
# -----------------------------------------------------------
$ SCF_Energy
   description: The SCF energy
   geom. index: 1
   prop. index: 1
        SCF Energy:     -948.1214521788
# -----------------------------------------------------------
$ DFT_Energy
   description: The DFT energy
   geom. index: 1
   prop. index: 1
   Number of Alpha Electrons                 46.9999998548 
   Number of Beta  Electrons                 46.9999998548 
   Total number of  Electrons                93.9999997095 
   Exchange energy                          -94.4264491562 
   Correlation energy                        -3.1951722208 
   Correlation energy NL                      0.0000000000 
   Exchange-Correlation energy              -97.6216213770 
   Embedding correction                       0.0000000000 
   Total DFT Energy (No VdW correction)    -948.1214521788 
# -----------------------------------------------------------
$ Solvation_Details
   description: Details concerning solvation
   geom. index: 1
   prop. index: 1
     Epsilon:                2.4000000000
     Refrac:                 1.4970000000
     RSolv:                  1.3000000000
     Surface Type:                      2
     Number of Points:               1043
     Surface Area:         769.9972958872
     Dielectric Energy:     -0.0078571616
# -----------------------------------------------------------
$ Mayer_Pop
   description: The Mayer population analysis
   geom. index: 1
   prop. index: 1
     Number of atoms                     : 17
     Threshold for printing              : 0.1000000
     Number of bond orders printed       : 19
  NA   - Mulliken gross atomic population
  ZA   - Total nuclear charge
  QA   - Mulliken gross atomic charge
  VA   - Mayer's total valence
  BVA  - Mayer's bonded valence
  FA   - Mayer's free valence
  ATOM       NA         ZA         QA         VA         BVA        FA
  0   0     6.1790     6.0000    -0.1790     3.8063     3.8063    -0.0000
  1   0     6.1849     6.0000    -0.1849     3.7651     3.7651     0.0000
  2   0     6.1129     6.0000    -0.1129     3.7615     3.7615     0.0000
  3   0     6.0345     6.0000    -0.0345     3.8035     3.8035    -0.0000
  4   0     6.1539     6.0000    -0.1539     3.8506     3.8506    -0.0000
  5   0     6.1985     6.0000    -0.1985     3.7935     3.7935    -0.0000
  6   0     0.8245     1.0000     0.1755     0.9611     0.9611     0.0000
  7   0     5.8106     6.0000     0.1894     3.8560     3.8560    -0.0000
  8   0     0.8298     1.0000     0.1702     0.9624     0.9624    -0.0000
  9   0     0.8288     1.0000     0.1712     0.9607     0.9607     0.0000
 10   0     0.8028     1.0000     0.1972     0.9529     0.9529    -0.0000
 11   0     0.8286     1.0000     0.1714     0.9618     0.9618    -0.0000
 12   0     6.6163     7.0000     0.3837     3.7200     3.7200    -0.0000
 13   0     8.4363     8.0000    -0.4363     2.0197     2.0197    -0.0000
 14   0     8.4418     8.0000    -0.4418     1.8295     1.8295     0.0000
 15   0    15.2789    16.0000     0.7211     3.3118     3.3118     0.0000
 16   0     8.4377     8.0000    -0.4377     1.8366     1.8366     0.0000
      Bond orders larger than 0.1000000
           Atom A     A.N. of A          Atom B    A.N. of B              Bond order
                0             6               1            6                1.409739
                0             6               2            6                1.386775
                0             6               8            1                0.952517
                1             6               3            6                1.340484
                1             6               6            1                0.950610
                2             6               5            6                1.378615
                2             6               9            1                0.946110
                3             6               4            6                1.376245
                3             6               7            6                1.171246
                4             6               5            6                1.414724
                4             6              10            1                0.941519
                5             6              11            1                0.953657
                7             6              12            7                2.305268
                7             6              13            8                0.306860
               12             7              13            8                1.374044
               13             8              15           16                0.151224
               14             8              15           16                1.522913
               14             8              16            8                0.187610
               15            16              16            8                1.576949
# -----------------------------------------------------------
$ VdW_Correction
   description: The Van der Waals Correction
   geom. index: 1
   prop. index: 1
        Van der Waals Correction:       -0.0064384703
# -----------------------------------------------------------
$ SCF_Energy
   description: The SCF energy
   geom. index: 2
   prop. index: 1
        SCF Energy:     -948.1451045791
# -----------------------------------------------------------
$ DFT_Energy
   description: The DFT energy
   geom. index: 2
   prop. index: 1
   Number of Alpha Electrons                 46.9999988789 
   Number of Beta  Electrons                 46.9999988789 
   Total number of  Electrons                93.9999977577 
   Exchange energy                          -94.5605757496 
   Correlation energy                        -3.2029119885 
   Correlation energy NL                      0.0000000000 
   Exchange-Correlation energy              -97.7634877382 
   Embedding correction                       0.0000000000 
   Total DFT Energy (No VdW correction)    -948.1451045791 
# -----------------------------------------------------------
$ Solvation_Details
   description: Details concerning solvation
   geom. index: 2
   prop. index: 1
     Epsilon:                2.4000000000
     Refrac:                 1.4970000000
     RSolv:                  1.3000000000
     Surface Type:                      2
     Number of Points:               1030
     Surface Area:         761.2860216714
     Dielectric Energy:     -0.0071190329
# -----------------------------------------------------------
$ VdW_Correction
   description: The Van der Waals Correction
   geom. index: 2
   prop. index: 1
        Van der Waals Correction:       -0.0064830753
# -----------------------------------------------------------
$ SCF_Energy
   description: The SCF energy
   geom. index: 3
   prop. index: 1
        SCF Energy:     -948.1515509035
# -----------------------------------------------------------
$ DFT_Energy
   description: The DFT energy
   geom. index: 3
   prop. index: 1
   Number of Alpha Electrons                 46.9999989999 
   Number of Beta  Electrons                 46.9999989999 
   Total number of  Electrons                93.9999979998 
   Exchange energy                          -94.7166876608 
   Correlation energy                        -3.2105900997 
   Correlation energy NL                      0.0000000000 
   Exchange-Correlation energy              -97.9272777605 
   Embedding correction                       0.0000000000 
   Total DFT Energy (No VdW correction)    -948.1515509035 
# -----------------------------------------------------------
$ Solvation_Details
   description: Details concerning solvation
   geom. index: 3
   prop. index: 1
     Epsilon:                2.4000000000
     Refrac:                 1.4970000000
     RSolv:                  1.3000000000
     Surface Type:                      2
     Number of Points:               1032
     Surface Area:         753.3616547005
     Dielectric Energy:     -0.0062572388
# -----------------------------------------------------------
$ VdW_Correction
   description: The Van der Waals Correction
   geom. index: 3
   prop. index: 1
        Van der Waals Correction:       -0.0065092765
# -----------------------------------------------------------
$ SCF_Energy
   description: The SCF energy
   geom. index: 4
   prop. index: 1
        SCF Energy:     -948.1536911210
# -----------------------------------------------------------
$ DFT_Energy
   description: The DFT energy
   geom. index: 4
   prop. index: 1
   Number of Alpha Electrons                 46.9999985095 
   Number of Beta  Electrons                 46.9999985095 
   Total number of  Electrons                93.9999970191 
   Exchange energy                          -94.6560285542 
   Correlation energy                        -3.2071154323 
   Correlation energy NL                      0.0000000000 
   Exchange-Correlation energy              -97.8631439865 
   Embedding correction                       0.0000000000 
   Total DFT Energy (No VdW correction)    -948.1536911210 
# -----------------------------------------------------------
$ Solvation_Details
   description: Details concerning solvation
   geom. index: 4
   prop. index: 1
     Epsilon:                2.4000000000
     Refrac:                 1.4970000000
     RSolv:                  1.3000000000
     Surface Type:                      2
     Number of Points:               1041
     Surface Area:         759.4351017555
     Dielectric Energy:     -0.0065313660
# -----------------------------------------------------------
$ VdW_Correction
   description: The Van der Waals Correction
   geom. index: 4
   prop. index: 1
        Van der Waals Correction:       -0.0064616433
# -----------------------------------------------------------
$ SCF_Energy
   description: The SCF energy
   geom. index: 5
   prop. index: 1
        SCF Energy:     -948.1539651397
# -----------------------------------------------------------
$ DFT_Energy
   description: The DFT energy
   geom. index: 5
   prop. index: 1
   Number of Alpha Electrons                 46.9999985221 
   Number of Beta  Electrons                 46.9999985221 
   Total number of  Electrons                93.9999970442 
   Exchange energy                          -94.6587702113 
   Correlation energy                        -3.2066128018 
   Correlation energy NL                      0.0000000000 
   Exchange-Correlation energy              -97.8653830130 
   Embedding correction                       0.0000000000 
   Total DFT Energy (No VdW correction)    -948.1539651397 
# -----------------------------------------------------------
$ Solvation_Details
   description: Details concerning solvation
   geom. index: 5
   prop. index: 1
     Epsilon:                2.4000000000
     Refrac:                 1.4970000000
     RSolv:                  1.3000000000
     Surface Type:                      2
     Number of Points:               1046
     Surface Area:         762.5918725090
     Dielectric Energy:     -0.0065278665
# -----------------------------------------------------------
$ VdW_Correction
   description: The Van der Waals Correction
   geom. index: 5
   prop. index: 1
        Van der Waals Correction:       -0.0064261219
# -----------------------------------------------------------
$ SCF_Energy
   description: The SCF energy
   geom. index: 6
   prop. index: 1
        SCF Energy:     -948.1541042236
# -----------------------------------------------------------
$ DFT_Energy
   description: The DFT energy
   geom. index: 6
   prop. index: 1
   Number of Alpha Electrons                 46.9999989302 
   Number of Beta  Electrons                 46.9999989302 
   Total number of  Electrons                93.9999978603 
   Exchange energy                          -94.6600164843 
   Correlation energy                        -3.2059529843 
   Correlation energy NL                      0.0000000000 
   Exchange-Correlation energy              -97.8659694686 
   Embedding correction                       0.0000000000 
   Total DFT Energy (No VdW correction)    -948.1541042236 
# -----------------------------------------------------------
$ Solvation_Details
   description: Details concerning solvation
   geom. index: 6
   prop. index: 1
     Epsilon:                2.4000000000
     Refrac:                 1.4970000000
     RSolv:                  1.3000000000
     Surface Type:                      2
     Number of Points:               1050
     Surface Area:         766.7324538950
     Dielectric Energy:     -0.0065452525
# -----------------------------------------------------------
$ VdW_Correction
   description: The Van der Waals Correction
   geom. index: 6
   prop. index: 1
        Van der Waals Correction:       -0.0063791605
# -----------------------------------------------------------
$ SCF_Energy
   description: The SCF energy
   geom. index: 7
   prop. index: 1
        SCF Energy:     -948.1541482191
# -----------------------------------------------------------
$ DFT_Energy
   description: The DFT energy
   geom. index: 7
   prop. index: 1
   Number of Alpha Electrons                 46.9999991765 
   Number of Beta  Electrons                 46.9999991765 
   Total number of  Electrons                93.9999983529 
   Exchange energy                          -94.6592071530 
   Correlation energy                        -3.2055144769 
   Correlation energy NL                      0.0000000000 
   Exchange-Correlation energy              -97.8647216298 
   Embedding correction                       0.0000000000 
   Total DFT Energy (No VdW correction)    -948.1541482191 
# -----------------------------------------------------------
$ Solvation_Details
   description: Details concerning solvation
   geom. index: 7
   prop. index: 1
     Epsilon:                2.4000000000
     Refrac:                 1.4970000000
     RSolv:                  1.3000000000
     Surface Type:                      2
     Number of Points:               1056
     Surface Area:         769.6648759208
     Dielectric Energy:     -0.0065817202
# -----------------------------------------------------------
$ VdW_Correction
   description: The Van der Waals Correction
   geom. index: 7
   prop. index: 1
        Van der Waals Correction:       -0.0063482821
# -----------------------------------------------------------
$ SCF_Energy
   description: The SCF energy
   geom. index: 8
   prop. index: 1
        SCF Energy:     -948.1541985418
# -----------------------------------------------------------
$ DFT_Energy
   description: The DFT energy
   geom. index: 8
   prop. index: 1
   Number of Alpha Electrons                 46.9999993008 
   Number of Beta  Electrons                 46.9999993008 
   Total number of  Electrons                93.9999986016 
   Exchange energy                          -94.6584151456 
   Correlation energy                        -3.2052617606 
   Correlation energy NL                      0.0000000000 
   Exchange-Correlation energy              -97.8636769062 
   Embedding correction                       0.0000000000 
   Total DFT Energy (No VdW correction)    -948.1541985418 
# -----------------------------------------------------------
$ Solvation_Details
   description: Details concerning solvation
   geom. index: 8
   prop. index: 1
     Epsilon:                2.4000000000
     Refrac:                 1.4970000000
     RSolv:                  1.3000000000
     Surface Type:                      2
     Number of Points:               1059
     Surface Area:         771.9957578092
     Dielectric Energy:     -0.0066239224
# -----------------------------------------------------------
$ VdW_Correction
   description: The Van der Waals Correction
   geom. index: 8
   prop. index: 1
        Van der Waals Correction:       -0.0063274080
# -----------------------------------------------------------
$ SCF_Energy
   description: The SCF energy
   geom. index: 9
   prop. index: 1
        SCF Energy:     -948.1542793260
# -----------------------------------------------------------
$ DFT_Energy
   description: The DFT energy
   geom. index: 9
   prop. index: 1
   Number of Alpha Electrons                 46.9999994329 
   Number of Beta  Electrons                 46.9999994329 
   Total number of  Electrons                93.9999988659 
   Exchange energy                          -94.6581596763 
   Correlation energy                        -3.2051417110 
   Correlation energy NL                      0.0000000000 
   Exchange-Correlation energy              -97.8633013873 
   Embedding correction                       0.0000000000 
   Total DFT Energy (No VdW correction)    -948.1542793260 
# -----------------------------------------------------------
$ Solvation_Details
   description: Details concerning solvation
   geom. index: 9
   prop. index: 1
     Epsilon:                2.4000000000
     Refrac:                 1.4970000000
     RSolv:                  1.3000000000
     Surface Type:                      2
     Number of Points:               1062
     Surface Area:         774.2208951334
     Dielectric Energy:     -0.0066771412
# -----------------------------------------------------------
$ VdW_Correction
   description: The Van der Waals Correction
   geom. index: 9
   prop. index: 1
        Van der Waals Correction:       -0.0063109200
# -----------------------------------------------------------
$ SCF_Energy
   description: The SCF energy
   geom. index: 10
   prop. index: 1
        SCF Energy:     -948.1543838942
# -----------------------------------------------------------
$ DFT_Energy
   description: The DFT energy
   geom. index: 10
   prop. index: 1
   Number of Alpha Electrons                 46.9999995555 
   Number of Beta  Electrons                 46.9999995555 
   Total number of  Electrons                93.9999991110 
   Exchange energy                          -94.6585968669 
   Correlation energy                        -3.2051997717 
   Correlation energy NL                      0.0000000000 
   Exchange-Correlation energy              -97.8637966385 
   Embedding correction                       0.0000000000 
   Total DFT Energy (No VdW correction)    -948.1543838942 
# -----------------------------------------------------------
$ Solvation_Details
   description: Details concerning solvation
   geom. index: 10
   prop. index: 1
     Epsilon:                2.4000000000
     Refrac:                 1.4970000000
     RSolv:                  1.3000000000
     Surface Type:                      2
     Number of Points:               1061
     Surface Area:         775.2456420719
     Dielectric Energy:     -0.0067274144
# -----------------------------------------------------------
$ VdW_Correction
   description: The Van der Waals Correction
   geom. index: 10
   prop. index: 1
        Van der Waals Correction:       -0.0063039956
# -----------------------------------------------------------
$ SCF_Energy
   description: The SCF energy
   geom. index: 11
   prop. index: 1
        SCF Energy:     -948.1544777991
# -----------------------------------------------------------
$ DFT_Energy
   description: The DFT energy
   geom. index: 11
   prop. index: 1
   Number of Alpha Electrons                 46.9999996192 
   Number of Beta  Electrons                 46.9999996192 
   Total number of  Electrons                93.9999992383 
   Exchange energy                          -94.6595058526 
   Correlation energy                        -3.2053897247 
   Correlation energy NL                      0.0000000000 
   Exchange-Correlation energy              -97.8648955774 
   Embedding correction                       0.0000000000 
   Total DFT Energy (No VdW correction)    -948.1544777991 
# -----------------------------------------------------------
$ Solvation_Details
   description: Details concerning solvation
   geom. index: 11
   prop. index: 1
     Epsilon:                2.4000000000
     Refrac:                 1.4970000000
     RSolv:                  1.3000000000
     Surface Type:                      2
     Number of Points:               1061
     Surface Area:         774.5406179781
     Dielectric Energy:     -0.0067502199
# -----------------------------------------------------------
$ VdW_Correction
   description: The Van der Waals Correction
   geom. index: 11
   prop. index: 1
        Van der Waals Correction:       -0.0063085910
# -----------------------------------------------------------
$ SCF_Energy
   description: The SCF energy
   geom. index: 12
   prop. index: 1
        SCF Energy:     -948.1545289979
# -----------------------------------------------------------
$ DFT_Energy
   description: The DFT energy
   geom. index: 12
   prop. index: 1
   Number of Alpha Electrons                 46.9999996960 
   Number of Beta  Electrons                 46.9999996960 
   Total number of  Electrons                93.9999993920 
   Exchange energy                          -94.6603427058 
   Correlation energy                        -3.2055641150 
   Correlation energy NL                      0.0000000000 
   Exchange-Correlation energy              -97.8659068208 
   Embedding correction                       0.0000000000 
   Total DFT Energy (No VdW correction)    -948.1545289979 
# -----------------------------------------------------------
$ Solvation_Details
   description: Details concerning solvation
   geom. index: 12
   prop. index: 1
     Epsilon:                2.4000000000
     Refrac:                 1.4970000000
     RSolv:                  1.3000000000
     Surface Type:                      2
     Number of Points:               1061
     Surface Area:         773.1000772041
     Dielectric Energy:     -0.0067428716
# -----------------------------------------------------------
$ VdW_Correction
   description: The Van der Waals Correction
   geom. index: 12
   prop. index: 1
        Van der Waals Correction:       -0.0063180273
# -----------------------------------------------------------
$ SCF_Energy
   description: The SCF energy
   geom. index: 13
   prop. index: 1
        SCF Energy:     -948.1545376047
# -----------------------------------------------------------
$ DFT_Energy
   description: The DFT energy
   geom. index: 13
   prop. index: 1
   Number of Alpha Electrons                 46.9999997934 
   Number of Beta  Electrons                 46.9999997934 
   Total number of  Electrons                93.9999995868 
   Exchange energy                          -94.6606172166 
   Correlation energy                        -3.2056208011 
   Correlation energy NL                      0.0000000000 
   Exchange-Correlation energy              -97.8662380177 
   Embedding correction                       0.0000000000 
   Total DFT Energy (No VdW correction)    -948.1545376047 
# -----------------------------------------------------------
$ Solvation_Details
   description: Details concerning solvation
   geom. index: 13
   prop. index: 1
     Epsilon:                2.4000000000
     Refrac:                 1.4970000000
     RSolv:                  1.3000000000
     Surface Type:                      2
     Number of Points:               1063
     Surface Area:         772.2079950469
     Dielectric Energy:     -0.0067249847
# -----------------------------------------------------------
$ VdW_Correction
   description: The Van der Waals Correction
   geom. index: 13
   prop. index: 1
        Van der Waals Correction:       -0.0063238830
# -----------------------------------------------------------
$ SCF_Energy
   description: The SCF energy
   geom. index: 14
   prop. index: 1
        SCF Energy:     -948.1545305954
# -----------------------------------------------------------
$ DFT_Energy
   description: The DFT energy
   geom. index: 14
   prop. index: 1
   Number of Alpha Electrons                 46.9999998682 
   Number of Beta  Electrons                 46.9999998682 
   Total number of  Electrons                93.9999997364 
   Exchange energy                          -94.6605024351 
   Correlation energy                        -3.2055960503 
   Correlation energy NL                      0.0000000000 
   Exchange-Correlation energy              -97.8660984854 
   Embedding correction                       0.0000000000 
   Total DFT Energy (No VdW correction)    -948.1545305954 
# -----------------------------------------------------------
$ Solvation_Details
   description: Details concerning solvation
   geom. index: 14
   prop. index: 1
     Epsilon:                2.4000000000
     Refrac:                 1.4970000000
     RSolv:                  1.3000000000
     Surface Type:                      2
     Number of Points:               1064
     Surface Area:         772.0536884314
     Dielectric Energy:     -0.0067148229
# -----------------------------------------------------------
$ VdW_Correction
   description: The Van der Waals Correction
   geom. index: 14
   prop. index: 1
        Van der Waals Correction:       -0.0063244660
# -----------------------------------------------------------
$ SCF_Energy
   description: The SCF energy
   geom. index: 15
   prop. index: 1
        SCF Energy:     -948.1545227913
# -----------------------------------------------------------
$ DFT_Energy
   description: The DFT energy
   geom. index: 15
   prop. index: 1
   Number of Alpha Electrons                 46.9999999316 
   Number of Beta  Electrons                 46.9999999316 
   Total number of  Electrons                93.9999998632 
   Exchange energy                          -94.6603245503 
   Correlation energy                        -3.2055495074 
   Correlation energy NL                      0.0000000000 
   Exchange-Correlation energy              -97.8658740577 
   Embedding correction                       0.0000000000 
   Total DFT Energy (No VdW correction)    -948.1545227913 
# -----------------------------------------------------------
$ Solvation_Details
   description: Details concerning solvation
   geom. index: 15
   prop. index: 1
     Epsilon:                2.4000000000
     Refrac:                 1.4970000000
     RSolv:                  1.3000000000
     Surface Type:                      2
     Number of Points:               1065
     Surface Area:         772.2046506043
     Dielectric Energy:     -0.0067117598
# -----------------------------------------------------------
$ Mayer_Pop
   description: The Mayer population analysis
   geom. index: 15
   prop. index: 1
     Number of atoms                     : 17
     Threshold for printing              : 0.1000000
     Number of bond orders printed       : 17
  NA   - Mulliken gross atomic population
  ZA   - Total nuclear charge
  QA   - Mulliken gross atomic charge
  VA   - Mayer's total valence
  BVA  - Mayer's bonded valence
  FA   - Mayer's free valence
  ATOM       NA         ZA         QA         VA         BVA        FA
  0   0     6.1810     6.0000    -0.1810     3.8084     3.8084    -0.0000
  1   0     6.1890     6.0000    -0.1890     3.7821     3.7821     0.0000
  2   0     6.1210     6.0000    -0.1210     3.7721     3.7721     0.0000
  3   0     6.0244     6.0000    -0.0244     3.8257     3.8257    -0.0000
  4   0     6.1810     6.0000    -0.1810     3.8421     3.8421     0.0000
  5   0     6.1898     6.0000    -0.1898     3.8086     3.8086     0.0000
  6   0     0.8261     1.0000     0.1739     0.9617     0.9617    -0.0000
  7   0     5.8358     6.0000     0.1642     3.8643     3.8643     0.0000
  8   0     0.8318     1.0000     0.1682     0.9631     0.9631    -0.0000
  9   0     0.8304     1.0000     0.1696     0.9615     0.9615    -0.0000
 10   0     0.8139     1.0000     0.1861     0.9557     0.9557     0.0000
 11   0     0.8310     1.0000     0.1690     0.9627     0.9627     0.0000
 12   0     6.6198     7.0000     0.3802     3.7826     3.7826     0.0000
 13   0     8.4426     8.0000    -0.4426     2.0247     2.0247     0.0000
 14   0     8.4100     8.0000    -0.4100     1.7416     1.7416    -0.0000
 15   0    15.2570    16.0000     0.7430     3.3254     3.3254     0.0000
 16   0     8.4153     8.0000    -0.4153     1.7398     1.7398     0.0000
      Bond orders larger than 0.1000000
           Atom A     A.N. of A          Atom B    A.N. of B              Bond order
                0             6               1            6                1.413008
                0             6               2            6                1.391707
                0             6               8            1                0.953296
                1             6               3            6                1.354857
                1             6               6            1                0.951329
                2             6               5            6                1.387010
                2             6               9            1                0.945963
                3             6               4            6                1.372028
                3             6               7            6                1.190766
                4             6               5            6                1.420818
                4             6              10            1                0.948883
                5             6              11            1                0.954386
                7             6              12            7                2.314663
                7             6              13            8                0.339089
               12             7              13            8                1.432429
               14             8              15           16                1.574778
               15            16              16            8                1.606564
# -----------------------------------------------------------
$ VdW_Correction
   description: The Van der Waals Correction
   geom. index: 15
   prop. index: 1
        Van der Waals Correction:       -0.0063225900
# -----------------------------------------------------------
$ SCF_Electric_Properties
   description: The SCF Calculated Electric Properties
   geom. index: 15
   prop. index: 1
       Filename                          : orca.scfp 
       Do Dipole Moment Calculation      : true 
       Do Quadrupole Moment Calculation  : false 
       Do Polarizability Calculation     : false 
** Dipole moment part of electric properties **
        Magnitude of dipole moment (Debye) :        5.3425541141
        Electronic Contribution:
                  0    
      0      10.503645
      1       8.826153
      2       0.591651
        Nuclear Contribution:
                  0    
      0     -12.342859
      1      -9.785518
      2      -0.252809
        Total Dipole moment:
                  0    
      0      -1.839213
      1      -0.959364
      2       0.338842
# -----------------------------------------------------------
$ Hessian
   description: Details about the Hessian
   geom. index: 15
   prop. index: 1
Normal modes:
Number of Rows: 51 Number of Columns: 51
                  0          1          2          3          4          5    
      0       0.000000   0.000000   0.000000   0.000000   0.000000   0.000000
      1       0.000000   0.000000   0.000000   0.000000   0.000000   0.000000
      2       0.000000   0.000000   0.000000   0.000000   0.000000   0.000000
      3       0.000000   0.000000   0.000000   0.000000   0.000000   0.000000
      4       0.000000   0.000000   0.000000   0.000000   0.000000   0.000000
      5       0.000000   0.000000   0.000000   0.000000   0.000000   0.000000
      6       0.000000   0.000000   0.000000   0.000000   0.000000   0.000000
      7       0.000000   0.000000   0.000000   0.000000   0.000000   0.000000
      8       0.000000   0.000000   0.000000   0.000000   0.000000   0.000000
      9       0.000000   0.000000   0.000000   0.000000   0.000000   0.000000
     10       0.000000   0.000000   0.000000   0.000000   0.000000   0.000000
     11       0.000000   0.000000   0.000000   0.000000   0.000000   0.000000
     12       0.000000   0.000000   0.000000   0.000000   0.000000   0.000000
     13       0.000000   0.000000   0.000000   0.000000   0.000000   0.000000
     14       0.000000   0.000000   0.000000   0.000000   0.000000   0.000000
     15       0.000000   0.000000   0.000000   0.000000   0.000000   0.000000
     16       0.000000   0.000000   0.000000   0.000000   0.000000   0.000000
     17       0.000000   0.000000   0.000000   0.000000   0.000000   0.000000
     18       0.000000   0.000000   0.000000   0.000000   0.000000   0.000000
     19       0.000000   0.000000   0.000000   0.000000   0.000000   0.000000
     20       0.000000   0.000000   0.000000   0.000000   0.000000   0.000000
     21       0.000000   0.000000   0.000000   0.000000   0.000000   0.000000
     22       0.000000   0.000000   0.000000   0.000000   0.000000   0.000000
     23       0.000000   0.000000   0.000000   0.000000   0.000000   0.000000
     24       0.000000   0.000000   0.000000   0.000000   0.000000   0.000000
     25       0.000000   0.000000   0.000000   0.000000   0.000000   0.000000
     26       0.000000   0.000000   0.000000   0.000000   0.000000   0.000000
     27       0.000000   0.000000   0.000000   0.000000   0.000000   0.000000
     28       0.000000   0.000000   0.000000   0.000000   0.000000   0.000000
     29       0.000000   0.000000   0.000000   0.000000   0.000000   0.000000
     30       0.000000   0.000000   0.000000   0.000000   0.000000   0.000000
     31       0.000000   0.000000   0.000000   0.000000   0.000000   0.000000
     32       0.000000   0.000000   0.000000   0.000000   0.000000   0.000000
     33       0.000000   0.000000   0.000000   0.000000   0.000000   0.000000
     34       0.000000   0.000000   0.000000   0.000000   0.000000   0.000000
     35       0.000000   0.000000   0.000000   0.000000   0.000000   0.000000
     36       0.000000   0.000000   0.000000   0.000000   0.000000   0.000000
     37       0.000000   0.000000   0.000000   0.000000   0.000000   0.000000
     38       0.000000   0.000000   0.000000   0.000000   0.000000   0.000000
     39       0.000000   0.000000   0.000000   0.000000   0.000000   0.000000
     40       0.000000   0.000000   0.000000   0.000000   0.000000   0.000000
     41       0.000000   0.000000   0.000000   0.000000   0.000000   0.000000
     42       0.000000   0.000000   0.000000   0.000000   0.000000   0.000000
     43       0.000000   0.000000   0.000000   0.000000   0.000000   0.000000
     44       0.000000   0.000000   0.000000   0.000000   0.000000   0.000000
     45       0.000000   0.000000   0.000000   0.000000   0.000000   0.000000
     46       0.000000   0.000000   0.000000   0.000000   0.000000   0.000000
     47       0.000000   0.000000   0.000000   0.000000   0.000000   0.000000
     48       0.000000   0.000000   0.000000   0.000000   0.000000   0.000000
     49       0.000000   0.000000   0.000000   0.000000   0.000000   0.000000
     50       0.000000   0.000000   0.000000   0.000000   0.000000   0.000000
                  6          7          8          9         10         11    
      0       0.073882   0.121002  -0.047261  -0.056718   0.086577  -0.000469
      1      -0.074953  -0.043648   0.066634  -0.160703   0.076191   0.045338
      2      -0.239022   0.064439  -0.055015  -0.052878  -0.092340   0.033448
      3       0.063676   0.032525   0.023640  -0.204910   0.114103   0.092515
      4      -0.061873   0.016543   0.031193  -0.038153   0.089225  -0.034364
      5      -0.196912   0.048970   0.051214   0.062463   0.154754  -0.058724
      6       0.018556   0.231332  -0.123134   0.082498   0.021160  -0.085672
      7      -0.012116  -0.017060  -0.014746  -0.132306  -0.009856   0.033558
      8      -0.051413   0.012948  -0.153587  -0.128944  -0.211113   0.091837
      9      -0.002794   0.054259   0.019601  -0.209237   0.079022   0.097575
     10       0.015627   0.103179  -0.086338   0.110958   0.010562  -0.112631
     11       0.038498  -0.019611   0.056599   0.092209   0.266201  -0.077512
     12      -0.058309   0.166169  -0.059664  -0.079111   0.003105   0.021248
     13       0.078892   0.130115  -0.165728   0.147119  -0.059118  -0.137565
     14       0.226754  -0.070448  -0.036680   0.044576   0.190379  -0.056930
     15      -0.047169   0.253654  -0.129773   0.069932  -0.026733  -0.071005
     16       0.064362   0.069650  -0.130222   0.024940  -0.072267  -0.061755
     17       0.179822  -0.054231  -0.142497  -0.070530  -0.053832   0.031799
     18       0.106864  -0.053467   0.084173  -0.313553   0.174169   0.153806
     19      -0.111304  -0.003397   0.093249  -0.065703   0.151041  -0.021094
     20      -0.344344   0.088880   0.125899   0.108000   0.229180  -0.089700
     21      -0.013881  -0.023403   0.081317  -0.293651   0.117577   0.112009
     22       0.029820   0.156607  -0.120677   0.178237  -0.011605  -0.118656
     23       0.082897  -0.033361   0.130257   0.110248   0.331641  -0.060586
     24       0.125819   0.103280  -0.042431  -0.048875   0.120354  -0.008251
     25      -0.135272  -0.111896   0.158081  -0.281072   0.129435   0.120086
     26      -0.422162   0.117280  -0.062082  -0.091170  -0.202557   0.066891
     27       0.027009   0.300265  -0.177447   0.201541   0.004900  -0.160886
     28      -0.023076  -0.064756   0.012302  -0.231172  -0.027460   0.099141
     29      -0.086988   0.025208  -0.238965  -0.231296  -0.421522   0.178068
     30      -0.109009   0.181995  -0.063174  -0.086307  -0.026854   0.028034
     31       0.137851   0.201324  -0.259531   0.263214  -0.113846  -0.211554
     32       0.403894  -0.122709  -0.027596   0.076308   0.289312  -0.084460
     33      -0.090050   0.340346  -0.190257   0.179510  -0.084564  -0.133432
     34       0.113274   0.090546  -0.193626   0.050806  -0.136706  -0.074950
     35       0.325357  -0.094435  -0.218167  -0.122274  -0.134311   0.064697
     36      -0.032725  -0.010951   0.033746  -0.106155   0.039322  -0.166148
     37       0.049676   0.148233  -0.093356   0.025868  -0.000388   0.108931
     38       0.123042  -0.024977   0.072364   0.010113   0.017463   0.066630
     39      -0.047049   0.006672  -0.009698  -0.005723   0.043942  -0.373113
     40       0.065106   0.136142  -0.063720  -0.073057  -0.026685   0.283985
     41       0.155143  -0.005598   0.018790  -0.122081  -0.195108   0.165436
     42       0.054312  -0.254495   0.137206   0.100010  -0.199077  -0.159350
     43      -0.031333   0.089935   0.374067   0.069898   0.004376   0.172430
     44      -0.016803   0.148477   0.380522   0.030849  -0.180655  -0.169679
     45       0.035256  -0.086188   0.104397   0.130678  -0.120907   0.078433
     46      -0.038926  -0.132067   0.159658   0.011428   0.006015   0.008797
     47      -0.061250  -0.017785  -0.083820  -0.026776  -0.063904  -0.103251
     48      -0.078577  -0.252112  -0.165106   0.259958   0.054748   0.403590
     49      -0.027942  -0.410098  -0.221386  -0.123423  -0.006925  -0.274001
     50      -0.145996  -0.047762  -0.155790   0.109542   0.063945   0.216846
                 12         13         14         15         16         17    
      0      -0.042695   0.039261   0.016795   0.055625   0.052207  -0.026110
      1      -0.063265   0.062363  -0.007397  -0.061636   0.217273  -0.060956
      2       0.020134  -0.003031  -0.044364  -0.193620  -0.045637  -0.002012
      3      -0.085941   0.048087   0.071299  -0.053284   0.012065  -0.096013
      4      -0.041612   0.049231  -0.070975   0.067554   0.180291   0.001795
      5      -0.068538  -0.016958  -0.215365   0.188799  -0.069557  -0.069722
      6       0.011051   0.037659  -0.064521   0.003592   0.205357   0.004667
      7      -0.015273   0.063711   0.082238   0.005024   0.280945  -0.017218
      8       0.069893   0.002083   0.225483  -0.000898  -0.039307   0.078332
      9      -0.077568   0.040592   0.033342  -0.000245  -0.059494  -0.091557
     10       0.017452   0.021175  -0.033383  -0.001963  -0.068633   0.073850
     11      -0.095971  -0.010527  -0.084709  -0.002340   0.003813  -0.002373
     12      -0.012418   0.049596   0.066975   0.056752   0.162214  -0.073481
     13       0.053978   0.029111  -0.079402  -0.063163   0.095821   0.081446
     14      -0.080227  -0.010413  -0.215588  -0.189421   0.026987  -0.043722
     15       0.030756   0.040242   0.010590  -0.051384   0.197441   0.036553
     16       0.038241   0.040084  -0.015272   0.068197   0.132860   0.016368
     17       0.007216  -0.008162  -0.039680   0.193408  -0.000798  -0.054808
     18      -0.134683   0.065831   0.097627  -0.116695   0.176764  -0.170196
     19      -0.075209   0.055889  -0.092263   0.148766   0.255546  -0.046391
     20      -0.093028  -0.018963  -0.286394   0.423769  -0.061097  -0.102489
     21      -0.067459   0.028945  -0.114102  -0.006226  -0.150354   0.075267
     22       0.019353   0.012325   0.138216  -0.000213  -0.230056   0.024258
     23      -0.042714   0.003451   0.403734   0.010377   0.035702   0.426366
     24      -0.055035   0.036903   0.012383   0.116175   0.034592  -0.032181
     25      -0.114092   0.066588   0.003228  -0.136748   0.091051  -0.132160
     26       0.058163   0.006391  -0.028198  -0.407419   0.008334   0.008839
     27       0.038123   0.027339  -0.159592   0.003305   0.209455   0.016107
     28      -0.023116   0.072709   0.194313   0.005369   0.278535  -0.011089
     29       0.152128   0.014142   0.546022   0.000098  -0.039128   0.181801
     30      -0.001263   0.050148   0.087014   0.120891   0.175751  -0.074919
     31       0.108595   0.031450  -0.108520  -0.136598   0.288248   0.153903
     32      -0.115738  -0.011205  -0.285866  -0.413784  -0.016466  -0.034615
     33       0.078074   0.027419  -0.001015  -0.116391   0.090380   0.128608
     34       0.072928   0.034213  -0.010537   0.142706   0.074907   0.039259
     35       0.034241  -0.008971  -0.018300   0.414684  -0.023931  -0.097552
     36       0.195934  -0.047363  -0.052174   0.001693  -0.144439   0.328481
     37      -0.141415   0.058982   0.053876  -0.011135  -0.295119  -0.297653
     38       0.225498   0.002928   0.140193  -0.018909   0.043457  -0.541079
     39       0.428992  -0.024683   0.034083  -0.007491  -0.252696  -0.151609
     40      -0.294676   0.058959  -0.050620  -0.001492  -0.269563   0.182353
     41       0.448361   0.032097  -0.150165   0.010733   0.034405   0.237571
     42      -0.246049   0.516686  -0.002460   0.001656  -0.015784   0.010440
     43       0.205566  -0.363125  -0.005260  -0.000521   0.015037  -0.010426
     44      -0.200038   0.373662   0.002013  -0.000070  -0.004223  -0.014772
     45      -0.145147  -0.439431   0.001207  -0.000078   0.016333  -0.003837
     46       0.142301   0.082118  -0.005478   0.000828  -0.006330   0.008898
     47      -0.185765  -0.298586   0.005740  -0.000206   0.006702  -0.001335
     48       0.124471   0.203450  -0.005956   0.000425   0.004039  -0.002242
     49      -0.076952  -0.137163   0.010027  -0.001737   0.006495  -0.019132
     50       0.067048   0.223879  -0.003660   0.000479  -0.006660   0.007069
                 18         19         20         21         22         23    
      0      -0.047407   0.036830  -0.013408  -0.007389  -0.345095   0.043814
      1      -0.090163  -0.042110   0.031197   0.008421  -0.094164  -0.053076
      2       0.015432  -0.127161  -0.017753  -0.016930  -0.065915  -0.156440
      3      -0.198901   0.003355   0.104461   0.060887   0.003024  -0.028507
      4       0.045908  -0.002570  -0.065485  -0.043498  -0.287226   0.033683
      5      -0.059028  -0.011313   0.051080   0.034401   0.098373   0.099177
      6       0.060228  -0.050695  -0.059114  -0.043107  -0.106357  -0.028054
      7      -0.055075   0.063218   0.027468   0.011145   0.071950   0.034309
      8       0.020147   0.181980  -0.021083  -0.002204  -0.054354   0.099708
      9      -0.152728  -0.091931   0.086433   0.049716   0.099999   0.033210
     10       0.105275   0.109268  -0.048913  -0.014622  -0.069166  -0.040728
     11      -0.082356   0.324155   0.051253   0.042986   0.052422  -0.118528
     12      -0.124193   0.005857   0.092035   0.049978   0.285610  -0.028983
     13       0.152004  -0.006950  -0.066654  -0.035001   0.100269   0.034764
     14      -0.095183  -0.016856   0.049650   0.023208   0.046517   0.102580
     15       0.052277   0.035879  -0.045795  -0.030091  -0.033246   0.044307
     16       0.073959  -0.042674  -0.004678  -0.000882   0.336319  -0.053215
     17       0.006910  -0.122784  -0.014694  -0.015870  -0.123968  -0.155199
     18      -0.338705   0.090102   0.190200   0.106407   0.143331  -0.134038
     19      -0.024939  -0.105256  -0.025765  -0.027421  -0.216366   0.161115
     20      -0.077379  -0.314534   0.053782   0.024930   0.113459   0.473469
     21       0.370733   0.038546  -0.385465  -0.228678   0.093079   0.004710
     22      -0.248566  -0.049038   0.269681   0.175144  -0.062928  -0.005610
     23       0.047716  -0.136577  -0.204790  -0.133341   0.047778  -0.015027
     24      -0.062658   0.123599   0.001571   0.006500  -0.328848  -0.024428
     25      -0.230794  -0.146786   0.127968   0.064924   0.050119   0.028020
     26       0.048474  -0.433411  -0.055499  -0.056796  -0.110244   0.084291
     27       0.131745  -0.078883  -0.064594  -0.044455   0.238729  -0.153579
     28      -0.104908   0.096695   0.031077   0.013049  -0.149889   0.184926
     29       0.028171   0.278693  -0.022252   0.005044   0.118391   0.542116
     30      -0.103451   0.092084   0.084658   0.048161   0.270824  -0.130865
     31       0.275081  -0.109645  -0.169428  -0.107038  -0.038048   0.158173
     32      -0.160194  -0.318677   0.069949   0.025873   0.089707   0.459553
     33       0.188065   0.120285  -0.127858  -0.068854  -0.175027  -0.021661
     34       0.149216  -0.145957  -0.052289  -0.029072   0.264358   0.025393
     35       0.030833  -0.424084  -0.032436  -0.035687  -0.140432   0.075815
     36       0.214025  -0.008862   0.421633   0.322592  -0.018343  -0.002313
     37      -0.086301   0.003554  -0.278075  -0.198871   0.013541   0.003238
     38       0.373658  -0.012062   0.233234   0.155789  -0.009621   0.009005
     39      -0.104422   0.001171  -0.166977  -0.115692   0.006198   0.000826
     40       0.104244  -0.000491   0.150221   0.121067  -0.002318  -0.000507
     41      -0.205714   0.017281  -0.111534  -0.056233   0.001845  -0.002743
     42       0.000402   0.002871   0.131994  -0.266086  -0.000200  -0.000124
     43      -0.017284  -0.000693  -0.094865   0.159234  -0.000729  -0.000141
     44      -0.012734  -0.003549  -0.230064   0.416698   0.001243  -0.000378
     45      -0.015173   0.000701  -0.006760  -0.045145   0.001261   0.000219
     46       0.003861   0.002949   0.149533  -0.283290   0.000089   0.000128
     47       0.000424   0.001628   0.064779  -0.149458   0.000382  -0.000028
     48      -0.011272  -0.002926  -0.160096   0.298430   0.000387  -0.000249
     49      -0.010646  -0.003825  -0.213044   0.391273   0.000387  -0.000135
     50       0.008538   0.001276   0.086570  -0.144192  -0.000536   0.000170
                 24         25         26         27         28         29    
      0      -0.262722   0.002421   0.016487   0.005016   0.026459  -0.018339
      1       0.047688  -0.002086  -0.019820  -0.006141  -0.031341   0.022015
      2      -0.089938  -0.004877  -0.058211  -0.018259  -0.092373   0.064497
      3      -0.246426   0.024331   0.021989  -0.024998  -0.020858   0.004554
      4       0.046746  -0.028318  -0.026326   0.029604   0.025102  -0.004804
      5      -0.087869  -0.083099  -0.077101   0.088452   0.071935  -0.018193
      6       0.157531   0.027844  -0.000965   0.025788  -0.004132   0.024352
      7       0.218508  -0.035105   0.001419  -0.029837   0.003580  -0.031949
      8      -0.031896  -0.100322   0.004077  -0.089433   0.012379  -0.089514
      9      -0.130113  -0.040399  -0.000251   0.012902  -0.000777   0.001611
     10      -0.178550   0.049776   0.000168  -0.015308   0.001227  -0.002016
     11       0.026643   0.144032   0.000795  -0.044927   0.002935  -0.005993
     12       0.133512   0.022241  -0.020749  -0.024558   0.023317   0.010018
     13      -0.201919  -0.026478   0.024601   0.028903  -0.026732  -0.010146
     14       0.104578  -0.079802   0.071319   0.084739  -0.077859  -0.029516
     15       0.143900   0.000577  -0.017375   0.001100  -0.023261  -0.022040
     16      -0.219923  -0.000395   0.021052  -0.001234   0.027479   0.026512
     17       0.116673  -0.004145   0.061319  -0.003547   0.081327   0.078044
     18      -0.053433  -0.053388  -0.139643   0.148614   0.110421  -0.049749
     19       0.153014   0.063716   0.168698  -0.179347  -0.134318   0.060821
     20      -0.063394   0.188851   0.496036  -0.526073  -0.395871   0.174441
     21       0.009407   0.006361   0.000088  -0.003447   0.000043   0.001104
     22       0.026680  -0.008077  -0.000030   0.004346  -0.000106  -0.001430
     23      -0.002765  -0.023490   0.000058   0.012423  -0.000416  -0.003934
     24      -0.310775  -0.144235  -0.114696  -0.039989  -0.146519   0.119740
     25      -0.316037   0.175198   0.137282   0.047458   0.176377  -0.142660
     26       0.028400   0.512867   0.404747   0.140589   0.518007  -0.422970
     27       0.150043  -0.131804   0.007727  -0.139336   0.019536  -0.157425
     28       0.220295   0.156543  -0.008917   0.168451  -0.025156   0.186013
     29      -0.028054   0.462471  -0.025935   0.493196  -0.073123   0.550335
     30       0.162729  -0.048591   0.133744   0.147064  -0.119580  -0.067316
     31       0.014755   0.057540  -0.161364  -0.178215   0.146163   0.084043
     32       0.041890   0.168119  -0.470084  -0.516696   0.423282   0.241888
     33      -0.195597  -0.141586   0.123140  -0.015348   0.126174   0.141313
     34      -0.393717   0.172016  -0.146611   0.018299  -0.153019  -0.168973
     35       0.086437   0.500011  -0.431242   0.053820  -0.446920  -0.495507
     36       0.053600   0.001496  -0.000027  -0.000363   0.000022  -0.000147
     37       0.077355  -0.002369  -0.000020   0.000499  -0.000030   0.000143
     38      -0.013136  -0.005594  -0.000210   0.001217   0.000065   0.000505
     39       0.115708  -0.001242   0.000021   0.000198  -0.000100  -0.000013
     40       0.149857   0.000714  -0.000048  -0.000412   0.000023   0.000033
     41      -0.019708   0.003454   0.000218  -0.000855  -0.000007   0.000012
     42      -0.001655   0.000007   0.000159   0.000059  -0.000141  -0.000031
     43      -0.001175  -0.000034   0.000158   0.000168  -0.000253  -0.000040
     44       0.002019  -0.000099   0.000042   0.000089   0.000041  -0.000001
     45      -0.000253   0.000155  -0.000175  -0.000237   0.000178   0.000090
     46      -0.000662   0.000062  -0.000121  -0.000040   0.000102  -0.000002
     47      -0.000093  -0.000071   0.000063   0.000168  -0.000132  -0.000088
     48       0.001417  -0.000211   0.000130   0.000326  -0.000100  -0.000108
     49       0.000958  -0.000060   0.000040  -0.000098   0.000014   0.000040
     50      -0.001333   0.000130  -0.000226  -0.000367   0.000129   0.000146
                 30         31         32         33         34         35    
      0       0.013028  -0.189070  -0.053284  -0.077998   0.120643   0.002812
      1      -0.013135   0.072803  -0.019125  -0.016114   0.047177   0.039828
      2       0.008946  -0.078556  -0.009053  -0.016760   0.017916  -0.012768
      3       0.137066   0.099756  -0.007928   0.017051   0.031267  -0.003982
      4      -0.319863  -0.031080   0.052073   0.108900  -0.001586   0.002466
      5       0.147320   0.038910  -0.019072  -0.031900   0.009808  -0.002013
      6       0.241647  -0.052895   0.038354   0.071804  -0.049067   0.049119
      7       0.334937  -0.075986  -0.005400  -0.047456  -0.074990  -0.031493
      8      -0.046899   0.010838   0.012723   0.036514   0.011602   0.024622
      9      -0.023690   0.028373   0.067431   0.050193  -0.220631  -0.005651
     10      -0.035383   0.039425   0.053776  -0.031739  -0.314763   0.003545
     11       0.006321  -0.005068   0.000345   0.025014   0.044746  -0.002788
     12      -0.366415  -0.069388  -0.024150  -0.095434  -0.020993  -0.004519
     13       0.001002   0.075856  -0.030549  -0.056680   0.025967   0.002845
     14      -0.106787  -0.045602   0.003105  -0.008131  -0.014832  -0.002171
     15      -0.019115   0.141636  -0.007966  -0.014504  -0.001106  -0.037539
     16       0.010608  -0.137773   0.008474   0.075620   0.126447  -0.017600
     17      -0.006377   0.087111  -0.004868  -0.029688  -0.043513  -0.004675
     18       0.145546   0.409844   0.050830   0.377679   0.443718  -0.152100
     19      -0.335876   0.125681   0.087586   0.298393   0.190411  -0.071882
     20       0.155974   0.071548  -0.017338   0.004361   0.058066  -0.018253
     21      -0.004313   0.010975   0.018317  -0.013807  -0.085190  -0.001098
     22      -0.004925   0.013296   0.026977   0.010162  -0.107995   0.000544
     23       0.000570  -0.001916  -0.003053  -0.007544   0.015529  -0.000518
     24       0.022565  -0.157683  -0.078989  -0.114438   0.158596   0.052475
     25      -0.103579   0.426827  -0.196819  -0.263728   0.321345   0.464515
     26       0.036437  -0.188660   0.045147   0.057422  -0.062983  -0.143028
     27       0.255454  -0.059298   0.179690   0.427954  -0.039529   0.524554
     28       0.350541  -0.089312  -0.096564  -0.276339  -0.079167  -0.337000
     29      -0.037738   0.013015   0.084007   0.215555   0.015313   0.263581
     30      -0.394573  -0.034197  -0.053156  -0.147647   0.010593   0.013036
     31      -0.018280   0.393454  -0.293188  -0.451985   0.429466   0.162273
     32      -0.089227  -0.143780   0.084960   0.115421  -0.145554  -0.052314
     33      -0.094369   0.481396   0.005713   0.210080   0.272101  -0.432596
     34      -0.015044   0.025272   0.016714   0.197263   0.273448  -0.218787
     35      -0.037150   0.128465  -0.004025  -0.008865  -0.014613  -0.048068
     36       0.002567   0.001855   0.008934  -0.001067  -0.025938   0.000150
     37       0.005800   0.001283   0.006561   0.000813  -0.023125  -0.000262
     38      -0.001506   0.000313   0.000410  -0.000536  -0.000805   0.000129
     39       0.019115  -0.018603  -0.024828   0.000246   0.137165   0.000123
     40       0.022661  -0.024259  -0.041438  -0.001482   0.173877   0.000173
     41      -0.002252   0.003258   0.009829   0.000536  -0.021418  -0.000024
     42       0.003047   0.002004   0.353377  -0.015436   0.020965  -0.000130
     43       0.003936   0.002114   0.449952  -0.019584   0.028670  -0.000199
     44      -0.002259  -0.001067  -0.215897   0.009214  -0.013316   0.000131
     45      -0.000996  -0.000183  -0.033236   0.000687  -0.000379   0.000292
     46      -0.002348  -0.001396  -0.299316   0.013404  -0.019553   0.000009
     47      -0.000537  -0.001112  -0.111732   0.005816  -0.006699  -0.000345
     48      -0.001936  -0.002001  -0.299432   0.014334  -0.018958  -0.000405
     49       0.000821   0.000881   0.151185  -0.007281   0.010368   0.000191
     50       0.002800   0.002993   0.432380  -0.020728   0.027325   0.000584
                 36         37         38         39         40         41    
      0      -0.007131   0.000850  -0.005863   0.020274   0.076237  -0.082109
      1      -0.050716  -0.004734   0.123280   0.071387  -0.028298  -0.139502
      2       0.015235   0.001861  -0.043485  -0.018546   0.031165   0.024128
      3       0.047452   0.004992  -0.087671  -0.144870  -0.111463   0.011032
      4       0.028320  -0.001053  -0.000789  -0.088099  -0.041118   0.109338
      5       0.003855   0.001690  -0.024551  -0.011023  -0.017511  -0.033945
      6      -0.003999  -0.003283   0.056390   0.126096   0.016427   0.070261
      7      -0.006177  -0.002783  -0.036262  -0.081530   0.027878  -0.047443
      8       0.000944   0.000357   0.028301   0.063538  -0.004833   0.036123
      9       0.000821  -0.007987   0.220191   0.026516  -0.134511   0.111949
     10       0.001614   0.004065  -0.145133  -0.017351  -0.182830  -0.074759
     11      -0.000255  -0.003124   0.111953   0.013536   0.024669   0.057072
     12       0.009570   0.007353  -0.031882   0.033604  -0.003182  -0.103420
     13       0.052597   0.011980   0.078489   0.160219  -0.118305  -0.042804
     14      -0.015059  -0.003411  -0.035830  -0.045217   0.039363  -0.014751
     15      -0.046986   0.000513  -0.122187  -0.061621  -0.042567   0.111130
     16      -0.025393  -0.004910  -0.040789  -0.043956   0.063170   0.123919
     17      -0.004720   0.001818  -0.020809  -0.002484  -0.033679  -0.010659
     18       0.438310   0.058461  -0.492160   0.485315   0.345543  -0.213564
     19       0.225473   0.025879  -0.198249   0.226823   0.183641   0.015854
     20       0.046869   0.009298  -0.071434   0.060306   0.035152  -0.065871
     21       0.007856   0.001119  -0.011035   0.005665   0.198520  -0.013261
     22       0.009964  -0.002746   0.013521  -0.002102   0.265702   0.007773
     23      -0.001305   0.002048  -0.008042   0.002205  -0.035759  -0.006472
     24      -0.057820  -0.000383  -0.066671   0.042991   0.134197  -0.031041
     25      -0.474530  -0.015373  -0.359612   0.252245   0.380932   0.418143
     26       0.144826   0.005874   0.102842  -0.073734  -0.091369  -0.150840
     27      -0.004438  -0.011412   0.021701  -0.320533   0.018684  -0.479114
     28      -0.006080   0.002155  -0.013997   0.205435   0.040177   0.305000
     29       0.000934  -0.003778   0.010878  -0.160811  -0.008242  -0.239985
     30       0.056177   0.004869   0.009759  -0.038486   0.044512  -0.100378
     31       0.468466   0.032917   0.505532  -0.518499   0.365292   0.157840
     32      -0.145273   0.005695  -0.170408   0.167255  -0.111967  -0.082500
     33      -0.441751  -0.071690   0.326913  -0.232783   0.289047  -0.438812
     34      -0.227591  -0.042494   0.192925  -0.132751   0.243092  -0.141880
     35      -0.047542  -0.006232   0.027471  -0.020824  -0.000681  -0.076506
     36       0.004038   0.001039   0.000115   0.001047   0.168119  -0.002181
     37       0.004792   0.001284   0.002988   0.000290   0.207303  -0.000216
     38      -0.000466   0.000575  -0.000898   0.000170  -0.023240  -0.000476
     39      -0.008587   0.002190  -0.001095  -0.000931  -0.196377   0.002180
     40      -0.011063   0.000160  -0.005000  -0.001123  -0.247592   0.000246
     41       0.001452  -0.001973   0.001441   0.000157   0.029994   0.000555
     42      -0.001896   0.327111   0.001661  -0.001263   0.001596   0.000052
     43      -0.002667   0.398778   0.001920  -0.001503  -0.001318   0.000046
     44       0.001429  -0.206932  -0.000831   0.000681   0.000633  -0.000013
     45       0.001831  -0.346100  -0.001430   0.000888  -0.002675  -0.000062
     46       0.001002  -0.119144  -0.000597   0.000538   0.001247   0.000035
     47      -0.002048   0.357319   0.001362  -0.000884  -0.000329   0.000074
     48      -0.001815   0.361930   0.001358  -0.000753   0.000941   0.000105
     49       0.000761  -0.161370  -0.000549   0.000273  -0.001152  -0.000083
     50       0.002622  -0.509234  -0.001870   0.001029  -0.001027  -0.000141
                 42         43         44         45         46         47    
      0      -0.014706   0.127648   0.107743  -0.003173  -0.042380   0.051836
      1       0.135283  -0.156048   0.264815  -0.007190   0.000299  -0.002096
      2      -0.050203   0.089311  -0.059440   0.001596  -0.012107   0.015399
      3       0.116007  -0.190540  -0.219910   0.013531   0.006548  -0.011958
      4       0.011341   0.005436  -0.193885   0.010450  -0.012261   0.023091
      5       0.029002  -0.055720   0.003506   0.000109   0.006016  -0.011233
      6      -0.063203  -0.287250  -0.092857   0.002058   0.032411   0.001020
      7      -0.075922   0.192163  -0.114854   0.003050   0.045403   0.006111
      8       0.007931  -0.146861   0.012785  -0.000443  -0.006267  -0.001792
      9      -0.103144   0.189869   0.112137   0.052450  -0.000216   0.000629
     10      -0.140272  -0.120703   0.142269   0.067890  -0.000177  -0.000139
     11       0.018766   0.094795  -0.016803  -0.007573   0.000004   0.000222
     12      -0.028926  -0.067504  -0.113192   0.004214  -0.010767  -0.020384
     13       0.110746   0.175566  -0.255852   0.016369   0.001015   0.001607
     14      -0.046080  -0.079121   0.055211  -0.004192  -0.003419  -0.006361
     15       0.140187   0.180673   0.229551  -0.005427   0.014571   0.021536
     16       0.031319  -0.067525   0.191125  -0.005556  -0.034147  -0.046571
     17       0.029141   0.074346   0.000002   0.000242   0.015785   0.021999
     18      -0.382233   0.221918   0.369134  -0.011719  -0.069954   0.128967
     19      -0.253072   0.221940   0.092677  -0.000588   0.152676  -0.281518
     20      -0.022373  -0.012429   0.073223  -0.003055  -0.071685   0.132169
     21       0.038528  -0.008866  -0.015619  -0.427944  -0.000239  -0.000134
     22       0.051278   0.003907  -0.020194  -0.574160  -0.000335   0.000018
     23      -0.006648  -0.003968   0.002466   0.080320   0.000045  -0.000042
     24      -0.090258   0.184848   0.044567  -0.008538   0.500677  -0.600165
     25      -0.440401   0.162360  -0.344247   0.002413  -0.013150   0.017562
     26       0.124010  -0.002772   0.129545  -0.003085   0.146338  -0.176021
     27      -0.051959   0.443766  -0.084714   0.003793  -0.382396  -0.035331
     28      -0.106881  -0.276440  -0.140424   0.005433  -0.536870  -0.055205
     29       0.021693   0.219884   0.023673  -0.000773   0.074316   0.008772
     30      -0.102066  -0.125359  -0.058551   0.000126   0.132289   0.246908
     31      -0.445989  -0.277743   0.349178  -0.009367  -0.003352  -0.006172
     32       0.124517   0.060390  -0.136543   0.003447   0.038923   0.072607
     33      -0.384053  -0.053542  -0.358007   0.004399  -0.182189  -0.247617
     34      -0.245819  -0.208472  -0.100922  -0.007454   0.399690   0.539597
     35      -0.025467   0.055676  -0.067568   0.003651  -0.188047  -0.254329
     36       0.039375  -0.003319  -0.011822   0.408502   0.000280   0.000026
     37       0.050000  -0.001755  -0.015330   0.532923   0.000373   0.000019
     38      -0.006133  -0.000270   0.002097  -0.070538  -0.000050   0.000001
     39      -0.033673   0.002793   0.010082  -0.079639  -0.000094  -0.000008
     40      -0.042533   0.000814   0.012225  -0.099019  -0.000106  -0.000024
     41       0.005190   0.000557  -0.001362   0.010885   0.000009   0.000006
     42      -0.000445  -0.000570  -0.000032   0.000264  -0.000001  -0.000004
     43      -0.001034  -0.000657  -0.000065  -0.001759   0.000009   0.000003
     44       0.000419   0.000231  -0.000004   0.000639  -0.000008  -0.000010
     45      -0.000026   0.000270  -0.000193  -0.001766   0.000003   0.000003
     46       0.000475   0.000291   0.000208   0.001124  -0.000009  -0.000002
     47      -0.000508  -0.000263   0.000105  -0.001755   0.000003   0.000003
     48      -0.000251  -0.000155   0.000309  -0.000488  -0.000002   0.000003
     49      -0.000067   0.000015  -0.000178  -0.000222   0.000003   0.000005
     50       0.000350   0.000202  -0.000382   0.001139   0.000003  -0.000001
                 48         49         50    
      0      -0.018551  -0.040047   0.023414
      1       0.003728  -0.000537  -0.000788
      2      -0.006523  -0.011170   0.006909
      3       0.016710  -0.022854   0.009751
      4      -0.034254   0.054995  -0.022796
      5       0.016364  -0.025154   0.010495
      6      -0.034196  -0.007786   0.015556
      7      -0.047159  -0.014593   0.020677
      8       0.006355   0.002757  -0.002636
      9      -0.001174   0.003191  -0.000384
     10      -0.000953  -0.001097  -0.002595
     11      -0.000004   0.001268   0.000782
     12      -0.029294  -0.038910  -0.064747
     13       0.002146   0.000022  -0.000058
     14      -0.009085  -0.011098  -0.018440
     15       0.015885  -0.001500  -0.013859
     16      -0.027537   0.008600   0.033694
     17       0.013901  -0.003361  -0.015425
     18      -0.182196   0.273422  -0.112086
     19       0.400268  -0.611161   0.250371
     20      -0.187587   0.285075  -0.116796
     21      -0.000028  -0.000353  -0.000033
     22      -0.000071   0.000055   0.000177
     23       0.000014  -0.000112  -0.000072
     24       0.212382   0.437318  -0.254409
     25      -0.009853  -0.010761   0.007681
     26       0.063526   0.127588  -0.074697
     27       0.380809   0.102853  -0.162099
     28       0.533511   0.148984  -0.226319
     29      -0.073638  -0.021550   0.031065
     30       0.343589   0.441701   0.724421
     31      -0.008558  -0.007597  -0.012176
     32       0.101028   0.128687   0.210966
     33      -0.152108   0.035952   0.163826
     34       0.323097  -0.084351  -0.359555
     35      -0.153369   0.038996   0.169182
     36       0.000174   0.000021   0.000057
     37       0.000228   0.000090   0.000119
     38      -0.000031  -0.000022  -0.000025
     39      -0.000040  -0.000046   0.000085
     40      -0.000044  -0.000071   0.000072
     41       0.000003   0.000011   0.000003
     42      -0.000018  -0.000023  -0.000016
     43      -0.000005   0.000005   0.000010
     44      -0.000013  -0.000023  -0.000028
     45      -0.000009  -0.000009  -0.000022
     46      -0.000012  -0.000018  -0.000006
     47       0.000005   0.000006   0.000015
     48      -0.000010  -0.000013   0.000014
     49      -0.000004  -0.000005  -0.000008
     50      -0.000001   0.000002  -0.000023
# -----------------------------------------------------------
$ THERMOCHEMISTRY_Energies
   description: The Thermochemistry energies
   geom. index: 15
   prop. index: 1
        Temperature (Kelvin)           :        298.1500000000
        Pressure (atm)                 :          1.0000000000
        Total Mass (AMU)               :        183.1810000000
        Spin Degeneracy                :          1.0000000000
        Electronic Energy (Hartree)    :       -948.1490593690
        Translational Energy (Hartree) :          0.0014162714
        Rotational Energy (Hartree)    :          0.0014162714
        Vibrational Energy (Hartree)   :          0.0092477262
        Number of frequencies          :     51      
        Scaling Factor for frequencies :          1.0000000000
        Vibrational frequencies        :     
                  0    
      0       0.000000
      1       0.000000
      2       0.000000
      3       0.000000
      4       0.000000
      5       0.000000
      6      20.965270
      7      28.619455
      8      42.053070
      9      76.711801
     10      91.939807
     11     109.590438
     12     154.556012
     13     198.259893
     14     274.133595
     15     403.150839
     16     413.336152
     17     427.047558
     18     433.113643
     19     485.154300
     20     492.417573
     21     500.320995
     22     637.051653
     23     693.444992
     24     736.014309
     25     755.262640
     26     852.208755
     27     933.483307
     28     984.519804
     29     1003.414109
     30     1018.289078
     31     1046.453721
     32     1097.260182
     33     1103.414958
     34     1114.652201
     35     1184.221716
     36     1200.737098
     37     1248.634338
     38     1323.590222
     39     1356.949471
     40     1402.674978
     41     1469.962681
     42     1517.802869
     43     1601.543357
     44     1627.856001
     45     2425.393587
     46     3175.570516
     47     3183.256794
     48     3191.420515
     49     3198.951038
     50     3202.255256
        Zero Point Energy (Hartree)    :          0.1103491103
        Inner Energy (Hartree)         :       -948.0266299896
        Enthalpy (Hartree)             :       -948.0256857806
        Electronic entropy             :          0.0000000000
        Rotational entropy             :          0.0150298913
        Vibrational entropy            :          0.0171602474
        Translational entropy          :          0.0150298913
        Entropy                        :          0.0519186563
        Gibbs Energy (Hartree)         :       -948.0776044369
        Is Linear                      :                 false
# -------------------------------------------------------------
----------------------- !GEOMETRIES! ------------------------
# -------------------------------------------------------------
------------------------ !GEOMETRY! -------------------------
    Number of atoms:    17 
    Geometry Index:     1 
    Coordinates:
               0 C     -0.083521886217    0.068702554367   -0.140480037036
               1 C      0.675207566781    1.225863635099   -0.315972888331
               2 C      0.500635660867   -1.081616449215    0.405449104181
               3 C      2.034406183194    1.228210589644    0.060629526094
               4 C      2.625462955584    0.070935990327    0.613933627778
               5 C      1.850262594983   -1.076392566252    0.780503314843
               6 H      0.230057479088    2.120195240279   -0.737311079218
               7 C      2.837489337148    2.390158597192   -0.106464695007
               8 H     -1.129118107125    0.064096768841   -0.428267023078
               9 H     -0.094856255973   -1.978539892904    0.538944902167
              10 H      3.668154732508    0.105474220233    0.906627723118
              11 H      2.300553586165   -1.966973845226    1.205048600390
              12 N      3.521914352456    3.326508781268   -0.256243048924
              13 O      4.392121310326    4.247196720955   -0.311625416393
              14 O      5.152470919336    1.858659914918    1.391346912952
              15 S      6.246697180897    2.999476015150    1.015233034096
              16 O      7.280662389982    2.514543725324   -0.123952557632
------------------------ !GEOMETRY! -------------------------
    Number of atoms:    17 
    Geometry Index:     2 
    Coordinates:
               0 C     -0.069232819554    0.080255306681   -0.138298189115
               1 C      0.689704083170    1.230099327532   -0.312595420307
               2 C      0.508570447713   -1.068285954117    0.404813918318
               3 C      2.043664664451    1.223285272118    0.062356463042
               4 C      2.630271062430    0.069016756305    0.612259026349
               5 C      1.853266902445   -1.069664427346    0.778109003439
               6 H      0.248995065514    2.127634248719   -0.733769380566
               7 C      2.848033289181    2.376664650861   -0.103454578378
               8 H     -1.115635748564    0.080207463036   -0.426375920168
               9 H     -0.091039904748   -1.963496081881    0.538116824487
              10 H      3.675305825796    0.098876323720    0.902954522634
              11 H      2.300537100252   -1.963188435613    1.202133633997
              12 N      3.518837163440    3.309615418129   -0.257802774920
              13 O      4.360335910811    4.214846361981   -0.319419934744
              14 O      5.185770345832    1.873331166385    1.378743195424
              15 S      6.217365348348    2.973298558378    1.001303027610
              16 O      7.203851263484    2.524004045114   -0.091673417102
------------------------ !GEOMETRY! -------------------------
    Number of atoms:    17 
    Geometry Index:     3 
    Coordinates:
               0 C     -0.062940922651    0.084542808437   -0.135594639363
               1 C      0.694466229142    1.232433391149   -0.312038836703
               2 C      0.513199508574   -1.062081609626    0.406154232809
               3 C      2.047025394228    1.223669788237    0.059340522500
               4 C      2.632113689511    0.071403211499    0.608188150167
               5 C      1.855862446756   -1.064622664022    0.776408444792
               6 H      0.254852726427    2.130736957975   -0.733247935992
               7 C      2.852894738640    2.373482645562   -0.107737368377
               8 H     -1.110423405218    0.085173812608   -0.422189171432
               9 H     -0.087407832558   -1.956889717634    0.541377309725
              10 H      3.678240280201    0.101222884334    0.897090814040
              11 H      2.303003759550   -1.958725286404    1.200962165529
              12 N      3.522208979147    3.306708342527   -0.262181959376
              13 O      4.341034326737    4.196806765277   -0.327492038709
              14 O      5.240243086496    1.889935805090    1.361799929222
              15 S      6.202762765397    2.924583896898    0.992498878962
              16 O      7.131464229621    2.538118968092   -0.045938497793
------------------------ !GEOMETRY! -------------------------
    Number of atoms:    17 
    Geometry Index:     4 
    Coordinates:
               0 C     -0.072223031843    0.085312072752   -0.141148246968
               1 C      0.697204145154    1.227086259956   -0.312203733153
               2 C      0.490647452964   -1.067701580728    0.402913180569
               3 C      2.048616209524    1.207729950918    0.066846653782
               4 C      2.620081764333    0.047545609172    0.617085089975
               5 C      1.832190613028   -1.082449425104    0.779998645264
               6 H      0.267633219609    2.129310843085   -0.735217006655
               7 C      2.862314038015    2.354677501536   -0.097083116171
               8 H     -1.117819849450    0.095684956698   -0.433780668065
               9 H     -0.118539366070   -1.957189885853    0.533692347727
              10 H      3.664810470537    0.064070627830    0.908425171272
              11 H      2.269288074934   -1.981186570866    1.204789383123
              12 N      3.518964759272    3.297204813003   -0.257705104327
              13 O      4.328121931193    4.207939798211   -0.332750228863
              14 O      5.281160596595    1.907762822099    1.383206256843
              15 S      6.242467810396    2.974919338206    0.990748192360
              16 O      7.193681161807    2.605782869084   -0.080416816713
------------------------ !GEOMETRY! -------------------------
    Number of atoms:    17 
    Geometry Index:     5 
    Coordinates:
               0 C     -0.079210060980    0.087858436359   -0.143198937342
               1 C      0.700154387259    1.223309572808   -0.312029649807
               2 C      0.472621360874   -1.070231350908    0.401341891044
               3 C      2.050881117047    1.193578505961    0.069803603411
               4 C      2.610908807526    0.027436762519    0.619718541472
               5 C      1.813439150629   -1.096238469116    0.780517829282
               6 H      0.278929448507    2.129348477494   -0.735305047942
               7 C      2.871107754918    2.336542572514   -0.092872357800
               8 H     -1.124046304037    0.107313396524   -0.438102451012
               9 H     -0.144183658130   -1.954660652952    0.530440667277
              10 H      3.655658177724    0.031440655364    0.910688005845
              11 H      2.242475889852   -1.999003738696    1.204929882975
              12 N      3.515705995784    3.286984309286   -0.258712863320
              13 O      4.307614297860    4.211521318468   -0.343781585294
              14 O      5.339325842111    1.932163479765    1.400156325214
              15 S      6.275335429270    3.007942463270    0.990989039239
              16 O      7.221882363785    2.661194261342   -0.087182893241
------------------------ !GEOMETRY! -------------------------
    Number of atoms:    17 
    Geometry Index:     6 
    Coordinates:
               0 C     -0.088194808769    0.090619281567   -0.148068596221
               1 C      0.703647051039    1.218185701758   -0.312552519468
               2 C      0.449191970319   -1.073978768940    0.397465735506
               3 C      2.053327326625    1.175001483429    0.073596647233
               4 C      2.597720355358    0.002014084955    0.624109141294
               5 C      1.788483407900   -1.113844701543    0.781415623370
               6 H      0.293406625006    2.129194315771   -0.735979649350
               7 C      2.881035220654    2.313026286188   -0.084706733219
               8 H     -1.131599796542    0.121636952798   -0.447040196506
               9 H     -0.177237476888   -1.951930684975    0.523904915892
              10 H      3.641683283764   -0.010286094276    0.919050042479
              11 H      2.206709119097   -2.021047341248    1.207030961150
              12 N      3.513416305216    3.271633401413   -0.255109824738
              13 O      4.281108713793    4.213526351456   -0.354377124701
              14 O      5.418797783282    1.966988373882    1.423950511119
              15 S      6.322177501250    3.054705535298    0.989443063211
              16 O      7.254927418894    2.731055822468   -0.104731997051
------------------------ !GEOMETRY! -------------------------
    Number of atoms:    17 
    Geometry Index:     7 
    Coordinates:
               0 C     -0.093923997235    0.092103082079   -0.152597002199
               1 C      0.705879452246    1.214587356856   -0.312987374140
               2 C      0.433650451138   -1.076738715023    0.393690046733
               3 C      2.054312725472    1.162953838615    0.077908553907
               4 C      2.587994801850   -0.014303987090    0.628894885414
               5 C      1.771355530931   -1.125455571896    0.782269349868
               6 H      0.303163551429    2.128712017088   -0.736941079767
               7 C      2.886935819505    2.297685252900   -0.077374088937
               8 H     -1.135940687052    0.130507275680   -0.455564276921
               9 H     -0.198864877408   -1.950765462323    0.516871158725
              10 H      3.630629366572   -0.037473073654    0.928057334804
              11 H      2.182403443831   -2.035656066165    1.208393505089
              12 N      3.514643142809    3.259440561019   -0.248971724787
              13 O      4.265983336211    4.212312852572   -0.358443374175
              14 O      5.473165026241    1.994232692191    1.441596021390
              15 S      6.355122741337    3.090085071104    0.986026986148
              16 O      7.272090172123    2.774272876047   -0.123428921153
------------------------ !GEOMETRY! -------------------------
    Number of atoms:    17 
    Geometry Index:     8 
    Coordinates:
               0 C     -0.098020358965    0.092736935845   -0.156335293953
               1 C      0.706851523111    1.211915243722   -0.313374154944
               2 C      0.423024107342   -1.078950818258    0.390224975046
               3 C      2.054218776239    1.154868371370    0.081409716215
               4 C      2.580809950822   -0.025150378346    0.632432253081
               5 C      1.759380757103   -1.133396062740    0.782438336081
               6 H      0.309124811935    2.128121814158   -0.737564885884
               7 C      2.889811558241    2.287712486444   -0.071899315202
               8 H     -1.139003420242    0.136007716868   -0.462233515138
               9 H     -0.213439965817   -1.950501902078    0.510631500450
              10 H      3.622249197001   -0.055607683271    0.935125487516
              11 H      2.165734504115   -2.045637393050    1.208654551224
              12 N      3.519320834603    3.248619307519   -0.241924051370
              13 O      4.260174426221    4.208174644323   -0.358871963289
              14 O      5.511554405493    2.018865100873    1.458180872545
              15 S      6.378837866291    3.118119860324    0.982158584674
              16 O      7.277971026507    2.800602756298   -0.141653097054
------------------------ !GEOMETRY! -------------------------
    Number of atoms:    17 
    Geometry Index:     9 
    Coordinates:
               0 C     -0.101898898082    0.092476308846   -0.160177344080
               1 C      0.706304245209    1.209482486732   -0.314196899124
               2 C      0.414578902086   -1.081158807440    0.386595034984
               3 C      2.052698442407    1.148795128433    0.083980460309
               4 C      2.574356301514   -0.032932957464    0.635187358336
               5 C      1.749665925679   -1.139340470035    0.782141373077
               6 H      0.312114118497    2.127105313440   -0.738640550470
               7 C      2.890009813754    2.280641260849   -0.068089684274
               8 H     -1.141991997324    0.138973854149   -0.468653521903
               9 H     -0.224541637405   -1.951121097218    0.504477388384
              10 H      3.614634897685   -0.068359571760    0.941269792371
              11 H      2.152795702084   -2.052942272819    1.208480894694
              12 N      3.528348609539    3.236537580196   -0.232188097282
              13 O      4.262588461125    4.200209034703   -0.354441711375
              14 O      5.544603454458    2.045846404744    1.478140372200
              15 S      6.399693922700    3.144029968549    0.977169330319
              16 O      7.274639736073    2.818257836094   -0.163654196166
------------------------ !GEOMETRY! -------------------------
    Number of atoms:    17 
    Geometry Index:     10 
    Coordinates:
               0 C     -0.104782179320    0.090939147211   -0.162879726429
               1 C      0.703435272642    1.207990805344   -0.315766635811
               2 C      0.411330996868   -1.082735443693    0.384143683154
               3 C      2.049346243662    1.147337870458    0.083978837474
               4 C      2.570689858056   -0.034219529882    0.635561178126
               5 C      1.745845848166   -1.140759402787    0.781268297662
               6 H      0.309637538428    2.125633647600   -0.740513760596
               7 C      2.886136517872    2.279646622457   -0.068289716765
               8 H     -1.144549752819    0.137357376958   -0.472454045664
               9 H     -0.227834630213   -1.952818467254    0.500945140841
              10 H      3.610444966581   -0.069897386902    0.943303795483
              11 H      2.148807852531   -2.054325254765    1.207854455202
              12 N      3.539860063446    3.226428956215   -0.222062948124
              13 O      4.275063826138    4.189541180425   -0.344579468288
              14 O      5.562239201776    2.067556033120    1.498010939829
              15 S      6.411690332187    3.158915417358    0.972616043695
              16 O      7.261238044002    2.819908428138   -0.183736069788
------------------------ !GEOMETRY! -------------------------
    Number of atoms:    17 
    Geometry Index:     11 
    Coordinates:
               0 C     -0.105969800639    0.088432731873   -0.162782799880
               1 C      0.698410865726    1.208064289219   -0.317554196704
               2 C      0.414954466075   -1.083060527428    0.384236538611
               3 C      2.044798837043    1.151707645140    0.080411615898
               4 C      2.571428893528   -0.027672092260    0.632108744113
               5 C      1.750189111924   -1.136566394899    0.779578237838
               6 H      0.301018865238    2.124169839663   -0.742251001226
               7 C      2.878569215183    2.286045286322   -0.073258548886
               8 H     -1.146352955301    0.131050518148   -0.470761418638
               9 H     -0.221194689051   -1.955156447359    0.502476826127
              10 H      3.611814144927   -0.058326680199    0.938224814596
              11 H      2.156726843104   -2.048530647356    1.206255172646
              12 N      3.548521688686    3.222614653660   -0.216815114720
              13 O      4.292843586807    4.179824463112   -0.334349358742
              14 O      5.557550057353    2.075154959000    1.512372119967
              15 S      6.410785121478    3.155952248998    0.971593312363
              16 O      7.244505747916    2.802796154365   -0.192084943363
------------------------ !GEOMETRY! -------------------------
    Number of atoms:    17 
    Geometry Index:     12 
    Coordinates:
               0 C     -0.105703585419    0.085663618994   -0.161277527486
               1 C      0.692922419159    1.209206944542   -0.318642429644
               2 C      0.422287733303   -1.082715876776    0.385494506025
               3 C      2.040171659078    1.159183867661    0.076208398820
               4 C      2.574382714676   -0.017199502879    0.627808645235
               5 C      1.758718529358   -1.129640212255    0.777946425323
               6 H      0.290179606509    2.123063639962   -0.743089658206
               7 C      2.870075175764    2.296100100467   -0.078526598913
               8 H     -1.146982100009    0.122734478340   -0.466899905782
               9 H     -0.209328006660   -1.957797077152    0.505945119025
              10 H      3.615845805354   -0.040583142256    0.931107082200
              11 H      2.170418653900   -2.039324216503    1.204553459047
              12 N      3.550880673217    3.225297707266   -0.216841959313
              13 O      4.306686332045    4.174510967494   -0.328410618214
              14 O      5.541464697940    2.070035082256    1.518993421864
              15 S      6.403532300165    3.141103608510    0.973096090493
              16 O      7.233047391620    2.776860012328   -0.190064450476
------------------------ !GEOMETRY! -------------------------
    Number of atoms:    17 
    Geometry Index:     13 
    Coordinates:
               0 C     -0.105176001215    0.083644625472   -0.160278796973
               1 C      0.689212332354    1.210090628875   -0.319224943334
               2 C      0.427793460081   -1.082478603277    0.386380397950
               3 C      2.036983315387    1.164811579671    0.073695046121
               4 C      2.576409704958   -0.009378700873    0.625439283253
               5 C      1.764988856772   -1.124552651636    0.777153607315
               6 H      0.282633095406    2.122323220153   -0.743496080726
               7 C      2.864401661486    2.303433454940   -0.081029518242
               8 H     -1.146994733486    0.116682936143   -0.464492169062
               9 H     -0.200474904816   -1.959771245595    0.508234359491
              10 H      3.618515072779   -0.027560370039    0.927145404885
              11 H      2.180295816328   -2.032585576711    1.203796664380
              12 N      3.548984028377    3.229862621124   -0.218668141298
              13 O      4.311925991542    4.173794106081   -0.326703838757
              14 O      5.530429569788    2.061796293613    1.520206654311
              15 S      6.398738835658    3.127970951627    0.974710401091
              16 O      7.229933898602    2.758416730432   -0.185468330403
------------------------ !GEOMETRY! -------------------------
    Number of atoms:    17 
    Geometry Index:     14 
    Coordinates:
               0 C     -0.105094924061    0.082359704673   -0.160667223375
               1 C      0.687330316838    1.210203444128   -0.319887241436
               2 C      0.429842011414   -1.082647040801    0.386388675984
               3 C      2.035071391393    1.167344113527    0.073063831176
               4 C      2.576513532304   -0.005780387983    0.625377978411
               5 C      1.767126432295   -1.122339003689    0.777338597151
               6 H      0.279192227689    2.121602923759   -0.744455039382
               7 C      2.861625161833    2.306623085771   -0.081177503775
               8 H     -1.146946300802    0.113457948324   -0.464968132023
               9 H     -0.196871460319   -1.961016393443    0.508499504629
              10 H      3.618667410410   -0.021644008726    0.927178116371
              11 H      2.183846603814   -2.029563162425    1.204322872569
              12 N      3.546868349881    3.232615628906   -0.218716945134
              13 O      4.312195885240    4.174727986812   -0.325209713193
              14 O      5.529635514446    2.057222982052    1.520564476562
              15 S      6.399163448989    3.122199202530    0.974683592878
              16 O      7.230434398634    2.751132976586   -0.184935847413
------------------------ !GEOMETRY! -------------------------
    Number of atoms:    17 
    Geometry Index:     15 
    Coordinates:
               0 C     -0.105237284706    0.081302096452   -0.162096446924
               1 C      0.686305728048    1.209845968206   -0.320883359673
               2 C      0.430165823040   -1.083062422748    0.385814533275
               3 C      2.033640049809    1.168405147961    0.073430951805
               4 C      2.575544431660   -0.004145389997    0.626689460492
               5 C      1.767118233516   -1.121450047854    0.778153297867
               6 H      0.277747216118    2.120731101014   -0.746157412043
               7 C      2.859964154810    2.307961043029   -0.080077044271
               8 H     -1.146809709171    0.111381062990   -0.467454498959
               9 H     -0.195840939720   -1.961990907017    0.507533554357
              10 H      3.617399665823   -0.018997580427    0.929587302360
              11 H      2.184161708209   -2.028215719734    1.205786188576
              12 N      3.545369281971    3.234008676201   -0.216788395023
              13 O      4.311076035992    4.175865348895   -0.322296372249
              14 O      5.534504140084    2.055353932635    1.521360060639
              15 S      6.402394260088    3.120434370285    0.973087905928
              16 O      7.231097204428    2.749073320108   -0.188289726158
