3
Coordinates from ORCA-job orca E -548.542565634080
  S       0.000000     -0.000000      0.464422
  O       0.000000      1.351922     -0.413795
  O       0.000000     -1.351922     -0.413795
3
Coordinates from ORCA-job orca E -548.566409886599
  S       0.000000     -0.000000      0.431514
  O       0.000000      1.292236     -0.397341
  O       0.000000     -1.292235     -0.397341
3
Coordinates from ORCA-job orca E -548.571585524819
  S       0.000000      0.000001      0.379810
  O       0.000000      1.225613     -0.371489
  O       0.000000     -1.225614     -0.371489
3
Coordinates from ORCA-job orca E -548.574092635306
  S       0.000000      0.000000      0.394210
  O       0.000000      1.259415     -0.378689
  O       0.000000     -1.259415     -0.378689
3
Coordinates from ORCA-job orca E -548.574189019941
  S       0.000000      0.000000      0.389933
  O       0.000000      1.256365     -0.376550
  O       0.000000     -1.256365     -0.376550
3
Coordinates from ORCA-job orca E -548.574190545848
  S       0.000000     -0.000000      0.389055
  O       0.000000      1.256272     -0.376112
  O       0.000000     -1.256272     -0.376112
3
Coordinates from ORCA-job orca E -548.574190555528
  S       0.000000     -0.000001      0.388987
  O       0.000000      1.256359     -0.376078
  O       0.000000     -1.256359     -0.376078
