 $CONTRL SCFTYP=rhf RUNTYP=hessian d5=.t.
! dfttyp=pbe0
 mplevl=2
 maxit=100 icut=20 inttyp=hondo itol=30 gencon=.f. wide=1                                
 mult=1 icharg=0 exetyp=run fstint=.t. nzvar=0 $END                            
 $SYSTEM TIMLIM=100000 mwords=360 nojac=1  $END                                  
 $system mxbcst=-1 $end                                                         
 $p2p p2p=.t. dlb=.t. $end                                                      
 $smp                                                                           
  mkl64=21 smppar=1 mklnp=18 np=36 httnp=1 dianp=1                              
  pts=0x101                                                                     
 $end                                                                           
 $mpi mxgsum=0x40000 mnpdot=1d9 $end                                            
 $MOORTH nostf=1 nozero=1 syms=1 symden=1 symvec=1 tole=0 tolz=0 $end           
 $BASIS GBASIS=apvtzs extfil=.t. $END                                          
 $GUESS GUESS=huckel                                                            
 $END                                                                           
! $RIMP2 AUXBAS=cc-pvdz/C VERBOSE=.T. $END
 $MP2 method=1 $END
 $MP2GRD dblbf=0 fused=0 asysnc=1 tol1=1d-12 tol2=1d-12 $END
 $FORCE NVIB=2 VIBSIZ=0.005 $END
 $trans mptran=2 dirtrf=.t. mode=112 cuttrf=1d-20 $end
 $DATA
 C7NH5SO3
C1
CARBON      6.0  -2.4085355398  -0.4393242276   0.1460522300
CARBON      6.0  -1.4218261235   0.5086527892  -0.0967364506
CARBON      6.0  -2.0557578899  -1.7655938541   0.4013082995
CARBON      6.0  -0.0848204000   0.1064214609  -0.0523921904
CARBON      6.0   0.2839886340  -1.2235770857   0.1670611659
CARBON      6.0  -0.7155366430  -2.1575734881   0.4088875823
HYDROGEN    1.0  -1.6651513298   1.5392426357  -0.3131490958
CARBON      6.0   1.0249400271   1.1836734598  -0.0505210062
HYDROGEN    1.0  -3.4497251445  -0.1501100248   0.1247737875
HYDROGEN    1.0  -2.8287571973  -2.4992126921   0.5837374691
HYDROGEN    1.0   1.3292591283  -1.4993229902   0.1526910677
HYDROGEN    1.0  -0.4541603752  -3.1905049047   0.5903203982
NITROGEN    7.0   1.0897811770   1.1001969492  -1.2985360597
OXYGEN      8.0   2.4046384140   2.4636006987  -1.4964802624
OXYGEN      8.0   1.5648696450   1.7821791245   0.9135760686
SULFUR     16.0   3.1862871038   2.6320412889  -0.2116957597
OXYGEN      8.0   4.2005065139   1.6092108614   0.0311027571
 $END
