17
Coordinates from ORCA-job Intermediate_scan/Intermediate_scan
  C   0.62627698608899      0.62409598382395      0.15593924175349
  C   1.64864324451554      0.84503774441688     -0.80914023283638
  C   0.70324895116251     -0.46669973299870      0.98191325742492
  C   2.78430899799154     -0.10682344123147     -0.89156759744179
  C   2.85077455633344     -1.12852633438743      0.07472798278119
  C   1.78627726728407     -1.37212324239684      0.90848809804716
  H   1.39771215441917      1.47144420482899     -1.65200030337773
  C   3.17126359187691      1.38027470536674     -0.60470541635906
  H   -0.22817509690326      1.28903717346000      0.20324546945296
  H   -0.08364881140333     -0.65047067751057      1.70438119589472
  H   3.75338769076197     -1.72540297880274      0.14914048009122
  H   1.80686104139430     -2.22102358004024      1.58245718241046
  N   3.63974157948083      2.26772905461943     -1.44797063965120
  O   3.94941717686769      3.42792904770147     -0.67197996807427
  O   3.40807015353180      1.68610410765708      0.73742881061703
  S   4.40694303239390      2.99406136287639      0.83057804094959
  O   5.75329948420370      2.48235560261700      0.81976539831763
