-------------------------------------------------------------
----------------------- !PROPERTIES! ------------------------
-------------------------------------------------------------
# -----------------------------------------------------------
$ PAL_Flags
   description: The PAL Flags
   geom. index: 1
   prop. index: 1
        Diskflag:     2
# -----------------------------------------------------------
$ SCF_Energy
   description: The SCF energy
   geom. index: 1
   prop. index: 1
        SCF Energy:     -400.0030216267
# -----------------------------------------------------------
$ DFT_Energy
   description: The DFT energy
   geom. index: 1
   prop. index: 1
   Number of Alpha Electrons                 31.0000169741 
   Number of Beta  Electrons                 31.0000169741 
   Total number of  Electrons                62.0000339481 
   Exchange energy                          -35.9355534921 
   Correlation energy                        -2.5990955343 
   Correlation energy NL                      0.0000000000 
   Exchange-Correlation energy              -38.5346490264 
   Embedding correction                       0.0000000000 
   Total DFT Energy (No VdW correction)    -400.0030216267 
# -----------------------------------------------------------
$ Solvation_Details
   description: Details concerning solvation
   geom. index: 1
   prop. index: 1
     Epsilon:                2.4000000000
     Refrac:                 1.4970000000
     RSolv:                  1.3000000000
     Surface Type:                      2
     Number of Points:                846
     Surface Area:         582.9300030298
     Dielectric Energy:     -0.0043561418
# -----------------------------------------------------------
$ Mayer_Pop
   description: The Mayer population analysis
   geom. index: 1
   prop. index: 1
     Number of atoms                     : 14
     Threshold for printing              : 0.1000000
     Number of bond orders printed       : 18
  NA   - Mulliken gross atomic population
  ZA   - Total nuclear charge
  QA   - Mulliken gross atomic charge
  VA   - Mayer's total valence
  BVA  - Mayer's bonded valence
  FA   - Mayer's free valence
  ATOM       NA         ZA         QA         VA         BVA        FA
  0   0     6.0658     6.0000    -0.0658     3.3420     3.3420     0.0000
  1   0     6.0929     6.0000    -0.0929     3.4384     3.4384    -0.0000
  2   0     6.1583     6.0000    -0.1583     3.3309     3.3309     0.0000
  3   0     5.7316     6.0000     0.2684     3.0350     3.0350    -0.0000
  4   0     5.9895     6.0000     0.0105     3.5105     3.5105     0.0000
  5   0     6.1299     6.0000    -0.1299     3.4242     3.4242     0.0000
  6   0     0.9407     1.0000     0.0593     0.9513     0.9513    -0.0000
  7   0     5.5896     6.0000     0.4104     3.9425     3.9425    -0.0000
  8   0     0.9451     1.0000     0.0549     0.9467     0.9467     0.0000
  9   0     0.9213     1.0000     0.0787     0.9364     0.9364     0.0000
 10   0     0.9990     1.0000     0.0010     0.9777     0.9777     0.0000
 11   0     0.9386     1.0000     0.0614     0.9386     0.9386    -0.0000
 12   0     7.0674     7.0000    -0.0674     3.4204     3.4204    -0.0000
 13   0     8.4302     8.0000    -0.4302     2.0459     2.0459    -0.0000
      Bond orders larger than 0.1000000
           Atom A     A.N. of A          Atom B    A.N. of B              Bond order
                0             6               1            6                1.253024
                0             6               2            6                1.224455
                0             6               8            1                1.104010
                1             6               3            6                1.189931
                1             6               6            1                1.056826
                1             6              12            7               -0.138279
                2             6               5            6                1.248624
                2             6               9            1                1.069633
                3             6               4            6                1.153181
                3             6               7            6               -0.103295
                3             6              10            1               -0.125629
                3             6              12            7                1.029253
                4             6               5            6                1.245358
                4             6              10            1                1.127415
                5             6              11            1                1.081621
                7             6              12            7                2.243828
                7             6              13            8                1.709443
               12             7              13            8                0.273904
# -----------------------------------------------------------
$ VdW_Correction
   description: The Van der Waals Correction
   geom. index: 1
   prop. index: 1
        Van der Waals Correction:       -0.0287854649
# -----------------------------------------------------------
$ PAL_Flags
   description: The PAL Flags
   geom. index: 2
   prop. index: 1
        Diskflag:     2
# -----------------------------------------------------------
$ SCF_Energy
   description: The SCF energy
   geom. index: 2
   prop. index: 1
        SCF Energy:     -400.0055431725
# -----------------------------------------------------------
$ DFT_Energy
   description: The DFT energy
   geom. index: 2
   prop. index: 1
   Number of Alpha Electrons                 31.0000155324 
   Number of Beta  Electrons                 31.0000155324 
   Total number of  Electrons                62.0000310647 
   Exchange energy                          -35.9877485113 
   Correlation energy                        -2.6031800872 
   Correlation energy NL                      0.0000000000 
   Exchange-Correlation energy              -38.5909285985 
   Embedding correction                       0.0000000000 
   Total DFT Energy (No VdW correction)    -400.0055431725 
# -----------------------------------------------------------
$ Solvation_Details
   description: Details concerning solvation
   geom. index: 2
   prop. index: 1
     Epsilon:                2.4000000000
     Refrac:                 1.4970000000
     RSolv:                  1.3000000000
     Surface Type:                      2
     Number of Points:                847
     Surface Area:         579.1283852103
     Dielectric Energy:     -0.0041806863
# -----------------------------------------------------------
$ VdW_Correction
   description: The Van der Waals Correction
   geom. index: 2
   prop. index: 1
        Van der Waals Correction:       -0.0289867371
# -----------------------------------------------------------
$ PAL_Flags
   description: The PAL Flags
   geom. index: 3
   prop. index: 1
        Diskflag:     2
# -----------------------------------------------------------
$ SCF_Energy
   description: The SCF energy
   geom. index: 3
   prop. index: 1
        SCF Energy:     -400.0056787721
# -----------------------------------------------------------
$ DFT_Energy
   description: The DFT energy
   geom. index: 3
   prop. index: 1
   Number of Alpha Electrons                 31.0000126968 
   Number of Beta  Electrons                 31.0000126968 
   Total number of  Electrons                62.0000253935 
   Exchange energy                          -35.9951391588 
   Correlation energy                        -2.6037690717 
   Correlation energy NL                      0.0000000000 
   Exchange-Correlation energy              -38.5989082305 
   Embedding correction                       0.0000000000 
   Total DFT Energy (No VdW correction)    -400.0056787721 
# -----------------------------------------------------------
$ Solvation_Details
   description: Details concerning solvation
   geom. index: 3
   prop. index: 1
     Epsilon:                2.4000000000
     Refrac:                 1.4970000000
     RSolv:                  1.3000000000
     Surface Type:                      2
     Number of Points:                848
     Surface Area:         578.4763332210
     Dielectric Energy:     -0.0041034029
# -----------------------------------------------------------
$ VdW_Correction
   description: The Van der Waals Correction
   geom. index: 3
   prop. index: 1
        Van der Waals Correction:       -0.0290257597
# -----------------------------------------------------------
$ PAL_Flags
   description: The PAL Flags
   geom. index: 4
   prop. index: 1
        Diskflag:     2
# -----------------------------------------------------------
$ SCF_Energy
   description: The SCF energy
   geom. index: 4
   prop. index: 1
        SCF Energy:     -400.0057849851
# -----------------------------------------------------------
$ DFT_Energy
   description: The DFT energy
   geom. index: 4
   prop. index: 1
   Number of Alpha Electrons                 31.0000077386 
   Number of Beta  Electrons                 31.0000077386 
   Total number of  Electrons                62.0000154772 
   Exchange energy                          -35.9969122177 
   Correlation energy                        -2.6039065718 
   Correlation energy NL                      0.0000000000 
   Exchange-Correlation energy              -38.6008187894 
   Embedding correction                       0.0000000000 
   Total DFT Energy (No VdW correction)    -400.0057849851 
# -----------------------------------------------------------
$ Solvation_Details
   description: Details concerning solvation
   geom. index: 4
   prop. index: 1
     Epsilon:                2.4000000000
     Refrac:                 1.4970000000
     RSolv:                  1.3000000000
     Surface Type:                      2
     Number of Points:                845
     Surface Area:         578.0325123197
     Dielectric Energy:     -0.0040530329
# -----------------------------------------------------------
$ VdW_Correction
   description: The Van der Waals Correction
   geom. index: 4
   prop. index: 1
        Van der Waals Correction:       -0.0290582782
# -----------------------------------------------------------
$ PAL_Flags
   description: The PAL Flags
   geom. index: 5
   prop. index: 1
        Diskflag:     2
# -----------------------------------------------------------
$ SCF_Energy
   description: The SCF energy
   geom. index: 5
   prop. index: 1
        SCF Energy:     -400.0059959665
# -----------------------------------------------------------
$ DFT_Energy
   description: The DFT energy
   geom. index: 5
   prop. index: 1
   Number of Alpha Electrons                 30.9999922134 
   Number of Beta  Electrons                 30.9999922134 
   Total number of  Electrons                61.9999844268 
   Exchange energy                          -35.9969945956 
   Correlation energy                        -2.6039029909 
   Correlation energy NL                      0.0000000000 
   Exchange-Correlation energy              -38.6008975865 
   Embedding correction                       0.0000000000 
   Total DFT Energy (No VdW correction)    -400.0059959665 
# -----------------------------------------------------------
$ Solvation_Details
   description: Details concerning solvation
   geom. index: 5
   prop. index: 1
     Epsilon:                2.4000000000
     Refrac:                 1.4970000000
     RSolv:                  1.3000000000
     Surface Type:                      2
     Number of Points:                841
     Surface Area:         576.2617469610
     Dielectric Energy:     -0.0039552040
# -----------------------------------------------------------
$ VdW_Correction
   description: The Van der Waals Correction
   geom. index: 5
   prop. index: 1
        Van der Waals Correction:       -0.0291602362
# -----------------------------------------------------------
$ PAL_Flags
   description: The PAL Flags
   geom. index: 6
   prop. index: 1
        Diskflag:     2
# -----------------------------------------------------------
$ SCF_Energy
   description: The SCF energy
   geom. index: 6
   prop. index: 1
        SCF Energy:     -400.0060765725
# -----------------------------------------------------------
$ DFT_Energy
   description: The DFT energy
   geom. index: 6
   prop. index: 1
   Number of Alpha Electrons                 30.9999823914 
   Number of Beta  Electrons                 30.9999823914 
   Total number of  Electrons                61.9999647828 
   Exchange energy                          -35.9931634235 
   Correlation energy                        -2.6036099373 
   Correlation energy NL                      0.0000000000 
   Exchange-Correlation energy              -38.5967733608 
   Embedding correction                       0.0000000000 
   Total DFT Energy (No VdW correction)    -400.0060765725 
# -----------------------------------------------------------
$ Solvation_Details
   description: Details concerning solvation
   geom. index: 6
   prop. index: 1
     Epsilon:                2.4000000000
     Refrac:                 1.4970000000
     RSolv:                  1.3000000000
     Surface Type:                      2
     Number of Points:                838
     Surface Area:         574.4186291263
     Dielectric Energy:     -0.0038992088
# -----------------------------------------------------------
$ VdW_Correction
   description: The Van der Waals Correction
   geom. index: 6
   prop. index: 1
        Van der Waals Correction:       -0.0292476075
# -----------------------------------------------------------
$ PAL_Flags
   description: The PAL Flags
   geom. index: 7
   prop. index: 1
        Diskflag:     2
# -----------------------------------------------------------
$ SCF_Energy
   description: The SCF energy
   geom. index: 7
   prop. index: 1
        SCF Energy:     -400.0061513720
# -----------------------------------------------------------
$ DFT_Energy
   description: The DFT energy
   geom. index: 7
   prop. index: 1
   Number of Alpha Electrons                 30.9999821264 
   Number of Beta  Electrons                 30.9999821264 
   Total number of  Electrons                61.9999642528 
   Exchange energy                          -35.9890432697 
   Correlation energy                        -2.6032783888 
   Correlation energy NL                      0.0000000000 
   Exchange-Correlation energy              -38.5923216585 
   Embedding correction                       0.0000000000 
   Total DFT Energy (No VdW correction)    -400.0061513720 
# -----------------------------------------------------------
$ Solvation_Details
   description: Details concerning solvation
   geom. index: 7
   prop. index: 1
     Epsilon:                2.4000000000
     Refrac:                 1.4970000000
     RSolv:                  1.3000000000
     Surface Type:                      2
     Number of Points:                837
     Surface Area:         574.4834256043
     Dielectric Energy:     -0.0039101040
# -----------------------------------------------------------
$ VdW_Correction
   description: The Van der Waals Correction
   geom. index: 7
   prop. index: 1
        Van der Waals Correction:       -0.0292452424
# -----------------------------------------------------------
$ PAL_Flags
   description: The PAL Flags
   geom. index: 8
   prop. index: 1
        Diskflag:     2
# -----------------------------------------------------------
$ SCF_Energy
   description: The SCF energy
   geom. index: 8
   prop. index: 1
        SCF Energy:     -400.0061964278
# -----------------------------------------------------------
$ DFT_Energy
   description: The DFT energy
   geom. index: 8
   prop. index: 1
   Number of Alpha Electrons                 30.9999837821 
   Number of Beta  Electrons                 30.9999837821 
   Total number of  Electrons                61.9999675641 
   Exchange energy                          -35.9872657715 
   Correlation energy                        -2.6031314767 
   Correlation energy NL                      0.0000000000 
   Exchange-Correlation energy              -38.5903972482 
   Embedding correction                       0.0000000000 
   Total DFT Energy (No VdW correction)    -400.0061964278 
# -----------------------------------------------------------
$ Solvation_Details
   description: Details concerning solvation
   geom. index: 8
   prop. index: 1
     Epsilon:                2.4000000000
     Refrac:                 1.4970000000
     RSolv:                  1.3000000000
     Surface Type:                      2
     Number of Points:                837
     Surface Area:         574.7924231612
     Dielectric Energy:     -0.0039279006
# -----------------------------------------------------------
$ VdW_Correction
   description: The Van der Waals Correction
   geom. index: 8
   prop. index: 1
        Van der Waals Correction:       -0.0292295644
# -----------------------------------------------------------
$ PAL_Flags
   description: The PAL Flags
   geom. index: 9
   prop. index: 1
        Diskflag:     2
# -----------------------------------------------------------
$ SCF_Energy
   description: The SCF energy
   geom. index: 9
   prop. index: 1
        SCF Energy:     -400.0061991138
# -----------------------------------------------------------
$ DFT_Energy
   description: The DFT energy
   geom. index: 9
   prop. index: 1
   Number of Alpha Electrons                 30.9999841245 
   Number of Beta  Electrons                 30.9999841245 
   Total number of  Electrons                61.9999682489 
   Exchange energy                          -35.9877496948 
   Correlation energy                        -2.6031729157 
   Correlation energy NL                      0.0000000000 
   Exchange-Correlation energy              -38.5909226105 
   Embedding correction                       0.0000000000 
   Total DFT Energy (No VdW correction)    -400.0061991138 
# -----------------------------------------------------------
$ Solvation_Details
   description: Details concerning solvation
   geom. index: 9
   prop. index: 1
     Epsilon:                2.4000000000
     Refrac:                 1.4970000000
     RSolv:                  1.3000000000
     Surface Type:                      2
     Number of Points:                837
     Surface Area:         574.7515948558
     Dielectric Energy:     -0.0039261182
# -----------------------------------------------------------
$ VdW_Correction
   description: The Van der Waals Correction
   geom. index: 9
   prop. index: 1
        Van der Waals Correction:       -0.0292311616
# -----------------------------------------------------------
$ PAL_Flags
   description: The PAL Flags
   geom. index: 10
   prop. index: 1
        Diskflag:     2
# -----------------------------------------------------------
$ SCF_Energy
   description: The SCF energy
   geom. index: 10
   prop. index: 1
        SCF Energy:     -400.0061985765
# -----------------------------------------------------------
$ DFT_Energy
   description: The DFT energy
   geom. index: 10
   prop. index: 1
   Number of Alpha Electrons                 30.9999842663 
   Number of Beta  Electrons                 30.9999842663 
   Total number of  Electrons                61.9999685326 
   Exchange energy                          -35.9882809019 
   Correlation energy                        -2.6032173615 
   Correlation energy NL                      0.0000000000 
   Exchange-Correlation energy              -38.5914982633 
   Embedding correction                       0.0000000000 
   Total DFT Energy (No VdW correction)    -400.0061985765 
# -----------------------------------------------------------
$ Solvation_Details
   description: Details concerning solvation
   geom. index: 10
   prop. index: 1
     Epsilon:                2.4000000000
     Refrac:                 1.4970000000
     RSolv:                  1.3000000000
     Surface Type:                      2
     Number of Points:                837
     Surface Area:         574.7136332469
     Dielectric Energy:     -0.0039228790
# -----------------------------------------------------------
$ VdW_Correction
   description: The Van der Waals Correction
   geom. index: 10
   prop. index: 1
        Van der Waals Correction:       -0.0292327910
# -----------------------------------------------------------
$ PAL_Flags
   description: The PAL Flags
   geom. index: 11
   prop. index: 1
        Diskflag:     2
# -----------------------------------------------------------
$ SCF_Energy
   description: The SCF energy
   geom. index: 11
   prop. index: 1
        SCF Energy:     -400.0061981386
# -----------------------------------------------------------
$ DFT_Energy
   description: The DFT energy
   geom. index: 11
   prop. index: 1
   Number of Alpha Electrons                 30.9999842438 
   Number of Beta  Electrons                 30.9999842438 
   Total number of  Electrons                61.9999684877 
   Exchange energy                          -35.9883334326 
   Correlation energy                        -2.6032217174 
   Correlation energy NL                      0.0000000000 
   Exchange-Correlation energy              -38.5915551501 
   Embedding correction                       0.0000000000 
   Total DFT Energy (No VdW correction)    -400.0061981386 
# -----------------------------------------------------------
$ Solvation_Details
   description: Details concerning solvation
   geom. index: 11
   prop. index: 1
     Epsilon:                2.4000000000
     Refrac:                 1.4970000000
     RSolv:                  1.3000000000
     Surface Type:                      2
     Number of Points:                837
     Surface Area:         574.7047652457
     Dielectric Energy:     -0.0039220783
# -----------------------------------------------------------
$ Mayer_Pop
   description: The Mayer population analysis
   geom. index: 11
   prop. index: 1
     Number of atoms                     : 14
     Threshold for printing              : 0.1000000
     Number of bond orders printed       : 17
  NA   - Mulliken gross atomic population
  ZA   - Total nuclear charge
  QA   - Mulliken gross atomic charge
  VA   - Mayer's total valence
  BVA  - Mayer's bonded valence
  FA   - Mayer's free valence
  ATOM       NA         ZA         QA         VA         BVA        FA
  0   0     6.0084     6.0000    -0.0084     3.2719     3.2719    -0.0000
  1   0     6.0837     6.0000    -0.0837     3.3092     3.3092    -0.0000
  2   0     6.1849     6.0000    -0.1849     3.3328     3.3328    -0.0000
  3   0     5.6778     6.0000     0.3222     2.8916     2.8916    -0.0000
  4   0     6.0056     6.0000    -0.0056     3.5149     3.5149    -0.0000
  5   0     6.1429     6.0000    -0.1429     3.4770     3.4770    -0.0000
  6   0     0.9500     1.0000     0.0500     0.9472     0.9472     0.0000
  7   0     5.6051     6.0000     0.3949     3.8886     3.8886    -0.0000
  8   0     0.9463     1.0000     0.0537     0.9411     0.9411     0.0000
  9   0     0.9277     1.0000     0.0723     0.9375     0.9375    -0.0000
 10   0     1.0178     1.0000    -0.0178     0.9685     0.9685    -0.0000
 11   0     0.9400     1.0000     0.0600     0.9389     0.9389    -0.0000
 12   0     7.1491     7.0000    -0.1491     3.1939     3.1939    -0.0000
 13   0     8.3607     8.0000    -0.3607     2.1152     2.1152    -0.0000
      Bond orders larger than 0.1000000
           Atom A     A.N. of A          Atom B    A.N. of B              Bond order
                0             6               1            6                1.249004
                0             6               2            6                1.209435
                0             6               8            1                1.111013
                1             6               3            6                1.108303
                1             6               6            1                1.082795
                1             6              12            7               -0.226514
                2             6               5            6                1.257899
                2             6               9            1                1.080988
                3             6               4            6                1.159435
                3             6              10            1               -0.153685
                3             6              12            7                1.028437
                4             6               5            6                1.272136
                4             6              10            1                1.127458
                5             6              11            1                1.079482
                7             6              12            7                2.126294
                7             6              13            8                1.761783
               12             7              13            8                0.279805
# -----------------------------------------------------------
$ VdW_Correction
   description: The Van der Waals Correction
   geom. index: 11
   prop. index: 1
        Van der Waals Correction:       -0.0292332758
# -----------------------------------------------------------
$ SCF_Electric_Properties
   description: The SCF Calculated Electric Properties
   geom. index: 11
   prop. index: 1
       Filename                          : Product/Product.scfp 
       Do Dipole Moment Calculation      : true 
       Do Quadrupole Moment Calculation  : false 
       Do Polarizability Calculation     : false 
** Dipole moment part of electric properties **
        Magnitude of dipole moment (Debye) :        2.8157429731
        Electronic Contribution:
                  0    
      0       6.315728
      1       3.353891
      2      -1.651294
        Nuclear Contribution:
                  0    
      0      -7.261999
      1      -3.871477
      2       1.903968
        Total Dipole moment:
                  0    
      0      -0.946270
      1      -0.517586
      2       0.252674
# -----------------------------------------------------------
$ Hessian
   description: Details about the Hessian
   geom. index: 11
   prop. index: 1
Normal modes:
Number of Rows: 42 Number of Columns: 42
                  0          1          2          3          4          5    
      0       0.000000   0.000000   0.000000   0.000000   0.000000   0.000000
      1       0.000000   0.000000   0.000000   0.000000   0.000000   0.000000
      2       0.000000   0.000000   0.000000   0.000000   0.000000   0.000000
      3       0.000000   0.000000   0.000000   0.000000   0.000000   0.000000
      4       0.000000   0.000000   0.000000   0.000000   0.000000   0.000000
      5       0.000000   0.000000   0.000000   0.000000   0.000000   0.000000
      6       0.000000   0.000000   0.000000   0.000000   0.000000   0.000000
      7       0.000000   0.000000   0.000000   0.000000   0.000000   0.000000
      8       0.000000   0.000000   0.000000   0.000000   0.000000   0.000000
      9       0.000000   0.000000   0.000000   0.000000   0.000000   0.000000
     10       0.000000   0.000000   0.000000   0.000000   0.000000   0.000000
     11       0.000000   0.000000   0.000000   0.000000   0.000000   0.000000
     12       0.000000   0.000000   0.000000   0.000000   0.000000   0.000000
     13       0.000000   0.000000   0.000000   0.000000   0.000000   0.000000
     14       0.000000   0.000000   0.000000   0.000000   0.000000   0.000000
     15       0.000000   0.000000   0.000000   0.000000   0.000000   0.000000
     16       0.000000   0.000000   0.000000   0.000000   0.000000   0.000000
     17       0.000000   0.000000   0.000000   0.000000   0.000000   0.000000
     18       0.000000   0.000000   0.000000   0.000000   0.000000   0.000000
     19       0.000000   0.000000   0.000000   0.000000   0.000000   0.000000
     20       0.000000   0.000000   0.000000   0.000000   0.000000   0.000000
     21       0.000000   0.000000   0.000000   0.000000   0.000000   0.000000
     22       0.000000   0.000000   0.000000   0.000000   0.000000   0.000000
     23       0.000000   0.000000   0.000000   0.000000   0.000000   0.000000
     24       0.000000   0.000000   0.000000   0.000000   0.000000   0.000000
     25       0.000000   0.000000   0.000000   0.000000   0.000000   0.000000
     26       0.000000   0.000000   0.000000   0.000000   0.000000   0.000000
     27       0.000000   0.000000   0.000000   0.000000   0.000000   0.000000
     28       0.000000   0.000000   0.000000   0.000000   0.000000   0.000000
     29       0.000000   0.000000   0.000000   0.000000   0.000000   0.000000
     30       0.000000   0.000000   0.000000   0.000000   0.000000   0.000000
     31       0.000000   0.000000   0.000000   0.000000   0.000000   0.000000
     32       0.000000   0.000000   0.000000   0.000000   0.000000   0.000000
     33       0.000000   0.000000   0.000000   0.000000   0.000000   0.000000
     34       0.000000   0.000000   0.000000   0.000000   0.000000   0.000000
     35       0.000000   0.000000   0.000000   0.000000   0.000000   0.000000
     36       0.000000   0.000000   0.000000   0.000000   0.000000   0.000000
     37       0.000000   0.000000   0.000000   0.000000   0.000000   0.000000
     38       0.000000   0.000000   0.000000   0.000000   0.000000   0.000000
     39       0.000000   0.000000   0.000000   0.000000   0.000000   0.000000
     40       0.000000   0.000000   0.000000   0.000000   0.000000   0.000000
     41       0.000000   0.000000   0.000000   0.000000   0.000000   0.000000
                  6          7          8          9         10         11    
      0      -0.026284   0.002585   0.002227   0.141044   0.026632  -0.055361
      1      -0.048221   0.093875   0.004922   0.144803   0.047022  -0.143347
      2      -0.209767  -0.024793   0.021182  -0.053253   0.199291   0.042434
      3       0.002443   0.104805   0.033793   0.241356  -0.027013   0.047775
      4       0.001911  -0.042144   0.059592  -0.064400  -0.047548  -0.220802
      5       0.005420  -0.007972   0.256663  -0.017048  -0.204478   0.044378
      6      -0.025630  -0.156786  -0.035805   0.038854   0.000831  -0.284526
      7      -0.046913   0.077690  -0.061427   0.138172   0.001264  -0.155796
      8      -0.204054   0.005029  -0.263315  -0.037490   0.002826   0.073429
      9       0.029467   0.048021   0.019966   0.142443  -0.000352   0.174638
     10       0.049166  -0.185263   0.035211  -0.196562  -0.000912   0.024339
     11       0.209190   0.036166   0.152656   0.026468  -0.002185  -0.028758
     12       0.032801  -0.108586   0.033311   0.132894   0.027001  -0.108291
     13       0.055350  -0.201968   0.058938  -0.210957   0.046321  -0.049659
     14       0.235314   0.063574   0.254264   0.030833   0.198944   0.027828
     15       0.004824  -0.216674  -0.000916  -0.025062  -0.026512  -0.231124
     16       0.006599  -0.067330  -0.000237  -0.037901  -0.047069  -0.015882
     17       0.026011   0.048711  -0.000571   0.012767  -0.202085   0.033792
     18       0.002052   0.234728   0.043539   0.486593  -0.057034  -0.087285
     19       0.000797  -0.030757   0.076384  -0.043968  -0.101120  -0.231721
     20       0.000520  -0.030507   0.328379  -0.054421  -0.433937   0.064530
     21      -0.004825   0.108592  -0.012809  -0.198751  -0.000197   0.150351
     22      -0.004171   0.061173  -0.025062   0.103847  -0.000174   0.328362
     23      -0.015474  -0.029708  -0.104042   0.003301   0.002238  -0.094852
     24      -0.049353   0.051847  -0.004920   0.190304   0.059074   0.029520
     25      -0.088743   0.210219  -0.007568   0.257276   0.104017   0.060715
     26      -0.383895  -0.060701  -0.033658  -0.086680   0.444089  -0.014463
     27      -0.048147  -0.233856  -0.081328  -0.029147   0.001965  -0.298387
     28      -0.086159   0.177408  -0.141130   0.226004   0.003232  -0.140218
     29      -0.372739  -0.006021  -0.605243  -0.048720   0.011326   0.070684
     30       0.056707  -0.154024   0.043163   0.087837   0.058862  -0.209852
     31       0.097507  -0.309902   0.076267  -0.325116   0.102600  -0.306567
     32       0.415453   0.096218   0.328901   0.063959   0.438221   0.103587
     33       0.006473  -0.345614  -0.011107  -0.222755  -0.058630  -0.148301
     34       0.010022  -0.081440  -0.017503  -0.060878  -0.102668  -0.009159
     35       0.040828   0.072308  -0.073998   0.045484  -0.439136   0.020466
     36       0.055188   0.110615  -0.045150  -0.194363   0.000396   0.101962
     37       0.091801  -0.289173  -0.076973   0.165056   0.000619   0.381155
     38       0.393776   0.054969  -0.326302  -0.016453   0.005472  -0.100837
     39      -0.055890   0.095006   0.010346  -0.217077  -0.000906   0.185866
     40      -0.086478   0.453510   0.014236  -0.055526  -0.000101  -0.119438
     41      -0.360872  -0.120939   0.051317   0.045310  -0.001996  -0.000902
                 12         13         14         15         16         17    
      0       0.016924  -0.003747   0.357901  -0.159080   0.019883  -0.002314
      1       0.029517  -0.007581  -0.043951   0.099465   0.034752  -0.002222
      2       0.125664  -0.031654  -0.037085  -0.002236   0.149302  -0.011331
      3       0.000675   0.002907   0.077430  -0.153827  -0.011852  -0.010759
      4       0.001220   0.004293   0.286078   0.086390  -0.021037  -0.016735
      5       0.004320   0.018186  -0.077291   0.001081  -0.089731  -0.074361
      6      -0.024193   0.005263   0.075239   0.149662  -0.013133  -0.013828
      7      -0.042958   0.009392  -0.111456   0.113912  -0.023005  -0.025026
      8      -0.185017   0.041464   0.015914  -0.045977  -0.098765  -0.109086
      9      -0.040571   0.004144  -0.071798  -0.166655   0.014909   0.022567
     10      -0.070670   0.007247   0.108166  -0.119735   0.025935   0.039969
     11      -0.301519   0.031559  -0.015696   0.050914   0.110755   0.171951
     12       0.000516   0.002632  -0.308711   0.074677  -0.011106  -0.010512
     13       0.000712   0.005199   0.012674  -0.109363  -0.019434  -0.019610
     14       0.002875   0.023248   0.038739   0.016362  -0.083644  -0.079896
     15       0.017083  -0.004306  -0.062338   0.087824   0.019869  -0.001658
     16       0.029563  -0.007723  -0.342115  -0.081407   0.035114  -0.004302
     17       0.126541  -0.029679   0.088118   0.006710   0.148999  -0.013144
     18       0.046870   0.003227  -0.083780   0.012873  -0.067547   0.011448
     19       0.081793   0.005067   0.269965   0.102469  -0.118317   0.021347
     20       0.348841   0.021536  -0.053023  -0.026280  -0.505719   0.088060
     21      -0.000458  -0.123355  -0.020488  -0.001335  -0.002267  -0.001610
     22       0.000808  -0.187498   0.085423   0.672923  -0.003044  -0.003615
     23       0.000403  -0.840372  -0.015878  -0.149905  -0.014241  -0.014188
     24       0.063346  -0.011662   0.304523  -0.244900  -0.006458   0.067957
     25       0.111040  -0.021450  -0.172962  -0.101570  -0.011513   0.120964
     26       0.476287  -0.091813  -0.000251   0.053810  -0.049894   0.523405
     27      -0.032325   0.008393  -0.194740   0.189055  -0.075005   0.071805
     28      -0.057146   0.016392   0.234991   0.061464  -0.131938   0.125629
     29      -0.246003   0.068725  -0.030234  -0.040764  -0.565009   0.535964
     30       0.047434   0.004208  -0.252690   0.150481  -0.068913   0.016241
     31       0.083655   0.008175   0.147588   0.086210  -0.121434   0.027640
     32       0.355085   0.031883  -0.001615  -0.040503  -0.519053   0.120469
     33       0.064069  -0.011436   0.093391  -0.111796  -0.007836   0.070822
     34       0.112687  -0.020222  -0.325802  -0.104193  -0.014046   0.125812
     35       0.481657  -0.082973   0.062354   0.035441  -0.061029   0.543569
     36       0.012711   0.042979  -0.010701   0.030503   0.001660  -0.003339
     37       0.020645   0.067168   0.024870  -0.295830   0.002381  -0.004787
     38       0.091154   0.297330  -0.005491   0.062214   0.011767  -0.024486
     39      -0.000521   0.050263  -0.017694   0.100240   0.000532   0.001510
     40      -0.000100   0.074586  -0.027572  -0.240924   0.000961   0.001321
     41       0.001206   0.334022   0.008629   0.039063   0.004753   0.004945
                 18         19         20         21         22         23    
      0      -0.233972  -0.008544   0.001015   0.011464   0.071609  -0.011606
      1       0.124498  -0.014966   0.001535   0.021296  -0.044973  -0.021011
      2       0.002636  -0.064478   0.006959   0.089795   0.004014  -0.088824
      3      -0.189153  -0.010025  -0.014006  -0.010130  -0.076673   0.004902
      4       0.102576  -0.017807  -0.024243  -0.020539   0.382813   0.009681
      5       0.001944  -0.075587  -0.104948  -0.079210  -0.081218   0.037707
      6       0.172029  -0.000656   0.011502   0.002338  -0.278013   0.012926
      7       0.128583  -0.001305   0.020387   0.002889  -0.202961   0.023310
      8      -0.051380  -0.005498   0.088223   0.007970   0.083290   0.101193
      9      -0.101068  -0.000042   0.010267   0.000535  -0.038333  -0.000355
     10      -0.068848  -0.000418   0.018013   0.000672  -0.022918  -0.000576
     11       0.027385  -0.001063   0.076450   0.002476   0.010108  -0.002237
     12       0.045268   0.011000  -0.013555   0.008422   0.356723   0.004612
     13      -0.226971   0.019646  -0.024166   0.018874  -0.182416   0.006369
     14       0.048135   0.083257  -0.103167   0.076438  -0.002892   0.029221
     15       0.038996   0.007922   0.002595  -0.012937  -0.021471  -0.010548
     16      -0.298555   0.014137   0.004689  -0.023746   0.079710  -0.018104
     17       0.065330   0.060003   0.019641  -0.099132  -0.017210  -0.078875
     18      -0.027288   0.068378   0.074657   0.057897  -0.169811  -0.032392
     19       0.124483   0.119060   0.131582   0.097450   0.394146  -0.055253
     20      -0.025692   0.509679   0.561708   0.425527  -0.057729  -0.240127
     21       0.112449  -0.000095  -0.000637  -0.000017  -0.000562   0.000005
     22      -0.173119  -0.000025  -0.000960   0.000082  -0.007599   0.000024
     23       0.022918  -0.000287  -0.004281   0.000040   0.001793   0.000121
     24      -0.368998   0.058336  -0.003012  -0.065878   0.030321   0.068691
     25      -0.183881   0.102561  -0.005540  -0.114511  -0.107112   0.119906
     26       0.084132   0.439770  -0.023230  -0.496888   0.003946   0.519997
     27       0.143118   0.005036  -0.070672  -0.004866  -0.287854  -0.076546
     28       0.155638   0.008413  -0.123515  -0.009788  -0.209585  -0.133405
     29      -0.066035   0.036647  -0.529057  -0.046524   0.092825  -0.571002
     30       0.100173  -0.071682   0.071411  -0.055510   0.332600  -0.024797
     31      -0.116508  -0.126184   0.125636  -0.093465  -0.285356  -0.045729
     32       0.011288  -0.540790   0.539115  -0.408992   0.012094  -0.191081
     33      -0.319138  -0.053909  -0.012846   0.074066  -0.084930   0.060905
     34      -0.346367  -0.095067  -0.023315   0.129054   0.061207   0.108974
     35       0.114518  -0.406494  -0.100260   0.553039   0.004577   0.464431
     36       0.011512   0.000049  -0.002231  -0.000033  -0.003050   0.000407
     37       0.307622   0.000097  -0.003887  -0.000143   0.006895   0.000695
     38      -0.069533   0.000575  -0.015892  -0.000307  -0.001033   0.002879
     39       0.136369  -0.000101   0.000319  -0.000087   0.004021  -0.000048
     40       0.062958  -0.000085   0.000361  -0.000070   0.001964  -0.000031
     41      -0.034383  -0.000206   0.001528  -0.000160  -0.001019  -0.000129
                 24         25         26         27         28         29    
      0       0.144925  -0.069769   0.127334   0.028008   0.019416   0.052398
      1      -0.125540  -0.003013  -0.028414   0.058009   0.044371   0.196399
      2       0.010302   0.010120  -0.010305  -0.017312  -0.013023  -0.052659
      3      -0.075445   0.049609  -0.002228  -0.023068  -0.043336  -0.190602
      4      -0.005341   0.088949  -0.046029   0.007463  -0.005645   0.012886
      5       0.011077  -0.027364   0.011000   0.001355   0.007096   0.022508
      6       0.122455   0.052832  -0.034740   0.048215   0.004276   0.112799
      7       0.094402  -0.055411  -0.009380  -0.069811   0.004274  -0.149505
      8      -0.038377   0.005866   0.006852   0.009985  -0.001570   0.019924
      9      -0.030413   0.022884  -0.283840  -0.009443  -0.022868   0.204501
     10      -0.020174  -0.032845  -0.204070  -0.037987  -0.020801  -0.244856
     11       0.008743   0.004579   0.086002   0.010195   0.007886   0.029892
     12      -0.012208  -0.102829  -0.031274  -0.007106  -0.029423   0.051941
     13      -0.067633  -0.025262   0.023484   0.023596  -0.047463   0.189568
     14       0.017584   0.019667  -0.001455  -0.004643   0.015122  -0.051299
     15      -0.091593   0.005065   0.016344  -0.055980   0.052988  -0.208088
     16       0.159068   0.079333   0.111236   0.007107   0.013592  -0.008415
     17      -0.025043  -0.019282  -0.028188   0.005745  -0.010281   0.029510
     18      -0.471116   0.498572   0.604679  -0.131202  -0.439755  -0.152609
     19      -0.047606   0.139549  -0.005061  -0.003581  -0.045370   0.022430
     20       0.075289  -0.098974  -0.079786   0.018057   0.069153   0.014529
     21       0.007050   0.000432   0.035422   0.003655   0.002819   0.006697
     22      -0.001693   0.002209  -0.016544  -0.002225  -0.000104  -0.002634
     23      -0.000675  -0.000683  -0.000980  -0.000008  -0.000424  -0.000510
     24       0.021649  -0.189113   0.173603   0.193839   0.180603  -0.231844
     25      -0.452777  -0.268996   0.054493   0.451935   0.424495  -0.465351
     26       0.100842   0.087284  -0.035648  -0.130829  -0.122561   0.138679
     27       0.123272   0.317305  -0.148370   0.427747   0.004016  -0.220667
     28       0.121644  -0.393706   0.144297  -0.557679   0.004954   0.277515
     29      -0.043903   0.049886  -0.014335   0.072676  -0.001834  -0.035825
     30      -0.135779  -0.264418   0.120541   0.050266  -0.190259   0.009823
     31      -0.357854  -0.397918   0.438066   0.169139  -0.432184   0.097721
     32       0.101256   0.128211  -0.117983  -0.045957   0.126004  -0.023834
     33      -0.488803   0.214964   0.302402  -0.409887   0.554325   0.482239
     34       0.126756   0.110848   0.152227  -0.031193   0.071782   0.072414
     35       0.035280  -0.054396  -0.075653   0.061966  -0.090181  -0.080366
     36      -0.008610  -0.001297  -0.105489  -0.010241  -0.012465  -0.002758
     37       0.014645   0.012222   0.083655   0.009286   0.008164   0.005542
     38      -0.001937  -0.002704  -0.003105  -0.000600   0.000035  -0.000950
     39       0.018815  -0.003874   0.155884   0.012528   0.016158  -0.012718
     40       0.000759  -0.000163   0.004777   0.000463   0.000201  -0.000227
     41      -0.002934   0.000638  -0.024146  -0.001949  -0.002416   0.001979
                 30         31         32         33         34         35    
      0      -0.014510   0.051680   0.122114  -0.065571  -0.036890  -0.186182
      1       0.005333   0.130475   0.018400  -0.166768   0.262484  -0.190311
      2       0.000681  -0.037277  -0.020541   0.047646  -0.056330   0.069125
      3       0.094331   0.092755  -0.112910  -0.068353   0.163362   0.327639
      4       0.030615  -0.067676  -0.087499   0.064454  -0.125288   0.085034
      5      -0.019717   0.003389   0.035453  -0.005925   0.007434  -0.063531
      6      -0.055023  -0.098746  -0.046903   0.111475   0.208685   0.142844
      7       0.068320   0.024925   0.120782   0.048820  -0.314302   0.039966
      8      -0.008634   0.007281  -0.021956  -0.026191   0.045611  -0.028297
      9       0.034290  -0.037226  -0.079543   0.205510  -0.187917  -0.217967
     10      -0.061059   0.080151   0.116886   0.141527   0.271201  -0.089075
     11       0.009710  -0.013890  -0.016635  -0.060847  -0.038257   0.050088
     12      -0.056586   0.080382   0.098056   0.023326   0.016810   0.192470
     13      -0.076301   0.118197  -0.044612  -0.104402  -0.251457   0.214152
     14       0.025338  -0.038285  -0.002576   0.021369   0.056609  -0.075681
     15      -0.000793   0.021150  -0.150009  -0.184824  -0.145104  -0.297940
     16       0.018560  -0.096250  -0.067619   0.009371   0.138465  -0.089680
     17      -0.004241   0.019708   0.035699   0.022373  -0.013126   0.060540
     18      -0.520127  -0.229168   0.406967   0.292765  -0.165907  -0.404705
     19      -0.027166  -0.113733  -0.052691   0.125517  -0.181108   0.014894
     20       0.075771   0.057072  -0.041909  -0.068504   0.064429   0.050596
     21       0.001392  -0.041231   0.013154  -0.058317  -0.010681   0.001911
     22      -0.000528  -0.009462   0.003308  -0.012030  -0.000758   0.001214
     23      -0.000097   0.008480  -0.002730   0.011471   0.001821  -0.000503
     24      -0.147347  -0.219687   0.061048   0.185687  -0.248804  -0.001248
     25      -0.302929  -0.513117  -0.185942   0.420204  -0.180679   0.285076
     26       0.090197   0.148677   0.035222  -0.122549   0.075311  -0.066179
     27       0.209022   0.163412   0.389976   0.076752  -0.301948   0.092697
     28      -0.270974  -0.337220  -0.425997   0.133800   0.334009   0.139678
     29       0.035506   0.056959   0.047512  -0.041439  -0.037858  -0.044711
     30       0.189371  -0.150725   0.123076   0.223204   0.226263  -0.031980
     31       0.529504  -0.465148  -0.041902   0.317107   0.211685  -0.350277
     32      -0.148807   0.128441  -0.006730  -0.104164  -0.079931   0.086116
     33       0.323362  -0.113943   0.548694   0.433003   0.101689   0.338108
     34       0.058012  -0.132095  -0.000397   0.088026   0.191799  -0.025675
     35      -0.056578   0.046062  -0.072586  -0.077992  -0.058238  -0.038696
     36      -0.003864  -0.214445   0.104318  -0.257667   0.014986   0.066806
     37       0.014086  -0.042563  -0.000815  -0.061064  -0.010973   0.018689
     38      -0.002779   0.040824  -0.014754   0.051037   0.000467  -0.013894
     39      -0.002365   0.170780  -0.070565   0.176855   0.005166  -0.030093
     40      -0.000173   0.000229   0.000474  -0.000591   0.000692   0.001170
     41       0.000396  -0.025305   0.010302  -0.025988  -0.000947   0.004162
                 36         37         38         39         40         41    
      0       0.003519   0.031324  -0.050625   0.033068   0.002809  -0.042742
      1       0.001324  -0.012618   0.021597  -0.016713   0.002898   0.017557
      2      -0.000749  -0.001214   0.001681  -0.000488  -0.001048   0.001580
      3      -0.018810  -0.002585   0.004432  -0.005438   0.006846  -0.006425
      4      -0.000303   0.010213  -0.021672   0.025637  -0.050195   0.059401
      5       0.002629  -0.002043   0.004477  -0.005265   0.010820  -0.013025
      6      -0.005840  -0.033623   0.021820   0.030097  -0.036187  -0.029652
      7      -0.000518  -0.025407   0.012910   0.025593  -0.023941  -0.023133
      8       0.000913   0.010399  -0.005912  -0.009974   0.010396   0.009337
      9       0.015966   0.000684  -0.000415   0.001449  -0.002419   0.003494
     10      -0.040264   0.001509   0.002296   0.002726   0.002286   0.000186
     11       0.006812  -0.000446  -0.000483  -0.000833  -0.000210  -0.000511
     12      -0.015664   0.033858   0.044562   0.049474   0.028039   0.012479
     13      -0.007071  -0.016097  -0.020090  -0.020209  -0.009537  -0.004564
     14       0.003723  -0.000722  -0.001207  -0.001832  -0.001485  -0.000588
     15       0.009638  -0.007301  -0.006445   0.001243   0.007511   0.004769
     16       0.000259   0.049317   0.027236  -0.033487  -0.047748  -0.024788
     17      -0.001323  -0.010577  -0.005522   0.007672   0.010180   0.005166
     18       0.012395   0.017792  -0.035606   0.041971  -0.074867   0.084588
     19       0.003175  -0.125694   0.260273  -0.301465   0.570008  -0.660177
     20      -0.002623   0.027014  -0.056097   0.064881  -0.123270   0.143056
     21      -0.851173  -0.000364   0.000456   0.000297   0.000517   0.000302
     22      -0.022623  -0.000128  -0.000159  -0.000231  -0.000050  -0.000108
     23       0.130215   0.000081  -0.000032   0.000007  -0.000065  -0.000023
     24       0.008975  -0.365850   0.585203  -0.382044  -0.016940   0.461207
     25      -0.007167   0.157007  -0.252167   0.167542   0.002558  -0.198372
     26       0.000476   0.011925  -0.018839   0.011625   0.001644  -0.014917
     27      -0.004863   0.401862  -0.237234  -0.359268   0.388459   0.328515
     28      -0.004564   0.297271  -0.171811  -0.269254   0.283423   0.244082
     29       0.001764  -0.122783   0.071636   0.110585  -0.117780  -0.100629
     30      -0.016660  -0.402967  -0.516420  -0.551752  -0.298377  -0.132304
     31       0.026045   0.171917   0.219371   0.232066   0.122976   0.054795
     32      -0.004151   0.013217   0.017151   0.018848   0.010782   0.004717
     33      -0.016049   0.085687   0.049390  -0.050918  -0.078449  -0.041381
     34       0.006799  -0.580898  -0.317694   0.373678   0.526960   0.269875
     35       0.000574   0.124624   0.067825  -0.080730  -0.112966  -0.057699
     36       0.384926  -0.000036  -0.000476  -0.000659  -0.000108  -0.000725
     37       0.039802  -0.000047  -0.000108  -0.000288  -0.000076  -0.000199
     38      -0.065098   0.000016   0.000093   0.000161   0.000035   0.000149
     39       0.311428   0.000121  -0.000188  -0.000115  -0.000196  -0.000134
     40       0.015572   0.000010  -0.000000   0.000015  -0.000004   0.000002
     41      -0.049526  -0.000020   0.000027   0.000013   0.000029   0.000020
# -----------------------------------------------------------
$ THERMOCHEMISTRY_Energies
   description: The Thermochemistry energies
   geom. index: 11
   prop. index: 1
        Temperature (Kelvin)           :        298.1500000000
        Pressure (atm)                 :          1.0000000000
        Total Mass (AMU)               :        119.1230000000
        Spin Degeneracy                :          1.0000000000
        Electronic Energy (Hartree)    :       -400.0354314144
        Translational Energy (Hartree) :          0.0014162714
        Rotational Energy (Hartree)    :          0.0014162714
        Vibrational Energy (Hartree)   :          0.0041995364
        Number of frequencies          :     42      
        Scaling Factor for frequencies :          1.0000000000
        Vibrational frequencies        :     
                  0    
      0       0.000000
      1       0.000000
      2       0.000000
      3       0.000000
      4       0.000000
      5       0.000000
      6      49.495887
      7      89.150525
      8     243.079148
      9     386.219138
     10     423.315937
     11     475.436064
     12     512.141400
     13     607.272525
     14     633.251057
     15     668.200472
     16     716.633767
     17     786.585837
     18     789.937749
     19     867.498752
     20     952.726892
     21     1018.270074
     22     1031.559175
     23     1041.078939
     24     1062.487570
     25     1112.763197
     26     1168.301933
     27     1174.456054
     28     1202.182192
     29     1300.452779
     30     1359.670531
     31     1498.268519
     32     1505.446560
     33     1578.275156
     34     1668.075225
     35     1685.049654
     36     2333.074393
     37     3199.300930
     38     3206.032462
     39     3214.642006
     40     3222.950495
     41     3229.713608
        Zero Point Energy (Hartree)    :          0.1048253194
        Inner Energy (Hartree)         :       -399.9235740158
        Enthalpy (Hartree)             :       -399.9226298067
        Electronic entropy             :          0.0000000000
        Rotational entropy             :          0.0136529556
        Vibrational entropy            :          0.0069794217
        Translational entropy          :          0.0136529556
        Entropy                        :          0.0397514476
        Gibbs Energy (Hartree)         :       -399.9623812543
        Is Linear                      :                 false
# -------------------------------------------------------------
----------------------- !GEOMETRIES! ------------------------
# -------------------------------------------------------------
------------------------ !GEOMETRY! -------------------------
    Number of atoms:    14 
    Geometry Index:     1 
    Coordinates:
               0 C      1.806997170000   -0.419591539000    0.362265296000
               1 C      2.922676222000    0.352003237000    0.030274050000
               2 C      1.949607538000   -1.779650145000    0.662170749000
               3 C      4.193171295000   -0.242406052000   -0.001789539000
               4 C      4.343102391000   -1.607583811000    0.298592995000
               5 C      3.219814239000   -2.368147261000    0.628522451000
               6 H      2.828883115000    1.405481815000   -0.204693992000
               7 C      6.472869090000    0.673488638000   -0.531235218000
               8 H      0.825828439000    0.042593416000    0.386511838000
               9 H      1.080460649000   -2.375177987000    0.919769505000
              10 H      5.329927437000   -2.057214374000    0.271485033000
              11 H      3.338469638000   -3.421524762000    0.859683456000
              12 N      5.292558458000    0.545181058000   -0.335680990000
              13 O      7.629234321000    0.923147767000   -0.754875633000
------------------------ !GEOMETRY! -------------------------
    Number of atoms:    14 
    Geometry Index:     2 
    Coordinates:
               0 C      1.817652382672   -0.421791448842    0.361594689483
               1 C      2.925358080115    0.348445012391    0.030755503952
               2 C      1.963180696866   -1.773464551150    0.658737182161
               3 C      4.187458005016   -0.241042559972   -0.001799175652
               4 C      4.342586318309   -1.595646869362    0.295475993293
               5 C      3.227648559718   -2.355149401430    0.624306215803
               6 H      2.828481501393    1.401213877431   -0.203558925489
               7 C      6.452838061756    0.658121830182   -0.524892323613
               8 H      0.836722968010    0.037637346547    0.386465031400
               9 H      1.096808955346   -2.370563678933    0.916207650334
              10 H      5.329955198764   -2.040566384720    0.267529944844
              11 H      3.349399385747   -3.406788552801    0.855224664616
              12 N      5.285694316888    0.548379964505   -0.335702724642
              13 O      7.589815571401    0.881815416153   -0.739343725490
------------------------ !GEOMETRY! -------------------------
    Number of atoms:    14 
    Geometry Index:     3 
    Coordinates:
               0 C      1.817600140244   -0.423436048078    0.361975499902
               1 C      2.921970452682    0.349583453311    0.031269772088
               2 C      1.967184727905   -1.773090380429    0.657932542438
               3 C      4.183415758347   -0.235990033158   -0.002092850271
               4 C      4.343301558772   -1.587925678886    0.293750472873
               5 C      3.231805832437   -2.350273155534    0.622584241592
               6 H      2.820998245336    1.402172637883   -0.202394129780
               7 C      6.451583397593    0.651181482105   -0.523397668421
               8 H      0.835206292888    0.033270310876    0.387479049571
               9 H      1.102571674468   -2.373001033194    0.915472317065
              10 H      5.332244267390   -2.029526849915    0.264935959826
              11 H      3.356834196522   -3.401816116910    0.853119468725
              12 N      5.281743604902    0.556593773686   -0.336989420902
              13 O      7.587139852515    0.852857638242   -0.732645253707
------------------------ !GEOMETRY! -------------------------
    Number of atoms:    14 
    Geometry Index:     4 
    Coordinates:
               0 C      1.815705288417   -0.425228201728    0.362647860057
               1 C      2.916078029219    0.352890159049    0.031435883295
               2 C      1.971539150520   -1.773715760624    0.657372251130
               3 C      4.178658687840   -0.227232858044   -0.003406443353
               4 C      4.345496132899   -1.577647441862    0.291051370154
               5 C      3.238017845782   -2.345058756672    0.620491644274
               6 H      2.808947558126    1.405121602911   -0.201197413117
               7 C      6.449747827904    0.640683070651   -0.520842656645
               8 H      0.831280986301    0.027307706517    0.389350899626
               9 H      1.109707934563   -2.377670782788    0.915331776973
              10 H      5.336527115294   -2.014641185368    0.260934141313
              11 H      3.367879882396   -3.396302245225    0.850411921661
              12 N      5.275343884993    0.571215238420   -0.339393430599
              13 O      7.588669677746    0.810879454761   -0.723187803769
------------------------ !GEOMETRY! -------------------------
    Number of atoms:    14 
    Geometry Index:     5 
    Coordinates:
               0 C      1.809996365429   -0.429723274964    0.364366049236
               1 C      2.898751302160    0.364414938377    0.031625079267
               2 C      1.984940411850   -1.775811673825    0.655669722515
               3 C      4.166647718168   -0.199019009570   -0.007738006016
               4 C      4.354080932986   -1.546650316171    0.282906028570
               5 C      3.258300071940   -2.329893198540    0.614127742566
               6 H      2.773365367729    1.415266674073   -0.197998943254
               7 C      6.439317137896    0.604762986033   -0.511474071906
               8 H      0.819635694124    0.009825106337    0.394598960133
               9 H      1.131883926808   -2.391921164388    0.914814674642
              10 H      5.351010868941   -1.970173236064    0.248877855783
              11 H      3.402828566562   -3.379916158432    0.841811753196
              12 N      5.255178128476    0.618980939516   -0.347058167842
              13 O      7.587663508933    0.680457387616   -0.693528675890
------------------------ !GEOMETRY! -------------------------
    Number of atoms:    14 
    Geometry Index:     6 
    Coordinates:
               0 C      1.805990901219   -0.432551070015    0.365306711978
               1 C      2.886147443139    0.374280597885    0.032113802417
               2 C      1.995709722532   -1.777519361455    0.653796687435
               3 C      4.159933800308   -0.175621766248   -0.010725115334
               4 C      4.362234600405   -1.522375562253    0.277394502625
               5 C      3.275316478837   -2.318153274698    0.609273084505
               6 H      2.747488890569    1.423915405869   -0.195219519742
               7 C      6.426479084364    0.572540861865   -0.503176933111
               8 H      0.811114760407   -0.003520017226    0.397781647039
               9 H      1.149703775571   -2.403196054812    0.913035546135
              10 H      5.363225894032   -1.936444308634    0.240826026924
              11 H      3.431266335264   -3.366985530697    0.834657054957
              12 N      5.239474973186    0.659565688368   -0.353021836657
              13 O      7.579513342167    0.576664392049   -0.671041658171
------------------------ !GEOMETRY! -------------------------
    Number of atoms:    14 
    Geometry Index:     7 
    Coordinates:
               0 C      1.805056470770   -0.432543815834    0.365295830553
               1 C      2.885124564535    0.375089696164    0.031999092189
               2 C      1.995614000798   -1.778179724825    0.653826308290
               3 C      4.161173491386   -0.173145421541   -0.011351053935
               4 C      4.363101407026   -1.521143879215    0.277249026328
               5 C      3.276501685751   -2.317953715904    0.609071070684
               6 H      2.746726777005    1.424781684540   -0.195207317463
               7 C      6.424876042166    0.567970023785   -0.501958339735
               8 H      0.809930692460   -0.004382206413    0.398045468434
               9 H      1.150274261851   -2.404533631499    0.913080475880
              10 H      5.363830127736   -1.936045874286    0.241078108336
              11 H      3.433348662228   -3.366565737380    0.834112963926
              12 N      5.237772907370    0.666311595844   -0.353629341808
              13 O      7.580268910919    0.570941006564   -0.670612290677
------------------------ !GEOMETRY! -------------------------
    Number of atoms:    14 
    Geometry Index:     8 
    Coordinates:
               0 C      1.805201769568   -0.431912904725    0.364929909836
               1 C      2.887062441795    0.373521804706    0.032226100079
               2 C      1.993287953114   -1.778372133767    0.654013250771
               3 C      4.163901056189   -0.175802370115   -0.010620706497
               4 C      4.362178219162   -1.524837933883    0.278638711084
               5 C      3.274013120487   -2.319971274696    0.609928623953
               6 H      2.752437528612    1.423607659688   -0.195607911022
               7 C      6.425799604779    0.569039614444   -0.502544657966
               8 H      0.810757235549   -0.002356286600    0.397074047604
               9 H      1.147045209341   -2.403457990364    0.912936321645
              10 H      5.361729942275   -1.942805379641    0.243542129635
              11 H      3.429426166502   -3.368673524493    0.835023262239
              12 N      5.238905518497    0.664228266260   -0.352402519718
              13 O      7.581854236130    0.588392453186   -0.676136560642
------------------------ !GEOMETRY! -------------------------
    Number of atoms:    14 
    Geometry Index:     9 
    Coordinates:
               0 C      1.805377000927   -0.431806349464    0.364784658683
               1 C      2.887479945642    0.373084617319    0.032443258328
               2 C      1.993037138961   -1.778331211838    0.653834092595
               3 C      4.164385169200   -0.176255768236   -0.010263701283
               4 C      4.362039338497   -1.525159634280    0.279023696290
               5 C      3.273622047579   -2.320014968546    0.610014028684
               6 H      2.753972765630    1.423312376771   -0.195541308227
               7 C      6.425728923722    0.568035289591   -0.502533453474
               8 H      0.810999387127   -0.002064835315    0.396703362231
               9 H      1.146656787949   -2.403317604355    0.912536537449
              10 H      5.361351411993   -1.943804411585    0.244329748038
              11 H      3.428940495770   -3.368737878522    0.835118148019
              12 N      5.238854773317    0.664062938416   -0.351763338923
              13 O      7.581154815685    0.591597440045   -0.677685727410
------------------------ !GEOMETRY! -------------------------
    Number of atoms:    14 
    Geometry Index:     10 
    Coordinates:
               0 C      1.805473757284   -0.431801829007    0.364652022702
               1 C      2.887615332683    0.372863511988    0.032648667646
               2 C      1.993006608079   -1.778293586167    0.653635970797
               3 C      4.164435843602   -0.176469395472   -0.009863879930
               4 C      4.361961180308   -1.525149695522    0.279336932427
               5 C      3.273406673041   -2.319914504880    0.610042356389
               6 H      2.754684737306    1.423176167113   -0.195373140836
               7 C      6.425881563401    0.567406627347   -0.502668478473
               8 H      0.811083646735   -0.002030181384    0.396394715799
               9 H      1.146552416759   -2.403299876503    0.912110838920
              10 H      5.361186882604   -1.944045063219    0.244916113273
              11 H      3.428743117864   -3.368664932242    0.835132183236
              12 N      5.238936406855    0.663883573106   -0.351115787202
              13 O      7.580631835479    0.592939184843   -0.678848513748
------------------------ !GEOMETRY! -------------------------
    Number of atoms:    14 
    Geometry Index:     11 
    Coordinates:
               0 C      1.805453238327   -0.431826560658    0.364602741626
               1 C      2.887542066423    0.372916964496    0.032717604307
               2 C      1.993069955139   -1.778312298682    0.653534263174
               3 C      4.164349651441   -0.176374950203   -0.009717384227
               4 C      4.362009175423   -1.524995306632    0.279438797583
               5 C      3.273452069334   -2.319841818522    0.610032236934
               6 H      2.754608435857    1.423238943519   -0.195266415621
               7 C      6.425883255945    0.567226157508   -0.502753801481
               8 H      0.811025185722   -0.002130938593    0.396297475996
               9 H      1.146624624891   -2.403381407825    0.911912738553
              10 H      5.361258063814   -1.943834757405    0.245098446368
              11 H      3.428863363146   -3.368593449653    0.835098658852
              12 N      5.238949887235    0.664051839156   -0.350829609339
              13 O      7.580511029305    0.592457583495   -0.679165751725
