14
Coordinates from ORCA-job Product/Product
  C   1.80545323832709     -0.43182656065818      0.36460274162559
  C   2.88754206642293      0.37291696449587      0.03271760430724
  C   1.99306995513858     -1.77831229868166      0.65353426317355
  C   4.16434965144135     -0.17637495020340     -0.00971738422729
  C   4.36200917542285     -1.52499530663228      0.27943879758324
  C   3.27345206933379     -2.31984181852157      0.61003223693407
  H   2.75460843585658      1.42323894351903     -0.19526641562138
  C   6.42588325594473      0.56722615750770     -0.50275380148109
  H   0.81102518572192     -0.00213093859348      0.39629747599601
  H   1.14662462489058     -2.40338140782507      0.91191273855345
  H   5.36125806381370     -1.94383475740473      0.24509844636849
  H   3.42886336314592     -3.36859344965321      0.83509865885245
  N   5.23894988723481      0.66405183915606     -0.35082960933895
  O   7.58051102930515      0.59245758349494     -0.67916575172537
