17
Coordinates from ORCA-job mol
  C   1.30162037749449      0.09498102794596      1.72868795024439
  C   2.14216771403541      0.75341455049015      0.82821621068748
  C   0.47709771801716     -0.95235653407743      1.29916990880377
  C   2.14898796689401      0.34880918295761     -0.51783156356050
  C   1.32669702862732     -0.69843330525821     -0.95842310953964
  C   0.49378678720113     -1.34646284500736     -0.04423636607691
  C   3.83913187999700      1.70575241443090     -1.83706525272891
  N   2.97092324264262      0.99520715356623     -1.43683494138412
  O   6.86645629353836      3.97013935741414      0.09406294604369
  O   4.68055301461791      2.44626647117246     -2.30372622708054
  S   5.30399050251575      4.21010927814141     -0.20712104319700
  O   4.32808148076892      3.27366904084342      0.67507740395830
  H   2.78659722716739      1.56669631759320      1.14228868177131
  H   1.29206787315645      0.40363982147517      2.76865168379307
  H   -0.17246375651590     -1.45819341210152      2.00558671977773
  H   1.35106839542268     -0.98965404767416     -2.00188553275163
  H   -0.14126374558079     -2.15868547191198     -0.38171546876050
