17
Coordinates from ORCA-job mol E -947.731472191537
  C       1.301620      0.094981      1.728688
  C       2.142168      0.753415      0.828216
  C       0.477098     -0.952357      1.299170
  C       2.148988      0.348809     -0.517832
  C       1.326697     -0.698433     -0.958423
  C       0.493787     -1.346463     -0.044236
  C       3.839132      1.705752     -1.837065
  N       2.970923      0.995207     -1.436835
  O       6.866456      3.970139      0.094063
  O       4.680553      2.446266     -2.303726
  S       5.303991      4.210109     -0.207121
  O       4.328081      3.273669      0.675077
  H       2.786597      1.566696      1.142289
  H       1.292068      0.403640      2.768652
  H      -0.172464     -1.458193      2.005587
  H       1.351068     -0.989654     -2.001886
  H      -0.141264     -2.158685     -0.381715
17
Coordinates from ORCA-job mol E -947.731376176352
  C       1.305622      0.098240      1.726489
  C       2.140102      0.758524      0.822655
  C       0.485145     -0.954075      1.301361
  C       2.145205      0.351783     -0.522498
  C       1.326316     -0.699633     -0.959594
  C       0.499262     -1.350196     -0.041478
  C       3.814440      1.731126     -1.842173
  N       2.955637      1.008745     -1.443643
  O       6.864111      3.948816      0.120070
  O       4.702409      2.423404     -2.295322
  S       5.309963      4.200984     -0.210565
  O       4.313726      3.281104      0.665981
  H       2.782240      1.574707      1.133891
  H       1.298390      0.408439      2.766013
  H      -0.160083     -1.461264      2.010663
  H       1.347020     -0.990791     -2.003151
  H      -0.134008     -2.165016     -0.375797
17
Coordinates from ORCA-job mol E -947.731547588711
  C       1.306837      0.097023      1.726635
  C       2.142333      0.756118      0.823207
  C       0.482979     -0.952292      1.300532
  C       2.146580      0.350357     -0.522168
  C       1.324819     -0.698324     -0.960359
  C       0.495528     -1.346973     -0.042724
  C       3.834362      1.715952     -1.830830
  N       2.968164      0.998845     -1.439261
  O       6.859266      3.954789      0.111169
  O       4.688872      2.438072     -2.301006
  S       5.302804      4.204321     -0.209604
  O       4.315041      3.276556      0.668175
  H       2.785104      1.571713      1.134726
  H       1.300427      0.406583      2.766359
  H      -0.163825     -1.457994      2.009432
  H       1.346151     -0.990039     -2.003746
  H      -0.139942     -2.159808     -0.377633
17
Coordinates from ORCA-job mol E -947.731562360238
  C       1.309888      0.099429      1.725445
  C       2.144492      0.757219      0.820262
  C       0.485323     -0.950249      1.301481
  C       2.147251      0.349854     -0.524922
  C       1.324425     -0.698762     -0.960821
  C       0.496084     -1.346143     -0.041312
  C       3.834282      1.714863     -1.834838
  N       2.968412      0.996228     -1.444289
  O       6.854997      3.949093      0.121708
  O       4.686329      2.439926     -2.305175
  S       5.300026      4.202070     -0.203271
  O       4.308793      3.273776      0.669939
  H       2.786818      1.573617      1.130539
  H       1.304680      0.410238      2.764810
  H      -0.160537     -1.455218      2.011792
  H       1.344262     -0.991880     -2.003843
  H      -0.140026     -2.159160     -0.374602
17
Coordinates from ORCA-job mol E -947.731600943494
  C       1.319434      0.108195      1.721115
  C       2.151020      0.761730      0.810168
  C       0.493379     -0.943615      1.304548
  C       2.149247      0.348825     -0.533781
  C       1.324819     -0.701301     -0.961812
  C       0.499654     -1.344780     -0.036349
  C       3.829562      1.717667     -1.845718
  N       2.967473      0.989760     -1.460974
  O       6.842283      3.923159      0.157321
  O       4.676289      2.447927     -2.317710
  S       5.293421      4.191692     -0.183403
  O       4.286506      3.265169      0.673388
  H       2.791849      1.581080      1.115339
  H       1.317482      0.423844      2.759041
  H      -0.149646     -1.445887      2.019423
  H       1.340424     -0.999474     -2.003445
  H      -0.137696     -2.159091     -0.364250
17
Coordinates from ORCA-job mol E -947.731615896427
  C       1.321500      0.111094      1.719700
  C       2.152251      0.763599      0.807184
  C       0.495672     -0.941877      1.305450
  C       2.149686      0.348707     -0.536008
  C       1.325727     -0.702756     -0.961658
  C       0.501440     -1.345259     -0.034757
  C       3.825529      1.721179     -1.848692
  N       2.966432      0.987968     -1.466277
  O       6.840660      3.912219      0.168280
  O       4.671265      2.452361     -2.320839
  S       5.294148      4.187773     -0.177691
  O       4.279786      3.264014      0.673217
  H       2.792816      1.583907      1.110235
  H       1.320020      0.428437      2.757104
  H      -0.146719     -1.443218      2.021526
  H       1.340839     -1.002764     -2.002778
  H      -0.135551     -2.160484     -0.361095
17
Coordinates from ORCA-job mol E -947.731643369898
  C       1.322687      0.115348      1.717510
  C       2.152682      0.766617      0.803204
  C       0.498183     -0.939882      1.306541
  C       2.150270      0.348129     -0.538348
  C       1.328179     -0.706346     -0.960812
  C       0.504669     -1.347492     -0.032531
  C       3.816236      1.729412     -1.851917
  N       2.964765      0.984464     -1.473635
  O       6.842885      3.892542      0.183170
  O       4.659005      2.463813     -2.323761
  S       5.300562      4.182345     -0.170383
  O       4.271900      3.265891      0.670984
  H       2.793244      1.588249      1.102611
  H       1.320889      0.435521      2.754049
  H      -0.143819     -1.439658      2.024020
  H       1.344050     -1.009386     -2.001045
  H      -0.130889     -2.164668     -0.356755
17
Coordinates from ORCA-job mol E -947.731665313670
  C       1.321556      0.117549      1.716059
  C       2.151702      0.768072      0.801173
  C       0.498462     -0.939242      1.306864
  C       2.150587      0.346706     -0.539055
  C       1.330337     -0.710198     -0.959931
  C       0.506565     -1.350235     -0.031411
  C       3.808040      1.736304     -1.852548
  N       2.964461      0.980617     -1.477090
  O       6.849067      3.878980      0.190403
  O       4.646454      2.476147     -2.323096
  S       5.309989      4.180837     -0.167481
  O       4.270464      3.271393      0.667790
  H       2.792638      1.590284      1.098332
  H       1.318670      0.439751      2.751967
  H      -0.143862     -1.437819      2.024867
  H       1.348037     -1.015341     -1.999520
  H      -0.127667     -2.168904     -0.354422
17
Coordinates from ORCA-job mol E -947.731692650474
  C       1.318557      0.120233      1.713710
  C       2.149736      0.768894      0.798260
  C       0.497444     -0.938609      1.306881
  C       2.151224      0.342706     -0.540118
  C       1.333413     -0.717390     -0.958839
  C       0.508486     -1.355009     -0.030037
  C       3.795315      1.746204     -1.852303
  N       2.965865      0.972943     -1.480364
  O       6.861384      3.860438      0.198625
  O       4.623926      2.498744     -2.319352
  S       5.327587      4.181915     -0.164770
  O       4.272959      3.283221      0.662429
  H       2.791398      1.591509      1.093122
  H       1.313639      0.445728      2.748605
  H      -0.145769     -1.435148      2.025496
  H       1.354464     -1.025807     -1.997384
  H      -0.124130     -2.175673     -0.351061
17
Coordinates from ORCA-job mol E -947.731705031215
  C       1.316860      0.121321      1.712165
  C       2.148897      0.768001      0.796155
  C       0.496126     -0.938226      1.306668
  C       2.151622      0.338875     -0.541504
  C       1.334431     -0.722214     -0.958765
  C       0.508469     -1.357599     -0.029322
  C       3.788941      1.750418     -1.851799
  N       2.968267      0.967274     -1.481043
  O       6.868912      3.852767      0.202604
  O       4.610117      2.512664     -2.315949
  S       5.338342      4.185424     -0.163871
  O       4.277174      3.291826      0.660003
  H       2.790859      1.590512      1.090902
  H       1.311123      0.448863      2.746420
  H      -0.147665     -1.433369      2.025750
  H       1.357039     -1.032693     -1.996656
  H      -0.124012     -2.178945     -0.348856
17
Coordinates from ORCA-job mol E -947.731708771210
  C       1.316643      0.121095      1.711550
  C       2.149149      0.766108      0.794989
  C       0.495003     -0.938111      1.306456
  C       2.151739      0.336097     -0.542849
  C       1.333698     -0.724190     -0.959368
  C       0.507120     -1.358030     -0.029125
  C       3.788244      1.749992     -1.851612
  N       2.970520      0.964274     -1.480193
  O       6.871406      3.854739      0.203527
  O       4.606106      2.516670     -2.314349
  S       5.341701      4.189635     -0.164124
  O       4.281141      3.296108      0.660530
  H       2.791044      1.588222      1.091002
  H       1.311235      0.449366      2.745569
  H      -0.149027     -1.432570      2.025824
  H       1.356044     -1.035522     -1.997009
  H      -0.126266     -2.178985     -0.347915
17
Coordinates from ORCA-job mol E -947.731708134263
  C       1.317072      0.120585      1.711606
  C       2.149968      0.764645      0.794848
  C       0.494354     -0.937969      1.306340
  C       2.152081      0.334936     -0.543341
  C       1.333027     -0.724265     -0.959765
  C       0.506031     -1.357412     -0.029184
  C       3.789487      1.748566     -1.851909
  N       2.971790      0.963489     -1.479370
  O       6.870923      3.859391      0.202776
  O       4.607122      2.515526     -2.314737
  S       5.340476      4.191499     -0.164365
  O       4.282905      3.296148      0.662283
  H       2.791807      1.586430      1.091844
  H       1.312079      0.448867      2.745610
  H      -0.149972     -1.432092      2.025678
  H       1.354569     -1.035740     -1.997384
  H      -0.128218     -2.177703     -0.348027
17
Coordinates from ORCA-job mol E -947.731706620917
  C       1.317386      0.120119      1.711775
  C       2.151062      0.763112      0.795073
  C       0.493471     -0.937607      1.306141
  C       2.152845      0.333873     -0.543393
  C       1.332788     -0.724228     -0.959957
  C       0.505033     -1.356620     -0.029348
  C       3.790539      1.747527     -1.852239
  N       2.973376      0.962628     -1.478393
  O       6.870267      3.864649      0.201072
  O       4.607850      2.514598     -2.315620
  S       5.338471      4.192431     -0.164573
  O       4.284553      3.294910      0.664548
  H       2.793130      1.584414      1.092857
  H       1.312606      0.448364      2.745778
  H      -0.151511     -1.431199      2.025252
  H       1.353667     -1.035915     -1.997527
  H      -0.130032     -2.176155     -0.348544
17
Coordinates from ORCA-job mol E -947.731702887793
  C       1.317284      0.119461      1.712134
  C       2.152906      0.760526      0.795979
  C       0.491457     -0.936750      1.305608
  C       2.154576      0.332105     -0.542838
  C       1.333010     -0.724277     -0.960017
  C       0.503480     -1.355321     -0.029820
  C       3.791661      1.746608     -1.852555
  N       2.976752      0.960747     -1.476236
  O       6.869653      3.873997      0.196489
  O       4.607653      2.514350     -2.317379
  S       5.334945      4.193043     -0.165177
  O       4.288097      3.291628      0.668935
  H       2.796020      1.580573      1.094924
  H       1.312470      0.447590      2.746151
  H      -0.155069     -1.429245      2.024076
  H       1.353320     -1.036485     -1.997446
  H      -0.132715     -2.173650     -0.349927
17
Coordinates from ORCA-job mol E -947.731693739280
  C       1.316186      0.118313      1.712915
  C       2.155539      0.756626      0.798378
  C       0.487588     -0.935231      1.304432
  C       2.157840      0.329436     -0.540825
  C       1.334172     -0.724424     -0.959710
  C       0.501133     -1.353323     -0.030992
  C       3.792965      1.745836     -1.852447
  N       2.982810      0.957413     -1.471893
  O       6.869198      3.889641      0.186265
  O       4.605830      2.515408     -2.320041
  S       5.329179      4.193072     -0.166862
  O       4.295160      3.284813      0.676170
  H       2.801207      1.574051      1.098945
  H       1.310656      0.446062      2.747026
  H      -0.161929     -1.425856      2.021461
  H       1.354555     -1.037203     -1.996960
  H      -0.136589     -2.169737     -0.352961
17
Coordinates from ORCA-job mol E -947.731687499743
  C       1.314822      0.118134      1.713277
  C       2.156918      0.754952      0.800214
  C       0.485000     -0.933819      1.303508
  C       2.160294      0.327977     -0.538936
  C       1.335715     -0.724794     -0.959186
  C       0.500121     -1.352290     -0.031885
  C       3.792599      1.746482     -1.852262
  N       2.987270      0.954551     -1.469094
  O       6.869031      3.897899      0.178758
  O       4.602185      2.518437     -2.321743
  S       5.325565      4.191624     -0.167630
  O       4.300018      3.278722      0.680881
  H       2.805138      1.570169      1.101303
  H       1.308343      0.445701      2.747448
  H      -0.166601     -1.423153      2.019524
  H       1.357255     -1.037893     -1.996311
  H      -0.138175     -2.167801     -0.354964
17
Coordinates from ORCA-job mol E -947.731684906345
  C       1.313739      0.118698      1.713238
  C       2.157223      0.755310      0.801194
  C       0.483967     -0.932683      1.302960
  C       2.161768      0.327628     -0.537561
  C       1.337211     -0.725252     -0.958626
  C       0.500210     -1.352051     -0.032406
  C       3.791300      1.747902     -1.852050
  N       2.989825      0.952468     -1.468059
  O       6.868669      3.899005      0.174676
  O       4.598153      2.522166     -2.322387
  S       5.323709      4.189502     -0.167360
  O       4.302022      3.273918      0.682904
  H       2.807460      1.569071      1.101886
  H       1.306377      0.446293      2.747419
  H      -0.168620     -1.421386      2.018514
  H       1.360543     -1.038212     -1.995756
  H      -0.138056     -2.167479     -0.355686
17
Coordinates from ORCA-job mol E -947.731685992932
  C       1.313454      0.119052      1.713104
  C       2.156653      0.756292      0.801138
  C       0.484346     -0.932687      1.302966
  C       2.161501      0.328123     -0.537421
  C       1.337386     -0.725296     -0.958503
  C       0.500658     -1.352395     -0.032417
  C       3.790904      1.748376     -1.851788
  N       2.989396      0.952560     -1.468477
  O       6.868578      3.896521      0.174491
  O       4.597663      2.522891     -2.321809
  S       5.323967      4.189202     -0.166904
  O       4.301658      3.273255      0.682161
  H       2.807099      1.569998      1.101485
  H       1.305911      0.446666      2.747294
  H      -0.167911     -1.421687      2.018626
  H       1.361564     -1.037781     -1.995758
  H      -0.137326     -2.168191     -0.355285
