 $CONTRL SCFTYP=rhf RUNTYP=hessian d5=.t. 
!dfttyp=pbe0
 mplevl=2
 maxit=100 icut=20 inttyp=hondo itol=30 gencon=.f. wide=1                                
 mult=1 icharg=0 exetyp=run fstint=.t. nzvar=0 $END                            
 $SYSTEM TIMLIM=100000 mwords=360 nojac=1  $END                                  
 $system mxbcst=-1 $end                                                         
 $p2p p2p=.t. dlb=.t. $end                                                      
 $smp                                                                           
  mkl64=21 smppar=1 mklnp=18 np=36 httnp=1 dianp=1                              
  pts=0x101                                                                     
 $end                                                                           
 $mpi mxgsum=0x40000 mnpdot=1d9 $end                                            
 $MOORTH nostf=1 nozero=1 syms=1 symden=1 symvec=1 tole=0 tolz=0 $end           
 $BASIS GBASIS=apvtzs extfil=.t. $END                                          
 $GUESS GUESS=huckel                                                            
 $END                                                                           
! $RIMP2 AUXBAS=cc-pvdz/C VERBOSE=.T. $END
 $MP2 method=1 $END
 $MP2GRD dblbf=0 fused=0 asysnc=1 tol1=1d-12 tol2=1d-12 $END
 $FORCE NVIB=2 VIBSIZ=0.005 $END
 $trans mptran=2 dirtrf=.t. mode=112 cuttrf=1d-20 $end
 $DATA
 C7NH5O
C1
CARBON      6.0   1.8015227672  -0.4302154670   0.3655772134
CARBON      6.0   2.8861493002   0.3740850463   0.0303869131
CARBON      6.0   1.9893364458  -1.7797941531   0.6569594300
CARBON      6.0   4.1666407786  -0.1765752923  -0.0140017819
CARBON      6.0   4.3625355758  -1.5291384723   0.2768924642
CARBON      6.0   3.2715219575  -2.3244842086   0.6114945718
HYDROGEN    1.0   2.7584473591   1.4225387646  -0.1980676569
CARBON      6.0   6.4299640048   0.5625923256  -0.5003228114
HYDROGEN    1.0   0.8100380206  -0.0005295115   0.3985141872
HYDROGEN    1.0   1.1450900198  -2.4022800094   0.9171633788
HYDROGEN    1.0   5.3602192248  -1.9459689821   0.2394023475
HYDROGEN    1.0   3.4257382896  -3.3707166285   0.8365633972
NITROGEN    7.0   5.2309071327   0.6629178747  -0.3552525284
OXYGEN      8.0   7.5954891256   0.6081687138  -0.6743091235
 $END

