17
  00000 4999.00
     C  -3.3849 -1.2868 -0.1013
     C  -2.3856 -0.3256 -0.2398
     C  -3.0915 -2.5334  0.4689
     C  -1.0767 -0.6094  0.1940
     C  -0.7816 -1.8593  0.7634
     C  -1.7905 -2.8156  0.8995
     H  -2.6012  0.6403 -0.6814
     C  -0.0306  0.3995  0.0514
     H  -4.3919 -1.0658 -0.4383
     H  -3.8728 -3.2786  0.5753
     H   0.2285 -2.0700  1.0919
     H  -1.5600 -3.7794  1.3405
     N  -0.2213  1.5714 -0.4722
     O   0.9322  2.3814 -0.4854
     O   1.2390  0.0574  0.5253
     S   2.4924  1.3501  0.0221
     O   3.2181  0.8636 -1.3174
17
  00001 4999.00
     C  -3.3849 -1.2868 -0.1013
     C  -2.3856 -0.3256 -0.2398
     C  -3.0915 -2.5334  0.4689
     C  -1.0767 -0.6094  0.1940
     C  -0.7816 -1.8593  0.7634
     C  -1.7905 -2.8156  0.8995
     H  -2.6012  0.6403 -0.6814
     C  -0.0306  0.3995  0.0514
     H  -4.3919 -1.0658 -0.4383
     H  -3.8728 -3.2786  0.5753
     H   0.2285 -2.0700  1.0919
     H  -1.5600 -3.7794  1.3405
     N  -0.2213  1.5714 -0.4722
     O   0.9322  2.3814 -0.4854
     O   1.2390  0.0574  0.5253
     S   2.4924  1.3501  0.0221
     O   3.2181  0.8636 -1.3174
17
  00002 4999.00
     C  -3.3849 -1.2868 -0.1013
     C  -2.3856 -0.3256 -0.2398
     C  -3.0915 -2.5334  0.4689
     C  -1.0767 -0.6094  0.1940
     C  -0.7816 -1.8593  0.7634
     C  -1.7905 -2.8156  0.8995
     H  -2.6012  0.6403 -0.6814
     C  -0.0306  0.3995  0.0514
     H  -4.3919 -1.0658 -0.4383
     H  -3.8728 -3.2786  0.5753
     H   0.2285 -2.0700  1.0919
     H  -1.5600 -3.7794  1.3405
     N  -0.2213  1.5714 -0.4722
     O   0.9322  2.3814 -0.4854
     O   1.2390  0.0574  0.5253
     S   2.4924  1.3501  0.0221
     O   3.2181  0.8636 -1.3174
17
  00003 4999.00
     C  -3.3849 -1.2868 -0.1013
     C  -2.3856 -0.3256 -0.2398
     C  -3.0915 -2.5334  0.4689
     C  -1.0767 -0.6094  0.1940
     C  -0.7816 -1.8593  0.7634
     C  -1.7905 -2.8156  0.8995
     H  -2.6012  0.6403 -0.6814
     C  -0.0306  0.3995  0.0514
     H  -4.3919 -1.0658 -0.4383
     H  -3.8728 -3.2786  0.5753
     H   0.2285 -2.0700  1.0919
     H  -1.5600 -3.7794  1.3405
     N  -0.2213  1.5714 -0.4722
     O   0.9322  2.3814 -0.4854
     O   1.2390  0.0574  0.5253
     S   2.4924  1.3501  0.0221
     O   3.2181  0.8636 -1.3174
17
  00004 4999.00
     C  -3.3849 -1.2868 -0.1013
     C  -2.3856 -0.3256 -0.2398
     C  -3.0915 -2.5334  0.4689
     C  -1.0767 -0.6094  0.1940
     C  -0.7816 -1.8593  0.7634
     C  -1.7905 -2.8156  0.8995
     H  -2.6012  0.6403 -0.6814
     C  -0.0306  0.3995  0.0514
     H  -4.3919 -1.0658 -0.4383
     H  -3.8728 -3.2786  0.5753
     H   0.2285 -2.0700  1.0919
     H  -1.5600 -3.7794  1.3405
     N  -0.2213  1.5714 -0.4722
     O   0.9322  2.3814 -0.4854
     O   1.2390  0.0574  0.5253
     S   2.4924  1.3501  0.0221
     O   3.2181  0.8636 -1.3174
