17
Coordinates from ORCA-job orca E -948.599170012665
  C      -0.097061     -0.015883     -0.033737
  C       0.792906      1.033485     -0.257655
  C       0.359954     -1.226644      0.503825
  C       2.158779      0.864524      0.059671
  C       2.621426     -0.352166      0.598465
  C       1.714844     -1.389686      0.817618
  H       0.447197      1.973496     -0.673008
  C       3.078819      1.929674     -0.168391
  H      -1.146168      0.110771     -0.277289
  H      -0.338272     -2.038533      0.676989
  H       3.672993     -0.452178      0.833571
  H       2.067550     -2.326854      1.233728
  N       3.472306      2.986648     -0.547707
  O       4.397893      3.859767     -0.669818
  O       5.042288      1.417287      0.786848
  S       6.197509      2.473943      0.262882
  O       6.931436      1.949350     -1.075294
17
Coordinates from ORCA-job orca E -948.627959311380
  C      -0.076091     -0.004634     -0.032122
  C       0.816649      1.038691     -0.255480
  C       0.375052     -1.215406      0.503229
  C       2.177180      0.860743      0.059972
  C       2.635174     -0.353114      0.594999
  C       1.726395     -1.385121      0.814757
  H       0.476285      1.981100     -0.669341
  C       3.103653      1.923696     -0.167715
  H      -1.124639      0.127510     -0.274541
  H      -0.327002     -2.023692      0.676861
  H       3.687124     -0.456135      0.828077
  H       2.075346     -2.323858      1.230096
  N       3.458928      2.983843     -0.562432
  O       4.407417      3.824543     -0.661581
  O       5.006479      1.432954      0.761147
  S       6.124121      2.446062      0.256451
  O       6.832328      1.939820     -1.031678
17
Coordinates from ORCA-job orca E -948.647725751162
  C      -0.056323      0.006236     -0.029431
  C       0.839995      1.043392     -0.252490
  C       0.388494     -1.205218      0.503208
  C       2.196034      0.856255      0.060407
  C       2.648705     -0.356494      0.591896
  C       1.736621     -1.382675      0.812117
  H       0.505073      1.988306     -0.664584
  C       3.126658      1.919140     -0.169849
  H      -1.104354      0.144275     -0.270234
  H      -0.317673     -2.009694      0.677169
  H       3.700483     -0.464195      0.822753
  H       2.081207     -2.323497      1.226071
  N       3.448079      2.983385     -0.580685
  O       4.424149      3.789496     -0.654472
  O       4.968072      1.450624      0.736223
  S       6.053976      2.420520      0.247190
  O       6.735205      1.937146     -0.984591
17
Coordinates from ORCA-job orca E -948.655419619461
  C      -0.047547      0.010690     -0.025848
  C       0.848884      1.044097     -0.251001
  C       0.395798     -1.199390      0.503940
  C       2.200936      0.851488      0.057364
  C       2.653328     -0.357941      0.586525
  C       1.741431     -1.380802      0.808887
  H       0.516188      1.990346     -0.661232
  C       3.131934      1.916878     -0.179537
  H      -1.095951      0.150962     -0.263032
  H      -0.311681     -2.002195      0.679648
  H       3.705426     -0.466543      0.814612
  H       2.084458     -2.322630      1.221474
  N       3.461360      2.972957     -0.592424
  O       4.466750      3.740994     -0.636273
  O       4.954933      1.486340      0.728351
  S       5.997392      2.413334      0.242694
  O       6.670758      1.948417     -0.963452
17
Coordinates from ORCA-job orca E -948.657185516304
  C      -0.063159      0.007838     -0.013423
  C       0.832398      1.037870     -0.254232
  C       0.384729     -1.200557      0.513928
  C       2.186964      0.841983      0.035084
  C       2.644475     -0.366230      0.561674
  C       1.733273     -1.384873      0.800422
  H       0.496027      1.984498     -0.660380
  C       3.115456      1.907270     -0.212442
  H      -1.114764      0.150185     -0.234187
  H      -0.322151     -2.000553      0.704168
  H       3.697956     -0.481275      0.778818
  H       2.079430     -2.325768      1.212387
  N       3.507518      2.939786     -0.608107
  O       4.515768      3.702629     -0.634476
  O       4.984202      1.517525      0.771290
  S       6.015560      2.459933      0.249267
  O       6.680717      2.006740     -0.939095
17
Coordinates from ORCA-job orca E -948.655074105791
  C      -0.067437      0.010796     -0.002268
  C       0.828257      1.036823     -0.256918
  C       0.383273     -1.197198      0.522331
  C       2.185104      0.833939      0.012997
  C       2.646538     -0.374491      0.534593
  C       1.734418     -1.387318      0.790041
  H       0.490174      1.984751     -0.658423
  C       3.114296      1.896228     -0.239995
  H      -1.121571      0.156747     -0.207582
  H      -0.324281     -1.993048      0.726776
  H       3.701311     -0.497035      0.740628
  H       2.082095     -2.327784      1.201459
  N       3.540262      2.913241     -0.630749
  O       4.547562      3.671873     -0.626365
  O       4.981682      1.567708      0.826672
  S       5.980496      2.491083      0.283564
  O       6.672222      2.010687     -0.946062
17
Coordinates from ORCA-job orca E -948.655781186541
  C      -0.066614      0.021623      0.016745
  C       0.835944      1.036599     -0.257526
  C       0.379837     -1.189568      0.537110
  C       2.195453      0.816543     -0.016848
  C       2.652926     -0.397086      0.496116
  C       1.733662     -1.396235      0.776359
  H       0.501106      1.988394     -0.652441
  C       3.131325      1.871105     -0.276937
  H      -1.122910      0.179869     -0.166858
  H      -0.333310     -1.974826      0.762057
  H       3.708538     -0.536730      0.685017
  H       2.078193     -2.338283      1.186727
  N       3.572868      2.877725     -0.675205
  O       4.575674      3.646021     -0.638173
  O       4.951368      1.605074      0.885435
  S       5.956657      2.536365      0.296083
  O       6.623683      2.050411     -0.886965
17
Coordinates from ORCA-job orca E -948.656013357845
  C      -0.062465      0.013455     -0.004365
  C       0.835624      1.038323     -0.254753
  C       0.384000     -1.195869      0.519790
  C       2.190458      0.833279      0.021251
  C       2.647279     -0.376368      0.543576
  C       1.733187     -1.388412      0.792667
  H       0.500430      1.986993     -0.656787
  C       3.124473      1.893656     -0.230303
  H      -1.115494      0.160976     -0.214013
  H      -0.325357     -1.991478      0.718844
  H       3.700524     -0.502217      0.753627
  H       2.078307     -2.330381      1.202805
  N       3.542659      2.912440     -0.628290
  O       4.561696      3.659802     -0.628422
  O       4.964152      1.548298      0.816220
  S       5.975939      2.496876      0.253783
  O       6.638987      2.037629     -0.934930
17
Coordinates from ORCA-job orca E -948.656232766709
  C      -0.042393      0.030531      0.004073
  C       0.867119      1.046298     -0.240128
  C       0.391325     -1.188233      0.516957
  C       2.220415      0.823697      0.031130
  C       2.664043     -0.394240      0.543540
  C       1.738855     -1.398126      0.785702
  H       0.542870      2.002136     -0.634167
  C       3.159488      1.879158     -0.225510
  H      -1.093999      0.192505     -0.202159
  H      -0.326690     -1.977495      0.710032
  H       3.716757     -0.533284      0.749031
  H       2.073714     -2.347889      1.186205
  N       3.500982      2.915631     -0.680131
  O       4.541080      3.652088     -0.651187
  O       4.895102      1.580627      0.817891
  S       5.917740      2.512437      0.257534
  O       6.607991      2.001160     -0.898114
17
Coordinates from ORCA-job orca E -948.656624579598
  C      -0.048035      0.043892      0.050767
  C       0.859948      1.054476     -0.219214
  C       0.395952     -1.183603      0.533609
  C       2.219997      0.817896     -0.001427
  C       2.673599     -0.406210      0.484612
  C       1.751339     -1.406889      0.749845
  H       0.529694      2.017789     -0.589438
  C       3.161984      1.861272     -0.287181
  H      -1.105701      0.216774     -0.111027
  H      -0.320685     -1.969396      0.745195
  H       3.734045     -0.547841      0.649437
  H       2.092682     -2.364112      1.126340
  N       3.514898      2.871398     -0.791565
  O       4.540201      3.628307     -0.748266
  O       4.836068      1.652651      0.879483
  S       5.883162      2.549847      0.332448
  O       6.655251      1.960750     -0.732921
17
Coordinates from ORCA-job orca E -948.656918165823
  C      -0.047739      0.051303      0.075184
  C       0.859489      1.062480     -0.196502
  C       0.399780     -1.182731      0.537061
  C       2.222846      0.816689     -0.012390
  C       2.679598     -0.416016      0.449883
  C       1.758119     -1.413937      0.726122
  H       0.526494      2.031294     -0.549483
  C       3.164505      1.857573     -0.307578
  H      -1.107343      0.229298     -0.067123
  H      -0.316090     -1.967612      0.754675
  H       3.741281     -0.566898      0.597477
  H       2.101905     -2.375045      1.090296
  N       3.534761      2.834459     -0.863762
  O       4.549353      3.606088     -0.810922
  O       4.791392      1.726148      0.931161
  S       5.863053      2.580555      0.363985
  O       6.652995      1.923353     -0.647385
17
Coordinates from ORCA-job orca E -948.657097780111
  C      -0.047695      0.062175      0.118871
  C       0.853520      1.073880     -0.171852
  C       0.411695     -1.178703      0.549558
  C       2.220686      0.819435     -0.040368
  C       2.689202     -0.419515      0.393467
  C       1.775217     -1.417563      0.689962
  H       0.513063      2.048664     -0.500420
  C       3.163739      1.848821     -0.361054
  H      -1.111034      0.244970      0.016586
  H      -0.299106     -1.963957      0.782011
  H       3.755642     -0.572351      0.503693
  H       2.127250     -2.384126      1.031028
  N       3.569701      2.785123     -0.960962
  O       4.584069      3.557922     -0.895096
  O       4.704178      1.811787      0.989666
  S       5.815573      2.611122      0.419855
  O       6.648697      1.869316     -0.494246
17
Coordinates from ORCA-job orca E -948.657145421552
  C      -0.048144      0.074370      0.165424
  C       0.848030      1.084066     -0.148986
  C       0.420322     -1.173703      0.565110
  C       2.216423      0.817758     -0.072949
  C       2.693693     -0.426281      0.332304
  C       1.787225     -1.422809      0.652828
  H       0.502760      2.064746     -0.454121
  C       3.164599      1.831894     -0.413645
  H      -1.113564      0.263954      0.106482
  H      -0.286047     -1.957320      0.816009
  H       3.763914     -0.580645      0.405657
  H       2.145505     -2.394619      0.971622
  N       3.607905      2.724195     -1.053266
  O       4.618926      3.500766     -0.973626
  O       4.621012      1.887986      1.024030
  S       5.768599      2.649441      0.475775
  O       6.663243      1.853200     -0.327952
17
Coordinates from ORCA-job orca E -948.657277589709
  C      -0.046331      0.072616      0.165057
  C       0.850739      1.084976     -0.137165
  C       0.420980     -1.178024      0.556049
  C       2.219875      0.820090     -0.063968
  C       2.695404     -0.429561      0.333799
  C       1.787394     -1.427346      0.645987
  H       0.505696      2.067613     -0.436151
  C       3.158643      1.849785     -0.391886
  H      -1.111546      0.262050      0.102823
  H      -0.285756     -1.963887      0.798657
  H       3.762905     -0.593716      0.414667
  H       2.144744     -2.400764      0.960863
  N       3.613797      2.716044     -1.059577
  O       4.625937      3.492341     -1.003568
  O       4.619575      1.948970      1.049596
  S       5.778092      2.661376      0.464720
  O       6.634252      1.814439     -0.329205
17
Coordinates from ORCA-job orca E -948.657322272545
  C      -0.043615      0.076710      0.161658
  C       0.862626      1.081123     -0.139003
  C       0.411843     -1.176704      0.556931
  C       2.230065      0.807558     -0.057883
  C       2.693944     -0.447063      0.341544
  C       1.775627     -1.436528      0.651562
  H       0.525611      2.065483     -0.441518
  C       3.173023      1.834356     -0.391035
  H      -1.107031      0.274479      0.094187
  H      -0.302115     -1.956594      0.797760
  H       3.759255     -0.623510      0.420156
  H       2.123769     -2.413036      0.967230
  N       3.606943      2.717243     -1.052201
  O       4.609014      3.507174     -0.991661
  O       4.634074      1.946401      1.044782
  S       5.777463      2.682663      0.456852
  O       6.643902      1.857247     -0.348661
17
Coordinates from ORCA-job orca E -948.657406104266
  C      -0.039104      0.089328      0.199926
  C       0.867632      1.087809     -0.118976
  C       0.416362     -1.171698      0.570416
  C       2.233756      0.799974     -0.081206
  C       2.697565     -0.462332      0.293267
  C       1.779987     -1.446028      0.621827
  H       0.532010      2.078289     -0.402448
  C       3.180123      1.816033     -0.431178
  H      -1.102170      0.297234      0.166125
  H      -0.297610     -1.947032      0.825588
  H       3.763694     -0.648791      0.335401
  H       2.127460     -2.428934      0.917686
  N       3.644123      2.661081     -1.121461
  O       4.640955      3.458515     -1.052626
  O       4.562715      2.027906      1.072513
  S       5.732286      2.729365      0.493331
  O       6.634617      1.856282     -0.217488
17
Coordinates from ORCA-job orca E -948.657355540674
  C      -0.032805      0.106029      0.251336
  C       0.870403      1.097222     -0.100003
  C       0.425549     -1.162916      0.592827
  C       2.232329      0.791577     -0.121816
  C       2.698544     -0.474424      0.224553
  C       1.787698     -1.452763      0.584082
  H       0.535486      2.094072     -0.361077
  C       3.188445      1.785605     -0.491169
  H      -1.094056      0.325066      0.266374
  H      -0.285068     -1.932516      0.873566
  H       3.766067     -0.662463      0.220854
  H       2.137186     -2.441287      0.857920
  N       3.694278      2.587182     -1.203602
  O       4.685717      3.390375     -1.115103
  O       4.465745      2.093124      1.081607
  S       5.666925      2.776858      0.546523
  O       6.631955      1.876259     -0.036174
17
Coordinates from ORCA-job orca E -948.657280407668
  C      -0.026787      0.114779      0.283224
  C       0.873953      1.104130     -0.079496
  C       0.432379     -1.160908      0.599956
  C       2.232388      0.788954     -0.138452
  C       2.698884     -0.480057      0.185799
  C       1.792496     -1.458194      0.556547
  H       0.539796      2.105798     -0.322406
  C       3.190925      1.774955     -0.514856
  H      -1.086045      0.339608      0.326025
  H      -0.275849     -1.929635      0.889028
  H       3.765698     -0.670181      0.157338
  H       2.143371     -2.450972      0.812647
  N       3.731277      2.532084     -1.250181
  O       4.724971      3.332979     -1.165690
  O       4.400817      2.172955      1.091647
  S       5.630070      2.811845      0.565350
  O       6.606055      1.868861      0.074218
17
Coordinates from ORCA-job orca E -948.657439094518
  C      -0.021587      0.119388      0.281835
  C       0.896777      1.095961     -0.068266
  C       0.413884     -1.164816      0.591321
  C       2.253164      0.766357     -0.122846
  C       2.696650     -0.520747      0.195029
  C       1.768043     -1.483867      0.552414
  H       0.577689      2.103924     -0.305361
  C       3.204287      1.771645     -0.492433
  H      -1.077212      0.361439      0.319784
  H      -0.308651     -1.923922      0.870176
  H       3.755530     -0.747388      0.171339
  H       2.099287     -2.485129      0.801556
  N       3.728335      2.526130     -1.244035
  O       4.708692      3.345187     -1.184883
  O       4.423327      2.230525      1.099688
  S       5.638121      2.872059      0.545256
  O       6.618063      1.930252      0.060122
17
Coordinates from ORCA-job orca E -948.657447241628
  C      -0.007826      0.135522      0.320074
  C       0.912708      1.103020     -0.050229
  C       0.421397     -1.155963      0.608733
  C       2.261900      0.755468     -0.144179
  C       2.698457     -0.538185      0.147337
  C       1.770030     -1.492578      0.525958
  H       0.601070      2.116796     -0.271987
  C       3.223162      1.738923     -0.533744
  H      -1.059012      0.389544      0.389454
  H      -0.301865     -1.908191      0.903985
  H       3.753798     -0.775862      0.079759
  H       2.095482     -2.500239      0.756179
  N       3.773508      2.464293     -1.296455
  O       4.742713      3.297926     -1.215779
  O       4.334823      2.305030      1.097632
  S       5.578279      2.915491      0.569854
  O       6.575775      1.946004      0.184107
17
Coordinates from ORCA-job orca E -948.657448433803
  C       0.005595      0.150956      0.356953
  C       0.932869      1.104903     -0.029940
  C       0.418018     -1.151727      0.619312
  C       2.272776      0.734206     -0.164999
  C       2.692724     -0.570649      0.104188
  C       1.756838     -1.512661      0.496186
  H       0.633819      2.126528     -0.232012
  C       3.240608      1.709142     -0.561938
  H      -1.038220      0.423504      0.459571
  H      -0.311171     -1.893378      0.926586
  H       3.741641     -0.825857      0.009992
  H       2.069169     -2.528671      0.706996
  N       3.814188      2.403937     -1.336229
  O       4.772928      3.249670     -1.259647
  O       4.274432      2.372011      1.083521
  S       5.529421      2.983653      0.585340
  O       6.568762      2.021436      0.306818
17
Coordinates from ORCA-job orca E -948.657457588947
  C      -0.000201      0.145009      0.343014
  C       0.925501      1.103280     -0.036912
  C       0.417014     -1.154221      0.614244
  C       2.268982      0.740369     -0.156771
  C       2.693865     -0.561318      0.120969
  C       1.759227     -1.507230      0.506703
  H       0.622337      2.122331     -0.245768
  C       3.233287      1.721023     -0.549914
  H      -1.046654      0.411768      0.433191
  H      -0.310952     -1.899240      0.916175
  H       3.744972     -0.811504      0.038979
  H       2.075479     -2.520528      0.724640
  N       3.797838      2.426927     -1.320336
  O       4.761281      3.266958     -1.246700
  O       4.302529      2.346037      1.089251
  S       5.549899      2.963386      0.579485
  O       6.579996      2.003953      0.260450
17
Coordinates from ORCA-job orca E -948.657452984006
  C       0.003825      0.149869      0.354371
  C       0.931907      1.104049     -0.029929
  C       0.415790     -1.152759      0.617389
  C       2.272364      0.734021     -0.161724
  C       2.691949     -0.571016      0.108121
  C       1.755016     -1.513138      0.497590
  H       0.632950      2.125561     -0.232725
  C       3.239208      1.710750     -0.558006
  H      -1.040304      0.422257      0.454179
  H      -0.314010     -1.894717      0.922457
  H       3.740930     -0.826846      0.016588
  H       2.067055     -2.529119      0.709005
  N       3.811191      2.406454     -1.332438
  O       4.771126      3.250571     -1.259168
  O       4.283789      2.365973      1.084345
  S       5.533959      2.985139      0.583262
  O       6.577653      2.029951      0.297380
17
Coordinates from ORCA-job orca E -948.657458095075
  C       0.000232      0.146197      0.344869
  C       0.926994      1.103100     -0.035974
  C       0.415734     -1.153838      0.614867
  C       2.269755      0.738109     -0.157727
  C       2.692877     -0.564336      0.118826
  C       1.757252     -1.508976      0.505272
  H       0.625196      2.122733     -0.243964
  C       3.235098      1.717448     -0.551460
  H      -1.045653      0.414626      0.436721
  H      -0.313024     -1.897832      0.917445
  H       3.743519     -0.816007      0.035240
  H       2.072094     -2.522939      0.722163
  N       3.799494      2.423183     -1.322241
  O       4.761261      3.265041     -1.248236
  O       4.301815      2.344502      1.087545
  S       5.546853      2.969228      0.580686
  O       6.584902      2.016761      0.266664
17
Coordinates from ORCA-job orca E -948.657454686524
  C       0.002591      0.148403      0.350609
  C       0.930141      1.103750     -0.032080
  C       0.416034     -1.153201      0.616282
  C       2.271533      0.735788     -0.159910
  C       2.692605     -0.568254      0.112385
  C       1.756206     -1.511424      0.500571
  H       0.630062      2.124537     -0.236864
  C       3.237544      1.713713     -0.555252
  H      -1.042269      0.419153      0.447135
  H      -0.313331     -1.896042      0.920227
  H       3.742221     -0.822540      0.023873
  H       2.069404     -2.526608      0.714102
  N       3.806898      2.412926     -1.328374
  O       4.767546      3.256201     -1.254897
  O       4.289937      2.359883      1.086270
  S       5.538990      2.978593      0.581994
  O       6.578287      2.022124      0.284628
17
Coordinates from ORCA-job orca E -948.657456209496
  C       0.001605      0.147589      0.348146
  C       0.929104      1.103379     -0.033610
  C       0.415565     -1.153482      0.615566
  C       2.271008      0.736353     -0.158790
  C       2.692589     -0.567138      0.115255
  C       1.756233     -1.510725      0.502538
  H       0.628573      2.123768     -0.239710
  C       3.236851      1.714765     -0.553479
  H      -1.043630      0.417624      0.442621
  H      -0.313765     -1.896655      0.918783
  H       3.742577     -0.820603      0.028876
  H       2.069837     -2.525499      0.717417
  N       3.803625      2.417083     -1.325663
  O       4.764351      3.260199     -1.252135
  O       4.295554      2.352991      1.086784
  S       5.542273      2.975502      0.581343
  O       6.582050      2.021849      0.276754
17
Coordinates from ORCA-job orca E -948.657455922201
  C       0.001819      0.147820      0.348652
  C       0.929448      1.103411     -0.033272
  C       0.415514     -1.153415      0.615692
  C       2.271210      0.736041     -0.158984
  C       2.692527     -0.567617      0.114690
  C       1.756040     -1.511015      0.502123
  H       0.629132      2.123920     -0.239091
  C       3.237149      1.714297     -0.553814
  H      -1.043308      0.418128      0.443543
  H      -0.313917     -1.896439      0.919031
  H       3.742409     -0.821377      0.027878
  H       2.069432     -2.525918      0.716704
  N       3.804243      2.416154     -1.326187
  O       4.764773      3.259501     -1.252696
  O       4.294643      2.354114      1.086629
  S       5.541534      2.976515      0.581480
  O       6.581749      2.022881      0.278319
