3
Coordinates from ORCA-job orca E -548.671333079384
  S       0.000000     -0.000000      0.464422
  O       0.000000      1.351922     -0.413795
  O       0.000000     -1.351922     -0.413795
3
Coordinates from ORCA-job orca E -548.718268643598
  S       0.000000     -0.000000      0.422910
  O       0.000000      1.266160     -0.393039
  O       0.000000     -1.266160     -0.393039
3
Coordinates from ORCA-job orca E -548.727564854337
  S       0.000000     -0.000000      0.363315
  O       0.000000      1.191558     -0.363242
  O       0.000000     -1.191558     -0.363242
3
Coordinates from ORCA-job orca E -548.731107245040
  S       0.000000     -0.000000      0.375791
  O       0.000000      1.230873     -0.369479
  O       0.000000     -1.230873     -0.369479
3
Coordinates from ORCA-job orca E -548.731273311391
  S       0.000000      0.000000      0.370617
  O       0.000000      1.227219     -0.366892
  O       0.000000     -1.227219     -0.366892
3
Coordinates from ORCA-job orca E -548.731275564319
  S       0.000000      0.000000      0.369705
  O       0.000000      1.226972     -0.366437
  O       0.000000     -1.226972     -0.366437
3
Coordinates from ORCA-job orca E -548.731275634841
  S       0.000000      0.000000      0.369679
  O       0.000000      1.227027     -0.366423
  O       0.000000     -1.227027     -0.366423
