14
Coordinates from ORCA-job inp
  C   2.05981779118340     -0.32041522135795      0.50588472337457
  C   3.28908637213848      0.25608352741364      0.18441954643246
  C   1.94097152000519     -1.70765988509583      0.64882810567579
  C   4.41688290025548     -0.56369048258886      0.00261004818986
  C   4.30207029933372     -1.95442785663274      0.14500406711089
  C   3.06599483258972     -2.51852342256162      0.46706460612079
  H   3.38385673684320      1.34081228105840      0.07217494668511
  C   6.10424865804612      1.08680809340081     -0.51364274007360
  H   1.18629671991652      0.32309117546578      0.64587841067822
  H   0.97509402726799     -2.15347568231458      0.90114933574147
  H   5.18863342319575     -2.57679766660327      0.00041787206346
  H   2.98369465157658     -3.60370143776286      0.57676797366362
  N   5.67536785696614     -0.03845651394386     -0.32097818725568
  O   6.66158421068163      2.10095309152294     -0.72457870840696
