17
Coordinates from ORCA-job orca
  C   1.44389170915016      0.31689955177758      1.59130046934140
  C   2.18138250047230      0.92604925800399      0.58392813089853
  C   0.71941864495390     -0.84600768393221      1.33507001164629
  C   2.18943495497096      0.36096463694407     -0.69522561508068
  C   1.47176788065811     -0.80595822996352     -0.95998742167775
  C   0.73813282997955     -1.40336540760474      0.05902169030026
  C   3.54652689582149      1.94077680345453     -1.95910362215517
  N   2.91479648211989      0.94119093269908     -1.74205677969723
  O   5.76132456543281      2.22996742556186      0.46182002605564
  O   4.17536442782677      2.87265263357730     -2.30658511829074
  S   5.56455088424271      3.68189560386951      0.31981126813983
  O   4.27578120163610      4.22578302901204      0.77814658118803
  H   2.75804263782992      1.82516145379233      0.78104403522954
  H   1.43821387132373      0.75573524674412      2.58491972026157
  H   0.14531099564497     -1.31594431168317      2.12778629123613
  H   1.49342882131163     -1.23034315767194     -1.95868462460789
  H   0.17813069662469     -2.31055878458089     -0.14830304278781
